<?xml version="1.0" encoding="UTF-8"?>
<model ref="r:c920d254-d884-46c4-a930-4a3e800a66be(de.ppme.physunits.intentions)">
  <persistence version="9" />
  <languages>
    <use id="d7a92d38-f7db-40d0-8431-763b0c3c9f20" name="jetbrains.mps.lang.intentions" version="-1" />
    <devkit ref="fbc25dd2-5da4-483a-8b19-70928e1b62d7(jetbrains.mps.devkit.general-purpose)" />
  </languages>
  <imports>
    <import index="ote2" ref="r:505a4475-a865-4dba-9f1a-b7c0cce39ec5(de.ppme.physunits.structure)" />
  </imports>
  <registry>
    <language id="f3061a53-9226-4cc5-a443-f952ceaf5816" name="jetbrains.mps.baseLanguage">
      <concept id="1082485599095" name="jetbrains.mps.baseLanguage.structure.BlockStatement" flags="nn" index="9aQIb">
        <child id="1082485599096" name="statements" index="9aQI4" />
      </concept>
      <concept id="1215693861676" name="jetbrains.mps.baseLanguage.structure.BaseAssignmentExpression" flags="nn" index="d038R">
        <child id="1068498886297" name="rValue" index="37vLTx" />
        <child id="1068498886295" name="lValue" index="37vLTJ" />
      </concept>
      <concept id="1197027756228" name="jetbrains.mps.baseLanguage.structure.DotExpression" flags="nn" index="2OqwBi">
        <child id="1197027771414" name="operand" index="2Oq$k0" />
        <child id="1197027833540" name="operation" index="2OqNvi" />
      </concept>
      <concept id="1137021947720" name="jetbrains.mps.baseLanguage.structure.ConceptFunction" flags="in" index="2VMwT0">
        <child id="1137022507850" name="body" index="2VODD2" />
      </concept>
      <concept id="1070475926800" name="jetbrains.mps.baseLanguage.structure.StringLiteral" flags="nn" index="Xl_RD">
        <property id="1070475926801" name="value" index="Xl_RC" />
      </concept>
      <concept id="1068498886294" name="jetbrains.mps.baseLanguage.structure.AssignmentExpression" flags="nn" index="37vLTI" />
      <concept id="1068580123155" name="jetbrains.mps.baseLanguage.structure.ExpressionStatement" flags="nn" index="3clFbF">
        <child id="1068580123156" name="expression" index="3clFbG" />
      </concept>
      <concept id="1068580123159" name="jetbrains.mps.baseLanguage.structure.IfStatement" flags="nn" index="3clFbJ">
        <child id="1082485599094" name="ifFalseStatement" index="9aQIa" />
        <child id="1068580123160" name="condition" index="3clFbw" />
        <child id="1068580123161" name="ifTrue" index="3clFbx" />
      </concept>
      <concept id="1068580123136" name="jetbrains.mps.baseLanguage.structure.StatementList" flags="sn" stub="5293379017992965193" index="3clFbS">
        <child id="1068581517665" name="statement" index="3cqZAp" />
      </concept>
      <concept id="1068580320020" name="jetbrains.mps.baseLanguage.structure.IntegerConstant" flags="nn" index="3cmrfG">
        <property id="1068580320021" name="value" index="3cmrfH" />
      </concept>
      <concept id="1163668896201" name="jetbrains.mps.baseLanguage.structure.TernaryOperatorExpression" flags="nn" index="3K4zz7">
        <child id="1163668914799" name="condition" index="3K4Cdx" />
        <child id="1163668922816" name="ifTrue" index="3K4E3e" />
        <child id="1163668934364" name="ifFalse" index="3K4GZi" />
      </concept>
    </language>
    <language id="d7a92d38-f7db-40d0-8431-763b0c3c9f20" name="jetbrains.mps.lang.intentions">
      <concept id="3618415754251190715" name="jetbrains.mps.lang.intentions.structure.ChildFilterFunction" flags="in" index="zTJ1e" />
      <concept id="3618415754251192144" name="jetbrains.mps.lang.intentions.structure.ConceptFunctionParameter_childNode" flags="nn" index="zTJq_" />
      <concept id="1192794744107" name="jetbrains.mps.lang.intentions.structure.IntentionDeclaration" flags="ig" index="2S6QgY" />
      <concept id="1192794782375" name="jetbrains.mps.lang.intentions.structure.DescriptionBlock" flags="in" index="2S6ZIM" />
      <concept id="1192795911897" name="jetbrains.mps.lang.intentions.structure.ExecuteBlock" flags="in" index="2Sbjvc" />
      <concept id="1192796902958" name="jetbrains.mps.lang.intentions.structure.ConceptFunctionParameter_node" flags="nn" index="2Sf5sV" />
      <concept id="2522969319638091381" name="jetbrains.mps.lang.intentions.structure.BaseIntentionDeclaration" flags="ig" index="2ZfUlf">
        <property id="2522969319638091386" name="isAvailableInChildNodes" index="2ZfUl0" />
        <reference id="2522969319638198290" name="forConcept" index="2ZfgGC" />
        <child id="2522969319638198291" name="executeFunction" index="2ZfgGD" />
        <child id="2522969319638093994" name="childFilterFunction" index="2ZfVeg" />
        <child id="2522969319638093993" name="descriptionFunction" index="2ZfVej" />
      </concept>
    </language>
    <language id="3a13115c-633c-4c5c-bbcc-75c4219e9555" name="jetbrains.mps.lang.quotation">
      <concept id="5455284157993911077" name="jetbrains.mps.lang.quotation.structure.NodeBuilderInitProperty" flags="ng" index="2pJxcG">
        <reference id="5455284157993911078" name="property" index="2pJxcJ" />
      </concept>
      <concept id="5455284157993911097" name="jetbrains.mps.lang.quotation.structure.NodeBuilderInitPart" flags="ng" index="2pJxcK">
        <child id="5455284157993911094" name="expression" index="2pJxcZ" />
      </concept>
      <concept id="5455284157993863837" name="jetbrains.mps.lang.quotation.structure.NodeBuilder" flags="nn" index="2pJPEk">
        <child id="5455284157993863838" name="quotedNode" index="2pJPEn" />
      </concept>
      <concept id="5455284157993863840" name="jetbrains.mps.lang.quotation.structure.NodeBuilderNode" flags="nn" index="2pJPED">
        <reference id="5455284157993910961" name="concept" index="2pJxaS" />
        <child id="5455284157993911099" name="values" index="2pJxcM" />
      </concept>
    </language>
    <language id="7866978e-a0f0-4cc7-81bc-4d213d9375e1" name="jetbrains.mps.lang.smodel">
      <concept id="1177026924588" name="jetbrains.mps.lang.smodel.structure.RefConcept_Reference" flags="nn" index="chp4Y">
        <reference id="1177026940964" name="conceptDeclaration" index="cht4Q" />
      </concept>
      <concept id="1139621453865" name="jetbrains.mps.lang.smodel.structure.Node_IsInstanceOfOperation" flags="nn" index="1mIQ4w">
        <child id="1177027386292" name="conceptArgument" index="cj9EA" />
      </concept>
      <concept id="1171999116870" name="jetbrains.mps.lang.smodel.structure.Node_IsNullOperation" flags="nn" index="3w_OXm" />
      <concept id="1140133623887" name="jetbrains.mps.lang.smodel.structure.Node_DeleteOperation" flags="nn" index="1PgB_6" />
      <concept id="1138056143562" name="jetbrains.mps.lang.smodel.structure.SLinkAccess" flags="nn" index="3TrEf2">
        <reference id="1138056516764" name="link" index="3Tt5mk" />
      </concept>
    </language>
    <language id="ceab5195-25ea-4f22-9b92-103b95ca8c0c" name="jetbrains.mps.lang.core">
      <concept id="1133920641626" name="jetbrains.mps.lang.core.structure.BaseConcept" flags="ng" index="2VYdi">
        <property id="1193676396447" name="virtualPackage" index="3GE5qa" />
      </concept>
      <concept id="1169194658468" name="jetbrains.mps.lang.core.structure.INamedConcept" flags="ng" index="TrEIO">
        <property id="1169194664001" name="name" index="TrG5h" />
      </concept>
    </language>
  </registry>
  <node concept="2S6QgY" id="298HrzlC9dB">
    <property role="TrG5h" value="physUnit_intention_AddRemoveExponent" />
    <property role="2ZfUl0" value="true" />
    <property role="3GE5qa" value="units" />
    <ref role="2ZfgGC" to="ote2:298HrzlAXFM" resolve="PhysicalUnitRef" />
    <node concept="2S6ZIM" id="298HrzlC9dC" role="2ZfVej">
      <node concept="3clFbS" id="298HrzlC9dD" role="2VODD2">
        <node concept="3clFbF" id="298HrzlCali" role="3cqZAp">
          <node concept="3K4zz7" id="298HrzlCbke" role="3clFbG">
            <node concept="Xl_RD" id="298HrzlCbqH" role="3K4E3e">
              <property role="Xl_RC" value="Add Exponent" />
            </node>
            <node concept="Xl_RD" id="298HrzlCbLJ" role="3K4GZi">
              <property role="Xl_RC" value="Remove Exponent" />
            </node>
            <node concept="2OqwBi" id="298HrzlCaL2" role="3K4Cdx">
              <node concept="2OqwBi" id="298HrzlCapi" role="2Oq$k0">
                <node concept="2Sf5sV" id="298HrzlCalh" role="2Oq$k0" />
                <node concept="3TrEf2" id="298HrzlCa_H" role="2OqNvi">
                  <ref role="3Tt5mk" to="ote2:298HrzlAXFT" />
                </node>
              </node>
              <node concept="3w_OXm" id="298HrzlCaXW" role="2OqNvi" />
            </node>
          </node>
        </node>
      </node>
    </node>
    <node concept="2Sbjvc" id="298HrzlC9dE" role="2ZfgGD">
      <node concept="3clFbS" id="298HrzlC9dF" role="2VODD2">
        <node concept="3clFbJ" id="298HrzlCc4$" role="3cqZAp">
          <node concept="3clFbS" id="298HrzlCc4A" role="3clFbx">
            <node concept="3clFbF" id="298HrzlCcuH" role="3cqZAp">
              <node concept="37vLTI" id="298HrzlCcLo" role="3clFbG">
                <node concept="2pJPEk" id="298HrzlCcMM" role="37vLTx">
                  <node concept="2pJPED" id="298HrzlCcOq" role="2pJPEn">
                    <ref role="2pJxaS" to="ote2:298Hrzl_feV" resolve="Exponent" />
                    <node concept="2pJxcG" id="298HrzlCcVx" role="2pJxcM">
                      <ref role="2pJxcJ" to="ote2:298Hrzl_fu0" resolve="value" />
                      <node concept="3cmrfG" id="298HrzlCcWq" role="2pJxcZ">
                        <property role="3cmrfH" value="1" />
                      </node>
                    </node>
                  </node>
                </node>
                <node concept="2OqwBi" id="298HrzlCcvS" role="37vLTJ">
                  <node concept="2Sf5sV" id="298HrzlCcuF" role="2Oq$k0" />
                  <node concept="3TrEf2" id="298HrzlCcCh" role="2OqNvi">
                    <ref role="3Tt5mk" to="ote2:298HrzlAXFT" />
                  </node>
                </node>
              </node>
            </node>
          </node>
          <node concept="2OqwBi" id="298HrzlCcmI" role="3clFbw">
            <node concept="2OqwBi" id="298HrzlCc6p" role="2Oq$k0">
              <node concept="2Sf5sV" id="298HrzlCc4U" role="2Oq$k0" />
              <node concept="3TrEf2" id="298HrzlCcdU" role="2OqNvi">
                <ref role="3Tt5mk" to="ote2:298HrzlAXFT" />
              </node>
            </node>
            <node concept="3w_OXm" id="298HrzlCcuo" role="2OqNvi" />
          </node>
          <node concept="9aQIb" id="298HrzlCcX0" role="9aQIa">
            <node concept="3clFbS" id="298HrzlCcX1" role="9aQI4">
              <node concept="3clFbF" id="298HrzlCcYw" role="3cqZAp">
                <node concept="2OqwBi" id="298HrzlCdfC" role="3clFbG">
                  <node concept="2OqwBi" id="298HrzlCcZF" role="2Oq$k0">
                    <node concept="2Sf5sV" id="298HrzlCcYv" role="2Oq$k0" />
                    <node concept="3TrEf2" id="298HrzlCd7g" role="2OqNvi">
                      <ref role="3Tt5mk" to="ote2:298HrzlAXFT" />
                    </node>
                  </node>
                  <node concept="1PgB_6" id="298HrzlCdne" role="2OqNvi" />
                </node>
              </node>
            </node>
          </node>
        </node>
      </node>
    </node>
    <node concept="zTJ1e" id="298HrzlC9Ns" role="2ZfVeg">
      <node concept="3clFbS" id="298HrzlC9Nt" role="2VODD2">
        <node concept="3clFbF" id="298HrzlC9VB" role="3cqZAp">
          <node concept="2OqwBi" id="298HrzlC9Zc" role="3clFbG">
            <node concept="zTJq_" id="298HrzlC9VA" role="2Oq$k0" />
            <node concept="1mIQ4w" id="298HrzlCa9L" role="2OqNvi">
              <node concept="chp4Y" id="298HrzlCafj" role="cj9EA">
                <ref role="cht4Q" to="ote2:298Hrzl_feV" resolve="Exponent" />
              </node>
            </node>
          </node>
        </node>
      </node>
    </node>
  </node>
</model>

