<?xml version="1.0" encoding="UTF-8"?>
<model ref="r:5073f37f-c088-45e5-b11c-f4d305e5991e(de.ppme.expressions.textGen)">
  <persistence version="9" />
  <languages>
    <use id="b83431fe-5c8f-40bc-8a36-65e25f4dd253" name="jetbrains.mps.lang.textGen" version="-1" />
    <devkit ref="fbc25dd2-5da4-483a-8b19-70928e1b62d7(jetbrains.mps.devkit.general-purpose)" />
  </languages>
  <imports>
    <import index="pfd6" ref="r:9e939139-f0d1-4eb5-9ac6-55348163d9b2(de.ppme.expressions.structure)" />
    <import index="tpck" ref="r:00000000-0000-4000-0000-011c89590288(jetbrains.mps.lang.core.structure)" implicit="true" />
    <import index="2gyk" ref="r:be57a480-399b-470c-860e-bdfcf98e0b2c(de.ppme.core.structure)" implicit="true" />
  </imports>
  <registry>
    <language id="f3061a53-9226-4cc5-a443-f952ceaf5816" name="jetbrains.mps.baseLanguage">
      <concept id="1082485599095" name="jetbrains.mps.baseLanguage.structure.BlockStatement" flags="nn" index="9aQIb">
        <child id="1082485599096" name="statements" index="9aQI4" />
      </concept>
      <concept id="1076505808687" name="jetbrains.mps.baseLanguage.structure.WhileStatement" flags="nn" index="2$JKZl">
        <child id="1076505808688" name="condition" index="2$JKZa" />
      </concept>
      <concept id="1154032098014" name="jetbrains.mps.baseLanguage.structure.AbstractLoopStatement" flags="nn" index="2LF5Ji">
        <child id="1154032183016" name="body" index="2LFqv$" />
      </concept>
      <concept id="1197027756228" name="jetbrains.mps.baseLanguage.structure.DotExpression" flags="nn" index="2OqwBi">
        <child id="1197027771414" name="operand" index="2Oq$k0" />
        <child id="1197027833540" name="operation" index="2OqNvi" />
      </concept>
      <concept id="1137021947720" name="jetbrains.mps.baseLanguage.structure.ConceptFunction" flags="in" index="2VMwT0">
        <child id="1137022507850" name="body" index="2VODD2" />
      </concept>
      <concept id="1070475926800" name="jetbrains.mps.baseLanguage.structure.StringLiteral" flags="nn" index="Xl_RD">
        <property id="1070475926801" name="value" index="Xl_RC" />
      </concept>
      <concept id="1070534058343" name="jetbrains.mps.baseLanguage.structure.NullLiteral" flags="nn" index="10Nm6u" />
      <concept id="1070534934090" name="jetbrains.mps.baseLanguage.structure.CastExpression" flags="nn" index="10QFUN">
        <child id="1070534934091" name="type" index="10QFUM" />
        <child id="1070534934092" name="expression" index="10QFUP" />
      </concept>
      <concept id="1068431474542" name="jetbrains.mps.baseLanguage.structure.VariableDeclaration" flags="ng" index="33uBYm">
        <child id="1068431790190" name="initializer" index="33vP2m" />
      </concept>
      <concept id="1068498886296" name="jetbrains.mps.baseLanguage.structure.VariableReference" flags="nn" index="37vLTw">
        <reference id="1068581517664" name="variableDeclaration" index="3cqZAo" />
      </concept>
      <concept id="4972933694980447171" name="jetbrains.mps.baseLanguage.structure.BaseVariableDeclaration" flags="ng" index="19Szcq">
        <child id="5680397130376446158" name="type" index="1tU5fm" />
      </concept>
      <concept id="1068580123159" name="jetbrains.mps.baseLanguage.structure.IfStatement" flags="nn" index="3clFbJ">
        <child id="1082485599094" name="ifFalseStatement" index="9aQIa" />
        <child id="1068580123160" name="condition" index="3clFbw" />
        <child id="1068580123161" name="ifTrue" index="3clFbx" />
      </concept>
      <concept id="1068580123136" name="jetbrains.mps.baseLanguage.structure.StatementList" flags="sn" stub="5293379017992965193" index="3clFbS">
        <child id="1068581517665" name="statement" index="3cqZAp" />
      </concept>
      <concept id="1068581242875" name="jetbrains.mps.baseLanguage.structure.PlusExpression" flags="nn" index="3cpWs3" />
      <concept id="1068581242864" name="jetbrains.mps.baseLanguage.structure.LocalVariableDeclarationStatement" flags="nn" index="3cpWs8">
        <child id="1068581242865" name="localVariableDeclaration" index="3cpWs9" />
      </concept>
      <concept id="1068581242863" name="jetbrains.mps.baseLanguage.structure.LocalVariableDeclaration" flags="nr" index="3cpWsn" />
      <concept id="1081773326031" name="jetbrains.mps.baseLanguage.structure.BinaryOperation" flags="nn" index="3uHJSO">
        <child id="1081773367579" name="rightExpression" index="3uHU7w" />
        <child id="1081773367580" name="leftExpression" index="3uHU7B" />
      </concept>
      <concept id="1073239437375" name="jetbrains.mps.baseLanguage.structure.NotEqualsExpression" flags="nn" index="3y3z36" />
      <concept id="6329021646629104957" name="jetbrains.mps.baseLanguage.structure.TextCommentPart" flags="nn" index="3SKdUq">
        <property id="6329021646629104958" name="text" index="3SKdUp" />
      </concept>
      <concept id="6329021646629104954" name="jetbrains.mps.baseLanguage.structure.SingleLineComment" flags="nn" index="3SKdUt">
        <child id="6329021646629175155" name="commentPart" index="3SKWNk" />
      </concept>
    </language>
    <language id="b83431fe-5c8f-40bc-8a36-65e25f4dd253" name="jetbrains.mps.lang.textGen">
      <concept id="1237305334312" name="jetbrains.mps.lang.textGen.structure.NodeAppendPart" flags="ng" index="l9hG8">
        <child id="1237305790512" name="value" index="lb14g" />
      </concept>
      <concept id="1237305557638" name="jetbrains.mps.lang.textGen.structure.ConstantStringAppendPart" flags="ng" index="la8eA">
        <property id="1237305576108" name="value" index="lacIc" />
      </concept>
      <concept id="1237306079178" name="jetbrains.mps.lang.textGen.structure.AppendOperation" flags="nn" index="lc7rE">
        <child id="1237306115446" name="part" index="lcghm" />
      </concept>
      <concept id="1233670071145" name="jetbrains.mps.lang.textGen.structure.ConceptTextGenDeclaration" flags="ig" index="WtQ9Q">
        <reference id="1233670257997" name="conceptDeclaration" index="WuzLi" />
        <child id="1233749296504" name="textGenBlock" index="11c4hB" />
      </concept>
      <concept id="1233748055915" name="jetbrains.mps.lang.textGen.structure.NodeParameter" flags="nn" index="117lpO" />
      <concept id="1233749247888" name="jetbrains.mps.lang.textGen.structure.GenerateTextDeclaration" flags="in" index="11bSqf" />
    </language>
    <language id="7866978e-a0f0-4cc7-81bc-4d213d9375e1" name="jetbrains.mps.lang.smodel">
      <concept id="1177026924588" name="jetbrains.mps.lang.smodel.structure.RefConcept_Reference" flags="nn" index="chp4Y">
        <reference id="1177026940964" name="conceptDeclaration" index="cht4Q" />
      </concept>
      <concept id="7453996997717780434" name="jetbrains.mps.lang.smodel.structure.Node_GetSConceptOperation" flags="nn" index="2yIwOk" />
      <concept id="1139621453865" name="jetbrains.mps.lang.smodel.structure.Node_IsInstanceOfOperation" flags="nn" index="1mIQ4w">
        <child id="1177027386292" name="conceptArgument" index="cj9EA" />
      </concept>
      <concept id="6870613620390542976" name="jetbrains.mps.lang.smodel.structure.ConceptAliasOperation" flags="ng" index="3n3YKJ" />
      <concept id="6407023681583036853" name="jetbrains.mps.lang.smodel.structure.NodeAttributeQualifier" flags="ng" index="3CFYIy">
        <reference id="6407023681583036854" name="attributeConcept" index="3CFYIx" />
      </concept>
      <concept id="6407023681583031218" name="jetbrains.mps.lang.smodel.structure.AttributeAccess" flags="nn" index="3CFZ6_">
        <child id="6407023681583036852" name="qualifier" index="3CFYIz" />
      </concept>
      <concept id="1138055754698" name="jetbrains.mps.lang.smodel.structure.SNodeType" flags="in" index="3Tqbb2">
        <reference id="1138405853777" name="concept" index="ehGHo" />
      </concept>
      <concept id="1138056022639" name="jetbrains.mps.lang.smodel.structure.SPropertyAccess" flags="nn" index="3TrcHB">
        <reference id="1138056395725" name="property" index="3TsBF5" />
      </concept>
      <concept id="1138056143562" name="jetbrains.mps.lang.smodel.structure.SLinkAccess" flags="nn" index="3TrEf2">
        <reference id="1138056516764" name="link" index="3Tt5mk" />
      </concept>
      <concept id="1138056282393" name="jetbrains.mps.lang.smodel.structure.SLinkListAccess" flags="nn" index="3Tsc0h">
        <reference id="1138056546658" name="link" index="3TtcxE" />
      </concept>
    </language>
    <language id="ceab5195-25ea-4f22-9b92-103b95ca8c0c" name="jetbrains.mps.lang.core">
      <concept id="1133920641626" name="jetbrains.mps.lang.core.structure.BaseConcept" flags="ng" index="2VYdi">
        <property id="1193676396447" name="virtualPackage" index="3GE5qa" />
      </concept>
      <concept id="1169194658468" name="jetbrains.mps.lang.core.structure.INamedConcept" flags="ng" index="TrEIO">
        <property id="1169194664001" name="name" index="TrG5h" />
      </concept>
    </language>
    <language id="83888646-71ce-4f1c-9c53-c54016f6ad4f" name="jetbrains.mps.baseLanguage.collections">
      <concept id="1237467461002" name="jetbrains.mps.baseLanguage.collections.structure.GetIteratorOperation" flags="nn" index="uNJiE" />
      <concept id="1237467705688" name="jetbrains.mps.baseLanguage.collections.structure.IteratorType" flags="in" index="uOF1S">
        <child id="1237467730343" name="elementType" index="uOL27" />
      </concept>
      <concept id="1237470895604" name="jetbrains.mps.baseLanguage.collections.structure.HasNextOperation" flags="nn" index="v0PNk" />
      <concept id="1237471031357" name="jetbrains.mps.baseLanguage.collections.structure.GetNextOperation" flags="nn" index="v1n4t" />
    </language>
  </registry>
  <node concept="WtQ9Q" id="2Oq03_z$$jY">
    <property role="3GE5qa" value="literals" />
    <ref role="WuzLi" to="pfd6:6fgLCPsD6lb" resolve="StringLiteral" />
    <node concept="11bSqf" id="2Oq03_z$$jZ" role="11c4hB">
      <node concept="3clFbS" id="2Oq03_z$$k0" role="2VODD2">
        <node concept="lc7rE" id="2Oq03_z$$li" role="3cqZAp">
          <node concept="la8eA" id="2Oq03_z$$lz" role="lcghm">
            <property role="lacIc" value="&quot;" />
          </node>
          <node concept="l9hG8" id="2Oq03_z$$m_" role="lcghm">
            <node concept="2OqwBi" id="2Oq03_z$$pJ" role="lb14g">
              <node concept="117lpO" id="2Oq03_z$$nn" role="2Oq$k0" />
              <node concept="3TrcHB" id="2Oq03_z$$_l" role="2OqNvi">
                <ref role="3TsBF5" to="pfd6:6fgLCPsD6ll" resolve="value" />
              </node>
            </node>
          </node>
          <node concept="la8eA" id="2Oq03_z$$ma" role="lcghm">
            <property role="lacIc" value="&quot;" />
          </node>
        </node>
      </node>
    </node>
  </node>
  <node concept="WtQ9Q" id="2Oq03_z_0BG">
    <property role="3GE5qa" value="literals.real" />
    <ref role="WuzLi" to="pfd6:5l83jlMfYoB" resolve="DecimalLiteral" />
    <node concept="11bSqf" id="2Oq03_z_0BH" role="11c4hB">
      <node concept="3clFbS" id="2Oq03_z_0BI" role="2VODD2">
        <node concept="lc7rE" id="2Oq03_z_0Cy" role="3cqZAp">
          <node concept="l9hG8" id="2Oq03_z_0CN" role="lcghm">
            <node concept="2OqwBi" id="2Oq03_z_0Gh" role="lb14g">
              <node concept="117lpO" id="2Oq03_z_0Dz" role="2Oq$k0" />
              <node concept="3TrcHB" id="2Oq03_z_0TA" role="2OqNvi">
                <ref role="3TsBF5" to="pfd6:5l83jlMfYoC" resolve="value" />
              </node>
            </node>
          </node>
        </node>
        <node concept="3SKdUt" id="699Tyk2vJ1Z" role="3cqZAp">
          <node concept="3SKdUq" id="699Tyk2vJ3d" role="3SKWNk">
            <property role="3SKdUp" value="appending suffix for Fortran" />
          </node>
        </node>
        <node concept="3clFbJ" id="7bntxMfKm1L" role="3cqZAp">
          <node concept="3clFbS" id="7bntxMfKm1N" role="3clFbx">
            <node concept="lc7rE" id="7bntxMfKmtp" role="3cqZAp">
              <node concept="la8eA" id="7bntxMfKmtB" role="lcghm">
                <property role="lacIc" value="_mk" />
              </node>
            </node>
          </node>
          <node concept="3y3z36" id="7bntxMfKmrf" role="3clFbw">
            <node concept="10Nm6u" id="7bntxMfKmsp" role="3uHU7w" />
            <node concept="2OqwBi" id="7bntxMfKm5T" role="3uHU7B">
              <node concept="117lpO" id="7bntxMfKm39" role="2Oq$k0" />
              <node concept="3CFZ6_" id="7bntxMfKmiF" role="2OqNvi">
                <node concept="3CFYIy" id="7bntxMfKmki" role="3CFYIz">
                  <ref role="3CFYIx" to="2gyk:7bntxMfBCN1" resolve="MyKindAnnotation" />
                </node>
              </node>
            </node>
          </node>
        </node>
      </node>
    </node>
  </node>
  <node concept="WtQ9Q" id="699Tyk2u_cP">
    <property role="3GE5qa" value="expr" />
    <ref role="WuzLi" to="pfd6:5l83jlMf$Lk" resolve="BinaryExpression" />
    <node concept="11bSqf" id="699Tyk2u_cQ" role="11c4hB">
      <node concept="3clFbS" id="699Tyk2u_cR" role="2VODD2">
        <node concept="lc7rE" id="699Tyk2u_do" role="3cqZAp">
          <node concept="l9hG8" id="699Tyk2u_dA" role="lcghm">
            <node concept="2OqwBi" id="699Tyk2u_gG" role="lb14g">
              <node concept="117lpO" id="699Tyk2u_em" role="2Oq$k0" />
              <node concept="3TrEf2" id="699Tyk2u_se" role="2OqNvi">
                <ref role="3Tt5mk" to="pfd6:5l83jlMf$RD" />
              </node>
            </node>
          </node>
          <node concept="l9hG8" id="699Tyk2u_L4" role="lcghm">
            <node concept="3cpWs3" id="hRSdiNgBRd" role="lb14g">
              <node concept="Xl_RD" id="hRSdiNgBRj" role="3uHU7w">
                <property role="Xl_RC" value="" />
              </node>
              <node concept="2OqwBi" id="hRSdiNheIH" role="3uHU7B">
                <node concept="2OqwBi" id="hRSdiNhewf" role="2Oq$k0">
                  <node concept="117lpO" id="hRSdiNhet6" role="2Oq$k0" />
                  <node concept="2yIwOk" id="hRSdiNheFK" role="2OqNvi" />
                </node>
                <node concept="3n3YKJ" id="hRSdiNheWB" role="2OqNvi" />
              </node>
            </node>
          </node>
          <node concept="l9hG8" id="699Tyk2u_vG" role="lcghm">
            <node concept="2OqwBi" id="699Tyk2u_zY" role="lb14g">
              <node concept="117lpO" id="699Tyk2u_xC" role="2Oq$k0" />
              <node concept="3TrEf2" id="699Tyk2u_Jw" role="2OqNvi">
                <ref role="3Tt5mk" to="pfd6:5l83jlMf$RF" />
              </node>
            </node>
          </node>
        </node>
      </node>
    </node>
  </node>
  <node concept="WtQ9Q" id="699Tyk2uD3J">
    <property role="3GE5qa" value="expr" />
    <ref role="WuzLi" to="pfd6:5l83jlMgWog" resolve="ParenthesizedExpression" />
    <node concept="11bSqf" id="699Tyk2uD3K" role="11c4hB">
      <node concept="3clFbS" id="699Tyk2uD3L" role="2VODD2">
        <node concept="lc7rE" id="699Tyk2uD4f" role="3cqZAp">
          <node concept="la8eA" id="699Tyk2uD4t" role="lcghm">
            <property role="lacIc" value="(" />
          </node>
          <node concept="l9hG8" id="699Tyk2uD58" role="lcghm">
            <node concept="2OqwBi" id="699Tyk2uD8a" role="lb14g">
              <node concept="117lpO" id="699Tyk2uD5T" role="2Oq$k0" />
              <node concept="3TrEf2" id="699Tyk2uDjK" role="2OqNvi">
                <ref role="3Tt5mk" to="pfd6:5l83jlMfE3N" />
              </node>
            </node>
          </node>
          <node concept="la8eA" id="699Tyk2uDms" role="lcghm">
            <property role="lacIc" value=")" />
          </node>
        </node>
      </node>
    </node>
  </node>
  <node concept="WtQ9Q" id="699Tyk2vFJ9">
    <property role="3GE5qa" value="expr.arith" />
    <ref role="WuzLi" to="pfd6:2NzQxypWqRy" resolve="MulExpression" />
    <node concept="11bSqf" id="699Tyk2vFJa" role="11c4hB">
      <node concept="3clFbS" id="699Tyk2vFJb" role="2VODD2">
        <node concept="lc7rE" id="699Tyk2vFKg" role="3cqZAp">
          <node concept="l9hG8" id="699Tyk2vFKh" role="lcghm">
            <node concept="2OqwBi" id="699Tyk2vFKi" role="lb14g">
              <node concept="117lpO" id="699Tyk2vFKj" role="2Oq$k0" />
              <node concept="3TrEf2" id="699Tyk2vFKk" role="2OqNvi">
                <ref role="3Tt5mk" to="pfd6:5l83jlMf$RD" />
              </node>
            </node>
          </node>
          <node concept="la8eA" id="699Tyk2vHkH" role="lcghm">
            <property role="lacIc" value=" * " />
          </node>
          <node concept="l9hG8" id="699Tyk2vFKp" role="lcghm">
            <node concept="2OqwBi" id="699Tyk2vFKq" role="lb14g">
              <node concept="117lpO" id="699Tyk2vFKr" role="2Oq$k0" />
              <node concept="3TrEf2" id="699Tyk2vFKs" role="2OqNvi">
                <ref role="3Tt5mk" to="pfd6:5l83jlMf$RF" />
              </node>
            </node>
          </node>
        </node>
      </node>
    </node>
  </node>
  <node concept="WtQ9Q" id="699Tyk2vFOn">
    <property role="3GE5qa" value="expr.arith" />
    <ref role="WuzLi" to="pfd6:5l83jlMgOU3" resolve="MinusExpression" />
    <node concept="11bSqf" id="699Tyk2vFOo" role="11c4hB">
      <node concept="3clFbS" id="699Tyk2vFOp" role="2VODD2">
        <node concept="lc7rE" id="699Tyk2vFPx" role="3cqZAp">
          <node concept="l9hG8" id="699Tyk2vFPy" role="lcghm">
            <node concept="2OqwBi" id="699Tyk2vFPz" role="lb14g">
              <node concept="117lpO" id="699Tyk2vFP$" role="2Oq$k0" />
              <node concept="3TrEf2" id="699Tyk2vFP_" role="2OqNvi">
                <ref role="3Tt5mk" to="pfd6:5l83jlMf$RD" />
              </node>
            </node>
          </node>
          <node concept="la8eA" id="699Tyk2vG_D" role="lcghm">
            <property role="lacIc" value=" - " />
          </node>
          <node concept="l9hG8" id="699Tyk2vFPE" role="lcghm">
            <node concept="2OqwBi" id="699Tyk2vFPF" role="lb14g">
              <node concept="117lpO" id="699Tyk2vFPG" role="2Oq$k0" />
              <node concept="3TrEf2" id="699Tyk2vFPH" role="2OqNvi">
                <ref role="3Tt5mk" to="pfd6:5l83jlMf$RF" />
              </node>
            </node>
          </node>
        </node>
      </node>
    </node>
  </node>
  <node concept="WtQ9Q" id="699Tyk2vHoF">
    <property role="3GE5qa" value="expr.arith" />
    <ref role="WuzLi" to="pfd6:5l83jlMgOLI" resolve="PlusExpression" />
    <node concept="11bSqf" id="699Tyk2vHoG" role="11c4hB">
      <node concept="3clFbS" id="699Tyk2vHoH" role="2VODD2">
        <node concept="lc7rE" id="699Tyk2vHpM" role="3cqZAp">
          <node concept="l9hG8" id="699Tyk2vHpN" role="lcghm">
            <node concept="2OqwBi" id="699Tyk2vHpO" role="lb14g">
              <node concept="117lpO" id="699Tyk2vHpP" role="2Oq$k0" />
              <node concept="3TrEf2" id="699Tyk2vHpQ" role="2OqNvi">
                <ref role="3Tt5mk" to="pfd6:5l83jlMf$RD" />
              </node>
            </node>
          </node>
          <node concept="la8eA" id="699Tyk2vHsR" role="lcghm">
            <property role="lacIc" value=" + " />
          </node>
          <node concept="l9hG8" id="699Tyk2vHpV" role="lcghm">
            <node concept="2OqwBi" id="699Tyk2vHpW" role="lb14g">
              <node concept="117lpO" id="699Tyk2vHpX" role="2Oq$k0" />
              <node concept="3TrEf2" id="699Tyk2vHpY" role="2OqNvi">
                <ref role="3Tt5mk" to="pfd6:5l83jlMf$RF" />
              </node>
            </node>
          </node>
        </node>
      </node>
    </node>
  </node>
  <node concept="WtQ9Q" id="699Tyk2vI2T">
    <property role="3GE5qa" value="expr.arith" />
    <ref role="WuzLi" to="pfd6:2NzQxypWqRA" resolve="DivExpression" />
    <node concept="11bSqf" id="699Tyk2vI2U" role="11c4hB">
      <node concept="3clFbS" id="699Tyk2vI2V" role="2VODD2">
        <node concept="lc7rE" id="699Tyk2vI43" role="3cqZAp">
          <node concept="l9hG8" id="699Tyk2vI44" role="lcghm">
            <node concept="2OqwBi" id="699Tyk2vI45" role="lb14g">
              <node concept="117lpO" id="699Tyk2vI46" role="2Oq$k0" />
              <node concept="3TrEf2" id="699Tyk2vI47" role="2OqNvi">
                <ref role="3Tt5mk" to="pfd6:5l83jlMf$RD" />
              </node>
            </node>
          </node>
          <node concept="la8eA" id="699Tyk2vI78" role="lcghm">
            <property role="lacIc" value=" / " />
          </node>
          <node concept="l9hG8" id="699Tyk2vI4c" role="lcghm">
            <node concept="2OqwBi" id="699Tyk2vI4d" role="lb14g">
              <node concept="117lpO" id="699Tyk2vI4e" role="2Oq$k0" />
              <node concept="3TrEf2" id="699Tyk2vI4f" role="2OqNvi">
                <ref role="3Tt5mk" to="pfd6:5l83jlMf$RF" />
              </node>
            </node>
          </node>
        </node>
      </node>
    </node>
  </node>
  <node concept="WtQ9Q" id="7zirNRbgNJ0">
    <property role="3GE5qa" value="expr.compare" />
    <ref role="WuzLi" to="pfd6:7CEicFMLVK3" resolve="OrderedComparisonExpression" />
    <node concept="11bSqf" id="7zirNRbgNJ1" role="11c4hB">
      <node concept="3clFbS" id="7zirNRbgNJ2" role="2VODD2">
        <node concept="lc7rE" id="7zirNRbgO1P" role="3cqZAp">
          <node concept="l9hG8" id="7zirNRbgO27" role="lcghm">
            <node concept="2OqwBi" id="7zirNRbgO5J" role="lb14g">
              <node concept="117lpO" id="7zirNRbgO2R" role="2Oq$k0" />
              <node concept="3TrEf2" id="7zirNRbgOkJ" role="2OqNvi">
                <ref role="3Tt5mk" to="pfd6:5l83jlMf$RD" />
              </node>
            </node>
          </node>
          <node concept="l9hG8" id="7zirNRbgPwQ" role="lcghm">
            <node concept="2OqwBi" id="7zirNRbgP_n" role="lb14g">
              <node concept="117lpO" id="7zirNRbgPyv" role="2Oq$k0" />
              <node concept="3TrcHB" id="7zirNRbgPOn" role="2OqNvi">
                <ref role="3TsBF5" to="tpck:gOOYy9I" resolve="alias" />
              </node>
            </node>
          </node>
          <node concept="l9hG8" id="7zirNRbgOFJ" role="lcghm">
            <node concept="2OqwBi" id="7zirNRbgOKF" role="lb14g">
              <node concept="117lpO" id="7zirNRbgOHN" role="2Oq$k0" />
              <node concept="3TrEf2" id="7zirNRbgOZF" role="2OqNvi">
                <ref role="3Tt5mk" to="pfd6:5l83jlMf$RF" />
              </node>
            </node>
          </node>
        </node>
      </node>
    </node>
  </node>
  <node concept="WtQ9Q" id="7zirNRbijvA">
    <property role="3GE5qa" value="expr.compare" />
    <ref role="WuzLi" to="pfd6:7CEicFMLYrk" resolve="LessExpression" />
    <node concept="11bSqf" id="7zirNRbijvB" role="11c4hB">
      <node concept="3clFbS" id="7zirNRbijvC" role="2VODD2">
        <node concept="lc7rE" id="7zirNRbijvU" role="3cqZAp">
          <node concept="l9hG8" id="7zirNRbijw8" role="lcghm">
            <node concept="2OqwBi" id="7zirNRbijUX" role="lb14g">
              <node concept="117lpO" id="7zirNRbijRJ" role="2Oq$k0" />
              <node concept="3TrEf2" id="7zirNRbikbG" role="2OqNvi">
                <ref role="3Tt5mk" to="pfd6:5l83jlMf$RD" />
              </node>
            </node>
          </node>
          <node concept="la8eA" id="7zirNRbijxX" role="lcghm">
            <property role="lacIc" value=" &lt; " />
          </node>
          <node concept="l9hG8" id="7zirNRbijx2" role="lcghm">
            <node concept="2OqwBi" id="7zirNRbij_x" role="lb14g">
              <node concept="117lpO" id="7zirNRbijyj" role="2Oq$k0" />
              <node concept="3TrEf2" id="7zirNRbijQg" role="2OqNvi">
                <ref role="3Tt5mk" to="pfd6:5l83jlMf$RF" />
              </node>
            </node>
          </node>
        </node>
      </node>
    </node>
  </node>
  <node concept="WtQ9Q" id="7zirNRbikkg">
    <property role="3GE5qa" value="expr.compare" />
    <ref role="WuzLi" to="pfd6:7CEicFMLYsn" resolve="GreaterExpression" />
    <node concept="11bSqf" id="7zirNRbikkh" role="11c4hB">
      <node concept="3clFbS" id="7zirNRbikki" role="2VODD2">
        <node concept="lc7rE" id="7zirNRbikl2" role="3cqZAp">
          <node concept="l9hG8" id="7zirNRbikl3" role="lcghm">
            <node concept="2OqwBi" id="7zirNRbikl4" role="lb14g">
              <node concept="117lpO" id="7zirNRbikl5" role="2Oq$k0" />
              <node concept="3TrEf2" id="7zirNRbikl6" role="2OqNvi">
                <ref role="3Tt5mk" to="pfd6:5l83jlMf$RD" />
              </node>
            </node>
          </node>
          <node concept="la8eA" id="7zirNRbikl7" role="lcghm">
            <property role="lacIc" value=" &gt; " />
          </node>
          <node concept="l9hG8" id="7zirNRbikl8" role="lcghm">
            <node concept="2OqwBi" id="7zirNRbikl9" role="lb14g">
              <node concept="117lpO" id="7zirNRbikla" role="2Oq$k0" />
              <node concept="3TrEf2" id="7zirNRbiklb" role="2OqNvi">
                <ref role="3Tt5mk" to="pfd6:5l83jlMf$RF" />
              </node>
            </node>
          </node>
        </node>
      </node>
    </node>
  </node>
  <node concept="WtQ9Q" id="7zirNRbikqb">
    <property role="3GE5qa" value="expr.compare" />
    <ref role="WuzLi" to="pfd6:7CEicFMLYtr" resolve="GreaterEqualsExpression" />
    <node concept="11bSqf" id="7zirNRbikqc" role="11c4hB">
      <node concept="3clFbS" id="7zirNRbikqd" role="2VODD2">
        <node concept="lc7rE" id="7zirNRbikqX" role="3cqZAp">
          <node concept="l9hG8" id="7zirNRbikqY" role="lcghm">
            <node concept="2OqwBi" id="7zirNRbikqZ" role="lb14g">
              <node concept="117lpO" id="7zirNRbikr0" role="2Oq$k0" />
              <node concept="3TrEf2" id="7zirNRbikr1" role="2OqNvi">
                <ref role="3Tt5mk" to="pfd6:5l83jlMf$RD" />
              </node>
            </node>
          </node>
          <node concept="la8eA" id="7zirNRbikr2" role="lcghm">
            <property role="lacIc" value=" &gt;= " />
          </node>
          <node concept="l9hG8" id="7zirNRbikr3" role="lcghm">
            <node concept="2OqwBi" id="7zirNRbikr4" role="lb14g">
              <node concept="117lpO" id="7zirNRbikr5" role="2Oq$k0" />
              <node concept="3TrEf2" id="7zirNRbikr6" role="2OqNvi">
                <ref role="3Tt5mk" to="pfd6:5l83jlMf$RF" />
              </node>
            </node>
          </node>
        </node>
      </node>
    </node>
  </node>
  <node concept="WtQ9Q" id="7zirNRbikwp">
    <property role="3GE5qa" value="expr.compare" />
    <ref role="WuzLi" to="pfd6:7CEicFMLYuw" resolve="LessEqualsExpressions" />
    <node concept="11bSqf" id="7zirNRbikwq" role="11c4hB">
      <node concept="3clFbS" id="7zirNRbikwr" role="2VODD2">
        <node concept="lc7rE" id="7zirNRbikxb" role="3cqZAp">
          <node concept="l9hG8" id="7zirNRbikxc" role="lcghm">
            <node concept="2OqwBi" id="7zirNRbikxd" role="lb14g">
              <node concept="117lpO" id="7zirNRbikxe" role="2Oq$k0" />
              <node concept="3TrEf2" id="7zirNRbikxf" role="2OqNvi">
                <ref role="3Tt5mk" to="pfd6:5l83jlMf$RD" />
              </node>
            </node>
          </node>
          <node concept="la8eA" id="7zirNRbikxg" role="lcghm">
            <property role="lacIc" value=" &lt;= " />
          </node>
          <node concept="l9hG8" id="7zirNRbikxh" role="lcghm">
            <node concept="2OqwBi" id="7zirNRbikxi" role="lb14g">
              <node concept="117lpO" id="7zirNRbikxj" role="2Oq$k0" />
              <node concept="3TrEf2" id="7zirNRbikxk" role="2OqNvi">
                <ref role="3Tt5mk" to="pfd6:5l83jlMf$RF" />
              </node>
            </node>
          </node>
        </node>
      </node>
    </node>
  </node>
  <node concept="WtQ9Q" id="7zirNRbikA$">
    <property role="3GE5qa" value="expr.compare" />
    <ref role="WuzLi" to="pfd6:7CEicFMLYph" resolve="EqualsExpression" />
    <node concept="11bSqf" id="7zirNRbikA_" role="11c4hB">
      <node concept="3clFbS" id="7zirNRbikAA" role="2VODD2">
        <node concept="lc7rE" id="7zirNRbikBm" role="3cqZAp">
          <node concept="l9hG8" id="7zirNRbikBn" role="lcghm">
            <node concept="2OqwBi" id="7zirNRbikKk" role="lb14g">
              <node concept="117lpO" id="7zirNRbikH4" role="2Oq$k0" />
              <node concept="3TrEf2" id="7zirNRbil13" role="2OqNvi">
                <ref role="3Tt5mk" to="pfd6:5l83jlMf$RD" />
              </node>
            </node>
          </node>
          <node concept="la8eA" id="7zirNRbikBr" role="lcghm">
            <property role="lacIc" value=" == " />
          </node>
          <node concept="l9hG8" id="7zirNRbikBs" role="lcghm">
            <node concept="2OqwBi" id="7zirNRbikBt" role="lb14g">
              <node concept="117lpO" id="7zirNRbikBu" role="2Oq$k0" />
              <node concept="3TrEf2" id="7zirNRbikBv" role="2OqNvi">
                <ref role="3Tt5mk" to="pfd6:5l83jlMf$RF" />
              </node>
            </node>
          </node>
        </node>
      </node>
    </node>
  </node>
  <node concept="WtQ9Q" id="7zirNRbil5O">
    <property role="3GE5qa" value="expr.compare" />
    <ref role="WuzLi" to="pfd6:7CEicFMLYqi" resolve="NotEqualsExpression" />
    <node concept="11bSqf" id="7zirNRbil5P" role="11c4hB">
      <node concept="3clFbS" id="7zirNRbil5Q" role="2VODD2">
        <node concept="lc7rE" id="7zirNRbil6A" role="3cqZAp">
          <node concept="l9hG8" id="7zirNRbil6B" role="lcghm">
            <node concept="2OqwBi" id="7zirNRbil6C" role="lb14g">
              <node concept="117lpO" id="7zirNRbil6D" role="2Oq$k0" />
              <node concept="3TrEf2" id="7zirNRbil6E" role="2OqNvi">
                <ref role="3Tt5mk" to="pfd6:5l83jlMf$RD" />
              </node>
            </node>
          </node>
          <node concept="la8eA" id="7zirNRbil6F" role="lcghm">
            <property role="lacIc" value=" != " />
          </node>
          <node concept="l9hG8" id="7zirNRbil6G" role="lcghm">
            <node concept="2OqwBi" id="7zirNRbil6H" role="lb14g">
              <node concept="117lpO" id="7zirNRbil6I" role="2Oq$k0" />
              <node concept="3TrEf2" id="7zirNRbil6J" role="2OqNvi">
                <ref role="3Tt5mk" to="pfd6:5l83jlMf$RF" />
              </node>
            </node>
          </node>
        </node>
      </node>
    </node>
  </node>
  <node concept="WtQ9Q" id="7zirNRbirfz">
    <property role="3GE5qa" value="expr" />
    <ref role="WuzLi" to="pfd6:5l83jlMf$Lu" resolve="AssignmentExpression" />
    <node concept="11bSqf" id="7zirNRbirf$" role="11c4hB">
      <node concept="3clFbS" id="7zirNRbirf_" role="2VODD2">
        <node concept="3clFbJ" id="4Q17K_Ka2KB" role="3cqZAp">
          <node concept="3clFbS" id="4Q17K_Ka2KD" role="3clFbx">
            <node concept="3SKdUt" id="4Q17K_KjqRS" role="3cqZAp">
              <node concept="3SKdUq" id="4Q17K_KjqV1" role="3SKWNk">
                <property role="3SKdUp" value="we need to handle differentials as special case because the default" />
              </node>
            </node>
            <node concept="3SKdUt" id="4Q17K_Kjr21" role="3cqZAp">
              <node concept="3SKdUq" id="4Q17K_Kjr5c" role="3SKWNk">
                <property role="3SKdUp" value="text gen is not context-dependent (TODO: redesign model to avoid this)" />
              </node>
            </node>
            <node concept="3cpWs8" id="4Q17K_Ka6hP" role="3cqZAp">
              <node concept="3cpWsn" id="4Q17K_Ka6hS" role="3cpWs9">
                <property role="TrG5h" value="n" />
                <node concept="3Tqbb2" id="4Q17K_Ka6hN" role="1tU5fm">
                  <ref role="ehGHo" to="2gyk:4Q17K_JsOfW" resolve="Differential" />
                </node>
                <node concept="10QFUN" id="4Q17K_Ka6EV" role="33vP2m">
                  <node concept="2OqwBi" id="4Q17K_Ka6o5" role="10QFUP">
                    <node concept="117lpO" id="4Q17K_Ka6kT" role="2Oq$k0" />
                    <node concept="3TrEf2" id="4Q17K_Ka6AB" role="2OqNvi">
                      <ref role="3Tt5mk" to="pfd6:5l83jlMf$RD" />
                    </node>
                  </node>
                  <node concept="3Tqbb2" id="4Q17K_Ka6EW" role="10QFUM">
                    <ref role="ehGHo" to="2gyk:4Q17K_JsOfW" resolve="Differential" />
                  </node>
                </node>
              </node>
            </node>
            <node concept="lc7rE" id="4Q17K_Kjrk$" role="3cqZAp">
              <node concept="la8eA" id="4Q17K_KjrnR" role="lcghm">
                <property role="lacIc" value="d" />
              </node>
            </node>
            <node concept="lc7rE" id="4Q17K_Ka49m" role="3cqZAp">
              <node concept="l9hG8" id="4Q17K_Ka49$" role="lcghm">
                <node concept="2OqwBi" id="4Q17K_KeLNx" role="lb14g">
                  <node concept="2OqwBi" id="4Q17K_Ka6Qg" role="2Oq$k0">
                    <node concept="37vLTw" id="4Q17K_Ka6Or" role="2Oq$k0">
                      <ref role="3cqZAo" node="4Q17K_Ka6hS" resolve="n" />
                    </node>
                    <node concept="3TrEf2" id="4Q17K_KeLC$" role="2OqNvi">
                      <ref role="3Tt5mk" to="2gyk:4Q17K_JsOyg" />
                    </node>
                  </node>
                  <node concept="3TrEf2" id="4Q17K_KeLXP" role="2OqNvi">
                    <ref role="3Tt5mk" to="2gyk:m1E9k9eOTV" />
                  </node>
                </node>
              </node>
            </node>
          </node>
          <node concept="2OqwBi" id="4Q17K_Ka3z2" role="3clFbw">
            <node concept="2OqwBi" id="4Q17K_Ka2PJ" role="2Oq$k0">
              <node concept="117lpO" id="4Q17K_Ka2M$" role="2Oq$k0" />
              <node concept="3TrEf2" id="4Q17K_Ka34g" role="2OqNvi">
                <ref role="3Tt5mk" to="pfd6:5l83jlMf$RD" />
              </node>
            </node>
            <node concept="1mIQ4w" id="4Q17K_Ka3Mf" role="2OqNvi">
              <node concept="chp4Y" id="4Q17K_Ka3NG" role="cj9EA">
                <ref role="cht4Q" to="2gyk:4Q17K_JsOfW" resolve="Differential" />
              </node>
            </node>
          </node>
          <node concept="9aQIb" id="4Q17K_Ka711" role="9aQIa">
            <node concept="3clFbS" id="4Q17K_Ka712" role="9aQI4">
              <node concept="lc7rE" id="7zirNRbirfR" role="3cqZAp">
                <node concept="l9hG8" id="7zirNRbirg5" role="lcghm">
                  <node concept="2OqwBi" id="7zirNRbirjI" role="lb14g">
                    <node concept="117lpO" id="7zirNRbirgP" role="2Oq$k0" />
                    <node concept="3TrEf2" id="7zirNRbiryM" role="2OqNvi">
                      <ref role="3Tt5mk" to="pfd6:5l83jlMf$RD" />
                    </node>
                  </node>
                </node>
              </node>
            </node>
          </node>
        </node>
        <node concept="lc7rE" id="4Q17K_KeKQT" role="3cqZAp">
          <node concept="la8eA" id="7zirNRbir$N" role="lcghm">
            <property role="lacIc" value=" = " />
          </node>
          <node concept="l9hG8" id="7zirNRbirBF" role="lcghm">
            <node concept="2OqwBi" id="7zirNRbirGv" role="lb14g">
              <node concept="117lpO" id="7zirNRbirDA" role="2Oq$k0" />
              <node concept="3TrEf2" id="7zirNRbirVv" role="2OqNvi">
                <ref role="3Tt5mk" to="pfd6:5l83jlMf$RF" />
              </node>
            </node>
          </node>
        </node>
      </node>
    </node>
  </node>
  <node concept="WtQ9Q" id="6IDtJdlfOio">
    <property role="3GE5qa" value="literals.real" />
    <ref role="WuzLi" to="pfd6:2dq8QBBlz5g" resolve="ScientificNumberLiteral" />
    <node concept="11bSqf" id="6IDtJdlfOip" role="11c4hB">
      <node concept="3clFbS" id="6IDtJdlfOiq" role="2VODD2">
        <node concept="lc7rE" id="6IDtJdlfRjv" role="3cqZAp">
          <node concept="l9hG8" id="6IDtJdlfRjJ" role="lcghm">
            <node concept="2OqwBi" id="6IDtJdlfRmL" role="lb14g">
              <node concept="117lpO" id="6IDtJdlfRkv" role="2Oq$k0" />
              <node concept="3TrcHB" id="6IDtJdlfRGW" role="2OqNvi">
                <ref role="3TsBF5" to="pfd6:2dq8QBBlAhr" resolve="prefix" />
              </node>
            </node>
          </node>
          <node concept="la8eA" id="6IDtJdlfRJl" role="lcghm">
            <property role="lacIc" value="E" />
          </node>
          <node concept="l9hG8" id="6IDtJdlfRLP" role="lcghm">
            <node concept="2OqwBi" id="6IDtJdlfRPc" role="lb14g">
              <node concept="117lpO" id="6IDtJdlfRMV" role="2Oq$k0" />
              <node concept="3TrcHB" id="6IDtJdlfSbj" role="2OqNvi">
                <ref role="3TsBF5" to="pfd6:2dq8QBBlAhu" resolve="postfix" />
              </node>
            </node>
          </node>
        </node>
      </node>
    </node>
  </node>
  <node concept="WtQ9Q" id="m1E9k9905q">
    <property role="3GE5qa" value="literals" />
    <ref role="WuzLi" to="pfd6:m1E9k98BVA" resolve="IntegerLiteral" />
    <node concept="11bSqf" id="m1E9k9905r" role="11c4hB">
      <node concept="3clFbS" id="m1E9k9905s" role="2VODD2">
        <node concept="lc7rE" id="m1E9k9905I" role="3cqZAp">
          <node concept="l9hG8" id="m1E9k9905W" role="lcghm">
            <node concept="3cpWs3" id="m1E9k991ih" role="lb14g">
              <node concept="Xl_RD" id="m1E9k991jk" role="3uHU7B">
                <property role="Xl_RC" value="" />
              </node>
              <node concept="2OqwBi" id="m1E9k9908T" role="3uHU7w">
                <node concept="117lpO" id="m1E9k9906C" role="2Oq$k0" />
                <node concept="3TrcHB" id="m1E9k990kr" role="2OqNvi">
                  <ref role="3TsBF5" to="pfd6:m1E9k98YZm" resolve="value" />
                </node>
              </node>
            </node>
          </node>
        </node>
      </node>
    </node>
  </node>
  <node concept="WtQ9Q" id="1m9UMNmISsG">
    <property role="3GE5qa" value="expr" />
    <ref role="WuzLi" to="pfd6:3SvAy0XKTvE" resolve="VectorElementAccess" />
    <node concept="11bSqf" id="1m9UMNmISsH" role="11c4hB">
      <node concept="3clFbS" id="1m9UMNmISsI" role="2VODD2">
        <node concept="lc7rE" id="1m9UMNmISNo" role="3cqZAp">
          <node concept="l9hG8" id="1m9UMNmISNA" role="lcghm">
            <node concept="2OqwBi" id="1m9UMNmISQh" role="lb14g">
              <node concept="117lpO" id="1m9UMNmISOm" role="2Oq$k0" />
              <node concept="3TrEf2" id="1m9UMNmIT08" role="2OqNvi">
                <ref role="3Tt5mk" to="pfd6:3SvAy0XKTvF" />
              </node>
            </node>
          </node>
          <node concept="la8eA" id="1m9UMNmIT3m" role="lcghm">
            <property role="lacIc" value="(" />
          </node>
          <node concept="l9hG8" id="1m9UMNmIT5V" role="lcghm">
            <node concept="2OqwBi" id="1m9UMNmIT9D" role="lb14g">
              <node concept="117lpO" id="1m9UMNmIT7I" role="2Oq$k0" />
              <node concept="3TrEf2" id="1m9UMNmITsm" role="2OqNvi">
                <ref role="3Tt5mk" to="pfd6:3SvAy0XKTvH" />
              </node>
            </node>
          </node>
          <node concept="la8eA" id="1m9UMNmITvj" role="lcghm">
            <property role="lacIc" value=")" />
          </node>
        </node>
      </node>
    </node>
  </node>
  <node concept="WtQ9Q" id="1RtLc$XGRJ7">
    <property role="3GE5qa" value="literals.boolean" />
    <ref role="WuzLi" to="pfd6:5l83jlMfP4H" resolve="FalseLiteral" />
    <node concept="11bSqf" id="1RtLc$XGRJ8" role="11c4hB">
      <node concept="3clFbS" id="1RtLc$XGRJ9" role="2VODD2">
        <node concept="lc7rE" id="1RtLc$XGRQf" role="3cqZAp">
          <node concept="la8eA" id="1RtLc$XGRQx" role="lcghm">
            <property role="lacIc" value="false" />
          </node>
        </node>
      </node>
    </node>
  </node>
  <node concept="WtQ9Q" id="1RtLc$XGZhP">
    <property role="3GE5qa" value="literals.boolean" />
    <ref role="WuzLi" to="pfd6:5l83jlMfP4s" resolve="TrueLiteral" />
    <node concept="11bSqf" id="1RtLc$XGZhQ" role="11c4hB">
      <node concept="3clFbS" id="1RtLc$XGZhR" role="2VODD2">
        <node concept="lc7rE" id="1RtLc$XGZii" role="3cqZAp">
          <node concept="la8eA" id="1RtLc$XGZiw" role="lcghm">
            <property role="lacIc" value="true" />
          </node>
        </node>
      </node>
    </node>
  </node>
  <node concept="WtQ9Q" id="4e730WeDCrO">
    <property role="3GE5qa" value="expr.arith" />
    <ref role="WuzLi" to="pfd6:2dq8QBBpO8s" resolve="UnaryMinuxExpression" />
    <node concept="11bSqf" id="4e730WeDCrP" role="11c4hB">
      <node concept="3clFbS" id="4e730WeDCrQ" role="2VODD2">
        <node concept="lc7rE" id="4e730WeDD9K" role="3cqZAp">
          <node concept="la8eA" id="4e730WeDD9U" role="lcghm">
            <property role="lacIc" value="-" />
          </node>
          <node concept="l9hG8" id="4e730WeDDal" role="lcghm">
            <node concept="2OqwBi" id="4e730WeDXFN" role="lb14g">
              <node concept="117lpO" id="4e730WeDDb2" role="2Oq$k0" />
              <node concept="3TrEf2" id="4e730WeDXT8" role="2OqNvi">
                <ref role="3Tt5mk" to="pfd6:5l83jlMfE3N" />
              </node>
            </node>
          </node>
        </node>
      </node>
    </node>
  </node>
  <node concept="WtQ9Q" id="7Sere_Ch1Qt">
    <property role="3GE5qa" value="literals" />
    <ref role="WuzLi" to="pfd6:7Sere_CgOA2" resolve="VectorLiteral" />
    <node concept="11bSqf" id="7Sere_Ch1Qu" role="11c4hB">
      <node concept="3clFbS" id="7Sere_Ch1Qv" role="2VODD2">
        <node concept="3cpWs8" id="7Sere_Ch3fy" role="3cqZAp">
          <node concept="3cpWsn" id="7Sere_Ch3f_" role="3cpWs9">
            <property role="TrG5h" value="iter" />
            <node concept="uOF1S" id="7Sere_Ch3fw" role="1tU5fm">
              <node concept="3Tqbb2" id="7Sere_Ch3fR" role="uOL27" />
            </node>
            <node concept="2OqwBi" id="7Sere_ChEcm" role="33vP2m">
              <node concept="2OqwBi" id="7Sere_Ch3TW" role="2Oq$k0">
                <node concept="117lpO" id="7Sere_Ch3gr" role="2Oq$k0" />
                <node concept="3Tsc0h" id="7Sere_ChmGc" role="2OqNvi">
                  <ref role="3TtcxE" to="pfd6:7Sere_CgRih" />
                </node>
              </node>
              <node concept="uNJiE" id="7Sere_ChHBs" role="2OqNvi" />
            </node>
          </node>
        </node>
        <node concept="2$JKZl" id="7Sere_ChHFg" role="3cqZAp">
          <node concept="3clFbS" id="7Sere_ChHFi" role="2LFqv$">
            <node concept="lc7rE" id="7Sere_ChHW$" role="3cqZAp">
              <node concept="l9hG8" id="7Sere_ChHWM" role="lcghm">
                <node concept="2OqwBi" id="7Sere_ChHZp" role="lb14g">
                  <node concept="37vLTw" id="7Sere_ChHXy" role="2Oq$k0">
                    <ref role="3cqZAo" node="7Sere_Ch3f_" resolve="iter" />
                  </node>
                  <node concept="v1n4t" id="7Sere_ChI6T" role="2OqNvi" />
                </node>
              </node>
            </node>
            <node concept="3clFbJ" id="7Sere_ChI8u" role="3cqZAp">
              <node concept="3clFbS" id="7Sere_ChI8w" role="3clFbx">
                <node concept="lc7rE" id="7Sere_ChIie" role="3cqZAp">
                  <node concept="la8eA" id="7Sere_ChIiq" role="lcghm">
                    <property role="lacIc" value=", " />
                  </node>
                </node>
              </node>
              <node concept="2OqwBi" id="7Sere_ChIaQ" role="3clFbw">
                <node concept="37vLTw" id="7Sere_ChI9r" role="2Oq$k0">
                  <ref role="3cqZAo" node="7Sere_Ch3f_" resolve="iter" />
                </node>
                <node concept="v0PNk" id="7Sere_ChIhN" role="2OqNvi" />
              </node>
            </node>
          </node>
          <node concept="2OqwBi" id="7Sere_ChHIz" role="2$JKZa">
            <node concept="37vLTw" id="7Sere_ChHHc" role="2Oq$k0">
              <ref role="3cqZAo" node="7Sere_Ch3f_" resolve="iter" />
            </node>
            <node concept="v0PNk" id="7Sere_ChHW5" role="2OqNvi" />
          </node>
        </node>
      </node>
    </node>
  </node>
</model>

