<?xml version="1.0" encoding="UTF-8"?>
<model ref="r:0531b869-46e0-4488-bbe5-6b1f8843c25d(de.ppme.expressions.generator.template.main@generator)">
  <persistence version="9" />
  <languages>
    <use id="d7706f63-9be2-479c-a3da-ae92af1e64d5" name="jetbrains.mps.lang.generator.generationContext" version="-1" />
    <use id="ceab5195-25ea-4f22-9b92-103b95ca8c0c" name="jetbrains.mps.lang.core" version="-1" />
    <use id="b401a680-8325-4110-8fd3-84331ff25bef" name="jetbrains.mps.lang.generator" version="-1" />
    <use id="58df54a5-af81-48d5-bb5c-9db2412768a4" name="ppml.expressions" version="-1" />
    <devkit ref="fbc25dd2-5da4-483a-8b19-70928e1b62d7(jetbrains.mps.devkit.general-purpose)" />
  </languages>
  <imports />
  <registry>
    <language id="b401a680-8325-4110-8fd3-84331ff25bef" name="jetbrains.mps.lang.generator">
      <concept id="1095416546421" name="jetbrains.mps.lang.generator.structure.MappingConfiguration" flags="ig" index="bUwia" />
    </language>
    <language id="ceab5195-25ea-4f22-9b92-103b95ca8c0c" name="jetbrains.mps.lang.core">
      <concept id="1169194658468" name="jetbrains.mps.lang.core.structure.INamedConcept" flags="ng" index="TrEIO">
        <property id="1169194664001" name="name" index="TrG5h" />
      </concept>
    </language>
  </registry>
  <node concept="bUwia" id="5l83jlMf$L2">
    <property role="TrG5h" value="main" />
  </node>
</model>

