<?xml version="1.0" encoding="UTF-8"?>
<model ref="r:3f5612c3-180e-4d3d-a7da-a6af1be7d732(de.ppme.core.editor)">
  <persistence version="9" />
  <languages>
    <use id="18bc6592-03a6-4e29-a83a-7ff23bde13ba" name="jetbrains.mps.lang.editor" version="-1" />
    <use id="e359e0a2-368a-4c40-ae2a-e5a09f9cfd58" name="de.itemis.mps.editor.math.notations" version="0" />
    <devkit ref="fbc25dd2-5da4-483a-8b19-70928e1b62d7(jetbrains.mps.devkit.general-purpose)" />
  </languages>
  <imports>
    <import index="pfd6" ref="r:9e939139-f0d1-4eb5-9ac6-55348163d9b2(de.ppme.expressions.structure)" />
    <import index="2gyk" ref="r:be57a480-399b-470c-860e-bdfcf98e0b2c(de.ppme.core.structure)" />
    <import index="tpen" ref="r:00000000-0000-4000-0000-011c895902c3(jetbrains.mps.baseLanguage.editor)" />
    <import index="tpco" ref="r:00000000-0000-4000-0000-011c89590284(jetbrains.mps.lang.core.editor)" />
    <import index="c9eo" ref="r:493484be-3d66-4fd8-b261-ed47cd8c6981(de.ppme.statements.structure)" />
    <import index="eqcn" ref="r:84ce93e4-8a21-447c-8911-c0a4415308db(de.ppme.base.editor)" />
    <import index="tpch" ref="r:00000000-0000-4000-0000-011c8959028d(jetbrains.mps.lang.structure.editor)" />
    <import index="tpck" ref="r:00000000-0000-4000-0000-011c89590288(jetbrains.mps.lang.core.structure)" implicit="true" />
  </imports>
  <registry>
    <language id="18bc6592-03a6-4e29-a83a-7ff23bde13ba" name="jetbrains.mps.lang.editor">
      <concept id="1071666914219" name="jetbrains.mps.lang.editor.structure.ConceptEditorDeclaration" flags="ig" index="24kQdi" />
      <concept id="1226339938453" name="jetbrains.mps.lang.editor.structure.AbstractPaddingStyleClassItem" flags="ln" index="27zB68">
        <property id="1226504838901" name="measure" index="2hoDZC" />
      </concept>
      <concept id="1140524381322" name="jetbrains.mps.lang.editor.structure.CellModel_ListWithRole" flags="ng" index="2czfm3">
        <child id="1140524464360" name="cellLayout" index="2czzBx" />
      </concept>
      <concept id="1078308402140" name="jetbrains.mps.lang.editor.structure.CellModel_Custom" flags="sg" stub="8104358048506730068" index="gc7cB">
        <child id="1176795024817" name="cellProvider" index="3YsKMw" />
      </concept>
      <concept id="1106270549637" name="jetbrains.mps.lang.editor.structure.CellLayout_Horizontal" flags="nn" index="2iRfu4" />
      <concept id="1106270571710" name="jetbrains.mps.lang.editor.structure.CellLayout_Vertical" flags="nn" index="2iRkQZ" />
      <concept id="1237303669825" name="jetbrains.mps.lang.editor.structure.CellLayout_Indent" flags="nn" index="l2Vlx" />
      <concept id="1237307900041" name="jetbrains.mps.lang.editor.structure.IndentLayoutIndentStyleClassItem" flags="ln" index="lj46D" />
      <concept id="1142886221719" name="jetbrains.mps.lang.editor.structure.QueryFunction_NodeCondition" flags="in" index="pkWqt" />
      <concept id="1142886811589" name="jetbrains.mps.lang.editor.structure.ConceptFunctionParameter_node" flags="nn" index="pncrf" />
      <concept id="1237385578942" name="jetbrains.mps.lang.editor.structure.IndentLayoutOnNewLineStyleClassItem" flags="ln" index="pVoyu" />
      <concept id="1080736578640" name="jetbrains.mps.lang.editor.structure.BaseEditorComponent" flags="ig" index="2wURMF">
        <child id="1080736633877" name="cellModel" index="2wV5jI" />
      </concept>
      <concept id="1239814640496" name="jetbrains.mps.lang.editor.structure.CellLayout_VerticalGrid" flags="nn" index="2EHx9g" />
      <concept id="1078939183254" name="jetbrains.mps.lang.editor.structure.CellModel_Component" flags="sg" stub="3162947552742194261" index="PMmxH">
        <reference id="1078939183255" name="editorComponent" index="PMmxG" />
      </concept>
      <concept id="1149850725784" name="jetbrains.mps.lang.editor.structure.CellModel_AttributedNodeCell" flags="ng" index="2SsqMj" />
      <concept id="1214320119173" name="jetbrains.mps.lang.editor.structure.SideTransformAnchorTagStyleClassItem" flags="ln" index="2V7CMv">
        <property id="1214320119174" name="tag" index="2V7CMs" />
      </concept>
      <concept id="1186403694788" name="jetbrains.mps.lang.editor.structure.ColorStyleClassItem" flags="ln" index="VaVBg">
        <property id="1186403713874" name="color" index="Vb096" />
      </concept>
      <concept id="1186403751766" name="jetbrains.mps.lang.editor.structure.FontStyleStyleClassItem" flags="ln" index="Vb9p2" />
      <concept id="1186404549998" name="jetbrains.mps.lang.editor.structure.ForegroundColorStyleClassItem" flags="ln" index="VechU" />
      <concept id="1186414536763" name="jetbrains.mps.lang.editor.structure.BooleanStyleSheetItem" flags="ln" index="VOi$J">
        <property id="1186414551515" name="flag" index="VOm3f" />
      </concept>
      <concept id="1186414860679" name="jetbrains.mps.lang.editor.structure.EditableStyleClassItem" flags="ln" index="VPxyj" />
      <concept id="1186414928363" name="jetbrains.mps.lang.editor.structure.SelectableStyleSheetItem" flags="ln" index="VPM3Z" />
      <concept id="1074767920765" name="jetbrains.mps.lang.editor.structure.CellModel_ModelAccess" flags="sg" stub="8104358048506729357" index="XafU7">
        <child id="1176718152741" name="modelAcessor" index="3TRxkO" />
      </concept>
      <concept id="1214406454886" name="jetbrains.mps.lang.editor.structure.TextBackgroundColorStyleClassItem" flags="ln" index="30gYXW" />
      <concept id="1233758997495" name="jetbrains.mps.lang.editor.structure.PunctuationLeftStyleClassItem" flags="ln" index="11L4FC" />
      <concept id="1233759184865" name="jetbrains.mps.lang.editor.structure.PunctuationRightStyleClassItem" flags="ln" index="11LMrY" />
      <concept id="1233823429331" name="jetbrains.mps.lang.editor.structure.HorizontalGapStyleClassItem" flags="ln" index="15ARfc" />
      <concept id="1088013125922" name="jetbrains.mps.lang.editor.structure.CellModel_RefCell" flags="sg" stub="730538219795941030" index="1iCGBv">
        <child id="1088186146602" name="editorComponent" index="1sWHZn" />
      </concept>
      <concept id="1381004262292414836" name="jetbrains.mps.lang.editor.structure.ICellStyle" flags="ng" index="1k5N5V">
        <reference id="1381004262292426837" name="parentStyleClass" index="1k5W1q" />
      </concept>
      <concept id="1088185857835" name="jetbrains.mps.lang.editor.structure.InlineEditorComponent" flags="ig" index="1sVBvm" />
      <concept id="1215007762405" name="jetbrains.mps.lang.editor.structure.FloatStyleClassItem" flags="ln" index="3$6MrZ">
        <property id="1215007802031" name="value" index="3$6WeP" />
      </concept>
      <concept id="1139848536355" name="jetbrains.mps.lang.editor.structure.CellModel_WithRole" flags="ng" index="1$h60E">
        <property id="1139852716018" name="noTargetText" index="1$x2rV" />
        <property id="1140017977771" name="readOnly" index="1Intyy" />
        <reference id="1140103550593" name="relationDeclaration" index="1NtTu8" />
      </concept>
      <concept id="1073389214265" name="jetbrains.mps.lang.editor.structure.EditorCellModel" flags="ng" index="3EYTF0">
        <child id="1142887637401" name="renderingCondition" index="pqm2j" />
      </concept>
      <concept id="1073389446423" name="jetbrains.mps.lang.editor.structure.CellModel_Collection" flags="sn" stub="3013115976261988961" index="3EZMnI">
        <property id="1160590353935" name="usesFolding" index="S$Qs1" />
        <child id="1106270802874" name="cellLayout" index="2iSdaV" />
        <child id="7723470090030138869" name="foldedCellModel" index="AHCbl" />
        <child id="1073389446424" name="childCellModel" index="3EZMnx" />
      </concept>
      <concept id="1073389577006" name="jetbrains.mps.lang.editor.structure.CellModel_Constant" flags="sn" stub="3610246225209162225" index="3F0ifn">
        <property id="1073389577007" name="text" index="3F0ifm" />
      </concept>
      <concept id="1073389658414" name="jetbrains.mps.lang.editor.structure.CellModel_Property" flags="sg" stub="730538219796134133" index="3F0A7n" />
      <concept id="1219418625346" name="jetbrains.mps.lang.editor.structure.IStyleContainer" flags="ng" index="3F0Thp">
        <child id="1219418656006" name="styleItem" index="3F10Kt" />
      </concept>
      <concept id="1073389882823" name="jetbrains.mps.lang.editor.structure.CellModel_RefNode" flags="sg" stub="730538219795960754" index="3F1sOY" />
      <concept id="1073390211982" name="jetbrains.mps.lang.editor.structure.CellModel_RefNodeList" flags="sg" stub="2794558372793454595" index="3F2HdR" />
      <concept id="1088612959204" name="jetbrains.mps.lang.editor.structure.CellModel_Alternation" flags="sg" stub="8104358048506729361" index="1QoScp">
        <property id="1088613081987" name="vertical" index="1QpmdY" />
        <child id="1145918517974" name="alternationCondition" index="3e4ffs" />
        <child id="1088612958265" name="ifTrueCellModel" index="1QoS34" />
        <child id="1088612973955" name="ifFalseCellModel" index="1QoVPY" />
      </concept>
      <concept id="1176717779940" name="jetbrains.mps.lang.editor.structure.ConceptFunctionParameter_text" flags="nn" index="3TQ6bP" />
      <concept id="1176717841777" name="jetbrains.mps.lang.editor.structure.QueryFunction_ModelAccess_Getter" flags="in" index="3TQlhw" />
      <concept id="1176717871254" name="jetbrains.mps.lang.editor.structure.QueryFunction_ModelAccess_Setter" flags="in" index="3TQsA7" />
      <concept id="1176717888428" name="jetbrains.mps.lang.editor.structure.QueryFunction_ModelAccess_Validator" flags="in" index="3TQwEX" />
      <concept id="1176717996748" name="jetbrains.mps.lang.editor.structure.ModelAccessor" flags="ng" index="3TQVft">
        <child id="1176718001874" name="getter" index="3TQWv3" />
        <child id="1176718007938" name="setter" index="3TQXYj" />
        <child id="1176718014393" name="validator" index="3TQZqC" />
      </concept>
      <concept id="1176749715029" name="jetbrains.mps.lang.editor.structure.QueryFunction_CellProvider" flags="in" index="3VJUX4" />
      <concept id="1166049232041" name="jetbrains.mps.lang.editor.structure.AbstractComponent" flags="ng" index="1XWOmA">
        <reference id="1166049300910" name="conceptDeclaration" index="1XX52x" />
      </concept>
    </language>
    <language id="f3061a53-9226-4cc5-a443-f952ceaf5816" name="jetbrains.mps.baseLanguage">
      <concept id="1215693861676" name="jetbrains.mps.baseLanguage.structure.BaseAssignmentExpression" flags="nn" index="d038R">
        <child id="1068498886297" name="rValue" index="37vLTx" />
        <child id="1068498886295" name="lValue" index="37vLTJ" />
      </concept>
      <concept id="1197027756228" name="jetbrains.mps.baseLanguage.structure.DotExpression" flags="nn" index="2OqwBi">
        <child id="1197027771414" name="operand" index="2Oq$k0" />
        <child id="1197027833540" name="operation" index="2OqNvi" />
      </concept>
      <concept id="1145552977093" name="jetbrains.mps.baseLanguage.structure.GenericNewExpression" flags="nn" index="2ShNRf">
        <child id="1145553007750" name="creator" index="2ShVmc" />
      </concept>
      <concept id="1137021947720" name="jetbrains.mps.baseLanguage.structure.ConceptFunction" flags="in" index="2VMwT0">
        <child id="1137022507850" name="body" index="2VODD2" />
      </concept>
      <concept id="1068498886294" name="jetbrains.mps.baseLanguage.structure.AssignmentExpression" flags="nn" index="37vLTI" />
      <concept id="1225271408483" name="jetbrains.mps.baseLanguage.structure.IsNotEmptyOperation" flags="nn" index="17RvpY" />
      <concept id="1068580123155" name="jetbrains.mps.baseLanguage.structure.ExpressionStatement" flags="nn" index="3clFbF">
        <child id="1068580123156" name="expression" index="3clFbG" />
      </concept>
      <concept id="1068580123136" name="jetbrains.mps.baseLanguage.structure.StatementList" flags="sn" stub="5293379017992965193" index="3clFbS">
        <child id="1068581517665" name="statement" index="3cqZAp" />
      </concept>
      <concept id="1068580123137" name="jetbrains.mps.baseLanguage.structure.BooleanConstant" flags="nn" index="3clFbT">
        <property id="1068580123138" name="value" index="3clFbU" />
      </concept>
      <concept id="1068581242878" name="jetbrains.mps.baseLanguage.structure.ReturnStatement" flags="nn" index="3cpWs6">
        <child id="1068581517676" name="expression" index="3cqZAk" />
      </concept>
      <concept id="1204053956946" name="jetbrains.mps.baseLanguage.structure.IMethodCall" flags="ng" index="1ndlxa">
        <reference id="1068499141037" name="baseMethodDeclaration" index="37wK5l" />
        <child id="1068499141038" name="actualArgument" index="37wK5m" />
      </concept>
      <concept id="1212685548494" name="jetbrains.mps.baseLanguage.structure.ClassCreator" flags="nn" index="1pGfFk" />
    </language>
    <language id="e359e0a2-368a-4c40-ae2a-e5a09f9cfd58" name="de.itemis.mps.editor.math.notations">
      <concept id="8658283006837849794" name="de.itemis.mps.editor.math.notations.structure.SqrtEditor" flags="ng" index="jtDx7">
        <child id="8658283006838153797" name="body" index="jiWj0" />
      </concept>
      <concept id="8658283006837849469" name="de.itemis.mps.editor.math.notations.structure.PowerEditor" flags="ng" index="jtDJS">
        <child id="8658283006839229766" name="superscript" index="jn6J3" />
        <child id="8658283006839229761" name="nomal" index="jn6J4" />
      </concept>
      <concept id="8658283006837848169" name="de.itemis.mps.editor.math.notations.structure.DivisionEditor" flags="ng" index="jtDVG">
        <child id="8658283006838052215" name="lower" index="jiBfM" />
        <child id="8658283006838052220" name="upper" index="jiBfT" />
      </concept>
    </language>
    <language id="7866978e-a0f0-4cc7-81bc-4d213d9375e1" name="jetbrains.mps.lang.smodel">
      <concept id="1177026924588" name="jetbrains.mps.lang.smodel.structure.RefConcept_Reference" flags="nn" index="chp4Y">
        <reference id="1177026940964" name="conceptDeclaration" index="cht4Q" />
      </concept>
      <concept id="1139621453865" name="jetbrains.mps.lang.smodel.structure.Node_IsInstanceOfOperation" flags="nn" index="1mIQ4w">
        <child id="1177027386292" name="conceptArgument" index="cj9EA" />
      </concept>
      <concept id="1172008320231" name="jetbrains.mps.lang.smodel.structure.Node_IsNotNullOperation" flags="nn" index="3x8VRR" />
      <concept id="1140137987495" name="jetbrains.mps.lang.smodel.structure.SNodeTypeCastExpression" flags="nn" index="1PxgMI">
        <reference id="1140138128738" name="concept" index="1PxNhF" />
        <child id="1140138123956" name="leftExpression" index="1PxMeX" />
      </concept>
      <concept id="1138056022639" name="jetbrains.mps.lang.smodel.structure.SPropertyAccess" flags="nn" index="3TrcHB">
        <reference id="1138056395725" name="property" index="3TsBF5" />
      </concept>
      <concept id="1138056143562" name="jetbrains.mps.lang.smodel.structure.SLinkAccess" flags="nn" index="3TrEf2">
        <reference id="1138056516764" name="link" index="3Tt5mk" />
      </concept>
      <concept id="1138056282393" name="jetbrains.mps.lang.smodel.structure.SLinkListAccess" flags="nn" index="3Tsc0h">
        <reference id="1138056546658" name="link" index="3TtcxE" />
      </concept>
    </language>
    <language id="ceab5195-25ea-4f22-9b92-103b95ca8c0c" name="jetbrains.mps.lang.core">
      <concept id="1133920641626" name="jetbrains.mps.lang.core.structure.BaseConcept" flags="ng" index="2VYdi">
        <property id="1193676396447" name="virtualPackage" index="3GE5qa" />
      </concept>
    </language>
    <language id="83888646-71ce-4f1c-9c53-c54016f6ad4f" name="jetbrains.mps.baseLanguage.collections">
      <concept id="1176501494711" name="jetbrains.mps.baseLanguage.collections.structure.IsNotEmptyOperation" flags="nn" index="3GX2aA" />
    </language>
  </registry>
  <node concept="24kQdi" id="N$_yc$DAcw">
    <property role="3GE5qa" value="expr" />
    <ref role="1XX52x" to="2gyk:N$_yc$D_Xb" resolve="PowerExpression" />
    <node concept="jtDJS" id="2Jc2aEYg1fv" role="2wV5jI">
      <node concept="3F1sOY" id="2Jc2aEYg1fF" role="jn6J3">
        <ref role="1NtTu8" to="pfd6:5l83jlMf$RF" />
      </node>
      <node concept="3F1sOY" id="2Jc2aEYg1fC" role="jn6J4">
        <ref role="1NtTu8" to="pfd6:5l83jlMf$RD" />
      </node>
    </node>
  </node>
  <node concept="24kQdi" id="2NzQxypWfwU">
    <property role="3GE5qa" value="expr" />
    <ref role="1XX52x" to="2gyk:2NzQxypW4NZ" resolve="LaplacianOperator" />
    <node concept="3EZMnI" id="2NzQxypX3a_" role="2wV5jI">
      <node concept="jtDJS" id="2NzQxypWiaK" role="3EZMnx">
        <node concept="3F0ifn" id="2NzQxypX395" role="jn6J3">
          <property role="3F0ifm" value="2" />
          <node concept="VPxyj" id="1DQ8_1CDbUE" role="3F10Kt">
            <property role="VOm3f" value="false" />
          </node>
          <node concept="VPM3Z" id="1DQ8_1CDeZq" role="3F10Kt">
            <property role="VOm3f" value="false" />
          </node>
        </node>
        <node concept="3F0ifn" id="2NzQxypWiaT" role="jn6J4">
          <property role="3F0ifm" value="∇" />
          <node concept="Vb9p2" id="2NzQxypXNQ6" role="3F10Kt" />
          <node concept="VPxyj" id="1DQ8_1CDbRT" role="3F10Kt">
            <property role="VOm3f" value="false" />
          </node>
          <node concept="VPM3Z" id="1DQ8_1CDbTI" role="3F10Kt">
            <property role="VOm3f" value="false" />
          </node>
        </node>
        <node concept="VPM3Z" id="1DQ8_1CCOZ8" role="3F10Kt">
          <property role="VOm3f" value="true" />
        </node>
        <node concept="11LMrY" id="1DQ8_1CCT9F" role="3F10Kt">
          <property role="VOm3f" value="true" />
        </node>
      </node>
      <node concept="3F1sOY" id="2NzQxypX3aO" role="3EZMnx">
        <ref role="1NtTu8" to="2gyk:KVSbImOWxZ" />
        <node concept="11L4FC" id="1DQ8_1CCTbQ" role="3F10Kt">
          <property role="VOm3f" value="true" />
        </node>
      </node>
      <node concept="15ARfc" id="1DQ8_1CCP0n" role="3F10Kt">
        <property role="3$6WeP" value="0" />
        <property role="2hoDZC" value="PIXELS" />
      </node>
      <node concept="2iRfu4" id="1DQ8_1CD8J2" role="2iSdaV" />
    </node>
  </node>
  <node concept="24kQdi" id="1aS1l$r67R">
    <property role="3GE5qa" value="stmts" />
    <ref role="1XX52x" to="2gyk:1aS1l$r677" resolve="RightHandSideStatement" />
    <node concept="3EZMnI" id="1aS1l$r67T" role="2wV5jI">
      <node concept="jtDVG" id="1aS1l$r68w" role="3EZMnx">
        <node concept="3EZMnI" id="1aS1l$r694" role="jiBfM">
          <node concept="3F0ifn" id="1aS1l$r69e" role="3EZMnx">
            <property role="3F0ifm" value="∂" />
          </node>
          <node concept="3F0ifn" id="1aS1l$r69m" role="3EZMnx">
            <property role="3F0ifm" value="t" />
            <ref role="1k5W1q" to="tpen:hshT4rC" resolve="NumericLiteral" />
          </node>
          <node concept="l2Vlx" id="1aS1l$r697" role="2iSdaV" />
          <node concept="VPM3Z" id="1aS1l$r698" role="3F10Kt">
            <property role="VOm3f" value="false" />
          </node>
        </node>
        <node concept="3EZMnI" id="1aS1l$r69_" role="jiBfT">
          <node concept="3F0ifn" id="1aS1l$r69J" role="3EZMnx">
            <property role="3F0ifm" value="∂" />
          </node>
          <node concept="3F1sOY" id="1aS1l$r69R" role="3EZMnx">
            <ref role="1NtTu8" to="2gyk:1aS1l$r67$" />
          </node>
          <node concept="l2Vlx" id="1aS1l$r69C" role="2iSdaV" />
          <node concept="VPM3Z" id="1aS1l$r69D" role="3F10Kt">
            <property role="VOm3f" value="false" />
          </node>
        </node>
      </node>
      <node concept="3F0ifn" id="1aS1l$r687" role="3EZMnx">
        <property role="3F0ifm" value="=" />
      </node>
      <node concept="3F1sOY" id="1aS1l$r68c" role="3EZMnx">
        <ref role="1NtTu8" to="2gyk:1aS1l$r67g" />
      </node>
      <node concept="l2Vlx" id="1aS1l$r67W" role="2iSdaV" />
    </node>
  </node>
  <node concept="24kQdi" id="6en_lsou4N0">
    <property role="3GE5qa" value="expr" />
    <ref role="1XX52x" to="2gyk:6en_lsou3r1" resolve="JacobianOperator" />
    <node concept="3EZMnI" id="6en_lsou5dm" role="2wV5jI">
      <node concept="3F0ifn" id="6en_lsou5dt" role="3EZMnx">
        <property role="3F0ifm" value="J" />
      </node>
      <node concept="3F1sOY" id="6en_lsou5dz" role="3EZMnx">
        <ref role="1NtTu8" to="2gyk:KVSbImOWxZ" />
      </node>
      <node concept="l2Vlx" id="6en_lsou5dp" role="2iSdaV" />
    </node>
  </node>
  <node concept="24kQdi" id="2zxr1HVi7hZ">
    <property role="3GE5qa" value="expr" />
    <ref role="1XX52x" to="2gyk:2zxr1HVi7bZ" resolve="ParticleListAttributeExpression" />
    <node concept="3EZMnI" id="2zxr1HVi7i0" role="2wV5jI">
      <node concept="3F1sOY" id="2zxr1HVi7i1" role="3EZMnx">
        <ref role="1NtTu8" to="2gyk:2zxr1HVi7c0" />
      </node>
      <node concept="3F0ifn" id="2zxr1HVi7i2" role="3EZMnx">
        <property role="3F0ifm" value="%" />
        <node concept="11L4FC" id="2zxr1HVi7i3" role="3F10Kt">
          <property role="VOm3f" value="true" />
        </node>
        <node concept="11LMrY" id="2zxr1HVi7i4" role="3F10Kt">
          <property role="VOm3f" value="true" />
        </node>
      </node>
      <node concept="1QoScp" id="2zxr1HVi7i5" role="3EZMnx">
        <property role="1QpmdY" value="true" />
        <node concept="pkWqt" id="2zxr1HVi7i6" role="3e4ffs">
          <node concept="3clFbS" id="2zxr1HVi7i7" role="2VODD2">
            <node concept="3clFbF" id="2zxr1HVi7i8" role="3cqZAp">
              <node concept="2OqwBi" id="2zxr1HVi7i9" role="3clFbG">
                <node concept="2OqwBi" id="2zxr1HVi7ia" role="2Oq$k0">
                  <node concept="pncrf" id="2zxr1HVi7ib" role="2Oq$k0" />
                  <node concept="3TrEf2" id="2zxr1HVi7ic" role="2OqNvi">
                    <ref role="3Tt5mk" to="2gyk:2zxr1HVi7c1" />
                  </node>
                </node>
                <node concept="1mIQ4w" id="2zxr1HVi7id" role="2OqNvi">
                  <node concept="chp4Y" id="2zxr1HVi7ie" role="cj9EA">
                    <ref role="cht4Q" to="pfd6:6fgLCPsD6lb" resolve="StringLiteral" />
                  </node>
                </node>
              </node>
            </node>
          </node>
        </node>
        <node concept="3EZMnI" id="2zxr1HVi7if" role="1QoVPY">
          <node concept="3F1sOY" id="2zxr1HVi7ig" role="3EZMnx">
            <ref role="1NtTu8" to="2gyk:2zxr1HVi7c1" />
          </node>
          <node concept="l2Vlx" id="2zxr1HVi7ih" role="2iSdaV" />
          <node concept="VPM3Z" id="2zxr1HVi7ii" role="3F10Kt">
            <property role="VOm3f" value="false" />
          </node>
        </node>
        <node concept="3EZMnI" id="2zxr1HVi7ij" role="1QoS34">
          <node concept="l2Vlx" id="2zxr1HVi7ik" role="2iSdaV" />
          <node concept="XafU7" id="2zxr1HVi7il" role="3EZMnx">
            <node concept="3TQVft" id="2zxr1HVi7im" role="3TRxkO">
              <node concept="3TQlhw" id="2zxr1HVi7in" role="3TQWv3">
                <node concept="3clFbS" id="2zxr1HVi7io" role="2VODD2">
                  <node concept="3clFbF" id="2zxr1HVi7ip" role="3cqZAp">
                    <node concept="2OqwBi" id="2zxr1HVi7iq" role="3clFbG">
                      <node concept="1PxgMI" id="2zxr1HVi7ir" role="2Oq$k0">
                        <ref role="1PxNhF" to="pfd6:6fgLCPsD6lb" resolve="StringLiteral" />
                        <node concept="2OqwBi" id="2zxr1HVi7is" role="1PxMeX">
                          <node concept="pncrf" id="2zxr1HVi7it" role="2Oq$k0" />
                          <node concept="3TrEf2" id="2zxr1HVi7iu" role="2OqNvi">
                            <ref role="3Tt5mk" to="2gyk:2zxr1HVi7c1" />
                          </node>
                        </node>
                      </node>
                      <node concept="3TrcHB" id="2zxr1HVi7iv" role="2OqNvi">
                        <ref role="3TsBF5" to="pfd6:6fgLCPsD6ll" resolve="value" />
                      </node>
                    </node>
                  </node>
                </node>
              </node>
              <node concept="3TQsA7" id="2zxr1HVi7iw" role="3TQXYj">
                <node concept="3clFbS" id="2zxr1HVi7ix" role="2VODD2">
                  <node concept="3clFbF" id="2zxr1HVi7iy" role="3cqZAp">
                    <node concept="37vLTI" id="2zxr1HVi7iz" role="3clFbG">
                      <node concept="3TQ6bP" id="2zxr1HVi7i$" role="37vLTx" />
                      <node concept="2OqwBi" id="2zxr1HVi7i_" role="37vLTJ">
                        <node concept="1PxgMI" id="2zxr1HVi7iA" role="2Oq$k0">
                          <ref role="1PxNhF" to="pfd6:6fgLCPsD6lb" resolve="StringLiteral" />
                          <node concept="2OqwBi" id="2zxr1HVi7iB" role="1PxMeX">
                            <node concept="pncrf" id="2zxr1HVi7iC" role="2Oq$k0" />
                            <node concept="3TrEf2" id="2zxr1HVi7iD" role="2OqNvi">
                              <ref role="3Tt5mk" to="2gyk:2zxr1HVi7c1" />
                            </node>
                          </node>
                        </node>
                        <node concept="3TrcHB" id="2zxr1HVi7iE" role="2OqNvi">
                          <ref role="3TsBF5" to="pfd6:6fgLCPsD6ll" resolve="value" />
                        </node>
                      </node>
                    </node>
                  </node>
                </node>
              </node>
              <node concept="3TQwEX" id="2zxr1HVi7iF" role="3TQZqC">
                <node concept="3clFbS" id="2zxr1HVi7iG" role="2VODD2">
                  <node concept="3clFbF" id="2zxr1HVi7iH" role="3cqZAp">
                    <node concept="2OqwBi" id="2zxr1HVi7iI" role="3clFbG">
                      <node concept="3TQ6bP" id="2zxr1HVi7iJ" role="2Oq$k0" />
                      <node concept="17RvpY" id="2zxr1HVi7iK" role="2OqNvi" />
                    </node>
                  </node>
                </node>
              </node>
            </node>
          </node>
        </node>
      </node>
      <node concept="l2Vlx" id="2zxr1HVi7iL" role="2iSdaV" />
    </node>
  </node>
  <node concept="24kQdi" id="2zxr1HVkFZh">
    <property role="3GE5qa" value="stmts" />
    <ref role="1XX52x" to="2gyk:2zxr1HVkFW8" resolve="TimeloopStatement" />
    <node concept="3EZMnI" id="2zxr1HVkFZi" role="2wV5jI">
      <node concept="3F0ifn" id="2zxr1HVkFZj" role="3EZMnx">
        <property role="3F0ifm" value="timeloop" />
      </node>
      <node concept="3F0A7n" id="2zxr1HVkFZk" role="3EZMnx">
        <ref role="1NtTu8" to="tpck:h0TrG11" resolve="name" />
      </node>
      <node concept="l2Vlx" id="2zxr1HVkFZl" role="2iSdaV" />
      <node concept="3EZMnI" id="2zxr1HVkFZm" role="3EZMnx">
        <node concept="VPM3Z" id="2zxr1HVkFZn" role="3F10Kt">
          <property role="VOm3f" value="false" />
        </node>
        <node concept="3F0ifn" id="2zxr1HVkFZo" role="3EZMnx">
          <property role="3F0ifm" value="by" />
        </node>
        <node concept="3F1sOY" id="2zxr1HVkFZp" role="3EZMnx">
          <ref role="1NtTu8" to="2gyk:2zxr1HVkFW9" />
        </node>
        <node concept="l2Vlx" id="2zxr1HVkFZq" role="2iSdaV" />
        <node concept="pkWqt" id="2zxr1HVkFZr" role="pqm2j">
          <node concept="3clFbS" id="2zxr1HVkFZs" role="2VODD2">
            <node concept="3clFbF" id="2zxr1HVkFZt" role="3cqZAp">
              <node concept="2OqwBi" id="2zxr1HVkFZu" role="3clFbG">
                <node concept="2OqwBi" id="2zxr1HVkFZv" role="2Oq$k0">
                  <node concept="pncrf" id="2zxr1HVkFZw" role="2Oq$k0" />
                  <node concept="3TrEf2" id="2zxr1HVkFZx" role="2OqNvi">
                    <ref role="3Tt5mk" to="2gyk:2zxr1HVkFW9" />
                  </node>
                </node>
                <node concept="3x8VRR" id="2zxr1HVkFZy" role="2OqNvi" />
              </node>
            </node>
          </node>
        </node>
      </node>
      <node concept="3F0ifn" id="2zxr1HVkFZz" role="3EZMnx">
        <property role="3F0ifm" value="do" />
      </node>
      <node concept="3F1sOY" id="2zxr1HVkFZ$" role="3EZMnx">
        <ref role="1NtTu8" to="2gyk:2zxr1HVkFWa" />
        <node concept="pVoyu" id="2zxr1HVkFZ_" role="3F10Kt">
          <property role="VOm3f" value="true" />
        </node>
        <node concept="lj46D" id="2zxr1HVkFZA" role="3F10Kt">
          <property role="VOm3f" value="true" />
        </node>
      </node>
      <node concept="3F0ifn" id="2zxr1HVkFZB" role="3EZMnx">
        <property role="3F0ifm" value="end do" />
        <node concept="pVoyu" id="2zxr1HVkFZC" role="3F10Kt">
          <property role="VOm3f" value="true" />
        </node>
      </node>
      <node concept="3F0ifn" id="5U5m3ApU9S7" role="3EZMnx">
        <property role="3F0ifm" value="timeloop" />
        <node concept="VechU" id="5U5m3ApUaEf" role="3F10Kt">
          <property role="Vb096" value="lightGray" />
        </node>
        <node concept="VPM3Z" id="5U5m3ApUaEg" role="3F10Kt">
          <property role="VOm3f" value="false" />
        </node>
        <node concept="VPxyj" id="5U5m3ApUaEh" role="3F10Kt">
          <property role="VOm3f" value="false" />
        </node>
        <node concept="Vb9p2" id="5U5m3ApULd1" role="3F10Kt" />
      </node>
      <node concept="3F0A7n" id="5U5m3ApU9oF" role="3EZMnx">
        <ref role="1NtTu8" to="tpck:h0TrG11" resolve="name" />
        <node concept="VechU" id="5U5m3ApU9oG" role="3F10Kt">
          <property role="Vb096" value="lightGray" />
        </node>
        <node concept="VPM3Z" id="5U5m3ApU9oH" role="3F10Kt">
          <property role="VOm3f" value="false" />
        </node>
        <node concept="VPxyj" id="5U5m3ApU9oI" role="3F10Kt">
          <property role="VOm3f" value="false" />
        </node>
      </node>
    </node>
  </node>
  <node concept="24kQdi" id="2zxr1HVm6vQ">
    <property role="3GE5qa" value="stmts" />
    <ref role="1XX52x" to="2gyk:2zxr1HVm6oe" resolve="ODEStatement" />
    <node concept="3EZMnI" id="2zxr1HVm6vR" role="2wV5jI">
      <node concept="PMmxH" id="2zxr1HVm6vS" role="3EZMnx">
        <ref role="PMmxG" to="tpco:2wZex4PafBj" resolve="alias" />
      </node>
      <node concept="3F0ifn" id="2zxr1HVm6vT" role="3EZMnx">
        <property role="3F0ifm" value="method" />
      </node>
      <node concept="3F1sOY" id="2zxr1HVm6vU" role="3EZMnx">
        <ref role="1NtTu8" to="2gyk:2zxr1HVm6of" />
      </node>
      <node concept="3F0ifn" id="2bnyqnQ71dM" role="3EZMnx">
        <property role="3F0ifm" value="on" />
      </node>
      <node concept="3F1sOY" id="2bnyqnQ71ea" role="3EZMnx">
        <ref role="1NtTu8" to="2gyk:2bnyqnQ70_o" />
      </node>
      <node concept="3F1sOY" id="2zxr1HVm6vV" role="3EZMnx">
        <ref role="1NtTu8" to="2gyk:2zxr1HVm6og" />
        <node concept="pVoyu" id="2zxr1HVm6vW" role="3F10Kt">
          <property role="VOm3f" value="true" />
        </node>
        <node concept="lj46D" id="2zxr1HVm6vX" role="3F10Kt">
          <property role="VOm3f" value="true" />
        </node>
      </node>
      <node concept="3F0ifn" id="2zxr1HVm6vY" role="3EZMnx">
        <property role="3F0ifm" value="end" />
        <node concept="pVoyu" id="2zxr1HVm6vZ" role="3F10Kt">
          <property role="VOm3f" value="true" />
        </node>
      </node>
      <node concept="PMmxH" id="2zxr1HVm6w0" role="3EZMnx">
        <ref role="PMmxG" to="tpco:2wZex4PafBj" resolve="alias" />
      </node>
      <node concept="l2Vlx" id="2zxr1HVm6w1" role="2iSdaV" />
    </node>
  </node>
  <node concept="24kQdi" id="5gQ2EqXOKgQ">
    <property role="3GE5qa" value="expr" />
    <ref role="1XX52x" to="2gyk:5gQ2EqXOKaK" resolve="ParticleAccessExpression" />
    <node concept="3EZMnI" id="5gQ2EqXOKgR" role="2wV5jI">
      <node concept="3F1sOY" id="5gQ2EqXOKgS" role="3EZMnx">
        <ref role="1NtTu8" to="2gyk:5gQ2EqXOKaM" />
      </node>
      <node concept="1QoScp" id="5gQ2EqXOKgT" role="3EZMnx">
        <property role="1QpmdY" value="true" />
        <node concept="pkWqt" id="5gQ2EqXOKgU" role="3e4ffs">
          <node concept="3clFbS" id="5gQ2EqXOKgV" role="2VODD2">
            <node concept="3clFbF" id="5gQ2EqXOKgW" role="3cqZAp">
              <node concept="2OqwBi" id="5gQ2EqXOKgX" role="3clFbG">
                <node concept="2OqwBi" id="5gQ2EqXOKgY" role="2Oq$k0">
                  <node concept="pncrf" id="5gQ2EqXOKgZ" role="2Oq$k0" />
                  <node concept="3TrEf2" id="5gQ2EqXOKh0" role="2OqNvi">
                    <ref role="3Tt5mk" to="2gyk:5gQ2EqXOKaN" />
                  </node>
                </node>
                <node concept="1mIQ4w" id="5gQ2EqXOKh1" role="2OqNvi">
                  <node concept="chp4Y" id="5gQ2EqXOKh2" role="cj9EA">
                    <ref role="cht4Q" to="pfd6:6fgLCPsD6lb" resolve="StringLiteral" />
                  </node>
                </node>
              </node>
            </node>
          </node>
        </node>
        <node concept="3EZMnI" id="5gQ2EqXOKh3" role="1QoVPY">
          <node concept="3F0ifn" id="5gQ2EqXOKh4" role="3EZMnx">
            <property role="3F0ifm" value="[" />
            <node concept="11L4FC" id="5gQ2EqXOKh5" role="3F10Kt">
              <property role="VOm3f" value="true" />
            </node>
            <node concept="11LMrY" id="5gQ2EqXOKh6" role="3F10Kt">
              <property role="VOm3f" value="true" />
            </node>
          </node>
          <node concept="3F1sOY" id="5gQ2EqXOKh7" role="3EZMnx">
            <ref role="1NtTu8" to="2gyk:5gQ2EqXOKaN" />
          </node>
          <node concept="3F0ifn" id="5gQ2EqXOKh8" role="3EZMnx">
            <property role="3F0ifm" value="]" />
            <node concept="11L4FC" id="5gQ2EqXOKh9" role="3F10Kt">
              <property role="VOm3f" value="true" />
            </node>
          </node>
          <node concept="l2Vlx" id="5gQ2EqXOKha" role="2iSdaV" />
          <node concept="VPM3Z" id="5gQ2EqXOKhb" role="3F10Kt">
            <property role="VOm3f" value="false" />
          </node>
        </node>
        <node concept="3EZMnI" id="5gQ2EqXOKhc" role="1QoS34">
          <node concept="3F0ifn" id="5gQ2EqXOKhd" role="3EZMnx">
            <property role="3F0ifm" value="." />
            <node concept="11L4FC" id="5gQ2EqXOKhe" role="3F10Kt">
              <property role="VOm3f" value="true" />
            </node>
            <node concept="11LMrY" id="5gQ2EqXOKhf" role="3F10Kt">
              <property role="VOm3f" value="true" />
            </node>
          </node>
          <node concept="l2Vlx" id="5gQ2EqXOKhg" role="2iSdaV" />
          <node concept="XafU7" id="5gQ2EqXOKhh" role="3EZMnx">
            <node concept="3TQVft" id="5gQ2EqXOKhi" role="3TRxkO">
              <node concept="3TQlhw" id="5gQ2EqXOKhj" role="3TQWv3">
                <node concept="3clFbS" id="5gQ2EqXOKhk" role="2VODD2">
                  <node concept="3clFbF" id="5gQ2EqXOKhl" role="3cqZAp">
                    <node concept="2OqwBi" id="5gQ2EqXOKhm" role="3clFbG">
                      <node concept="1PxgMI" id="5gQ2EqXOKhn" role="2Oq$k0">
                        <ref role="1PxNhF" to="pfd6:6fgLCPsD6lb" resolve="StringLiteral" />
                        <node concept="2OqwBi" id="5gQ2EqXOKho" role="1PxMeX">
                          <node concept="pncrf" id="5gQ2EqXOKhp" role="2Oq$k0" />
                          <node concept="3TrEf2" id="5gQ2EqXOKhq" role="2OqNvi">
                            <ref role="3Tt5mk" to="2gyk:5gQ2EqXOKaN" />
                          </node>
                        </node>
                      </node>
                      <node concept="3TrcHB" id="5gQ2EqXOKhr" role="2OqNvi">
                        <ref role="3TsBF5" to="pfd6:6fgLCPsD6ll" resolve="value" />
                      </node>
                    </node>
                  </node>
                </node>
              </node>
              <node concept="3TQsA7" id="5gQ2EqXOKhs" role="3TQXYj">
                <node concept="3clFbS" id="5gQ2EqXOKht" role="2VODD2">
                  <node concept="3clFbF" id="5gQ2EqXOKhu" role="3cqZAp">
                    <node concept="37vLTI" id="5gQ2EqXOKhv" role="3clFbG">
                      <node concept="3TQ6bP" id="5gQ2EqXOKhw" role="37vLTx" />
                      <node concept="2OqwBi" id="5gQ2EqXOKhx" role="37vLTJ">
                        <node concept="1PxgMI" id="5gQ2EqXOKhy" role="2Oq$k0">
                          <ref role="1PxNhF" to="pfd6:6fgLCPsD6lb" resolve="StringLiteral" />
                          <node concept="2OqwBi" id="5gQ2EqXOKhz" role="1PxMeX">
                            <node concept="pncrf" id="5gQ2EqXOKh$" role="2Oq$k0" />
                            <node concept="3TrEf2" id="5gQ2EqXOKh_" role="2OqNvi">
                              <ref role="3Tt5mk" to="2gyk:5gQ2EqXOKaN" />
                            </node>
                          </node>
                        </node>
                        <node concept="3TrcHB" id="5gQ2EqXOKhA" role="2OqNvi">
                          <ref role="3TsBF5" to="pfd6:6fgLCPsD6ll" resolve="value" />
                        </node>
                      </node>
                    </node>
                  </node>
                </node>
              </node>
              <node concept="3TQwEX" id="5gQ2EqXOKhB" role="3TQZqC">
                <node concept="3clFbS" id="5gQ2EqXOKhC" role="2VODD2">
                  <node concept="3clFbF" id="5gQ2EqXOKhD" role="3cqZAp">
                    <node concept="2OqwBi" id="5gQ2EqXOKhE" role="3clFbG">
                      <node concept="3TQ6bP" id="5gQ2EqXOKhF" role="2Oq$k0" />
                      <node concept="17RvpY" id="5gQ2EqXOKhG" role="2OqNvi" />
                    </node>
                  </node>
                </node>
              </node>
            </node>
          </node>
        </node>
      </node>
      <node concept="l2Vlx" id="5gQ2EqXOKhH" role="2iSdaV" />
    </node>
  </node>
  <node concept="24kQdi" id="5gQ2EqXOKhI">
    <property role="3GE5qa" value="expr" />
    <ref role="1XX52x" to="2gyk:5gQ2EqXOKaO" resolve="RandomNumberExpression" />
    <node concept="3EZMnI" id="5gQ2EqXOKhJ" role="2wV5jI">
      <node concept="PMmxH" id="5gQ2EqXOKhK" role="3EZMnx">
        <ref role="PMmxG" to="tpco:2wZex4PafBj" resolve="alias" />
        <ref role="1k5W1q" to="tpen:hshT4rC" resolve="NumericLiteral" />
      </node>
      <node concept="3EZMnI" id="5gQ2EqXOKhL" role="3EZMnx">
        <node concept="VPM3Z" id="5gQ2EqXOKhM" role="3F10Kt">
          <property role="VOm3f" value="false" />
        </node>
        <node concept="3F0ifn" id="5gQ2EqXOKhN" role="3EZMnx">
          <property role="3F0ifm" value="&lt;" />
          <ref role="1k5W1q" to="tpen:hY9fg1G" resolve="LeftParenAfterName" />
        </node>
        <node concept="3F1sOY" id="5gQ2EqXOKhO" role="3EZMnx">
          <ref role="1NtTu8" to="2gyk:5gQ2EqXOKaP" />
        </node>
        <node concept="3F0ifn" id="5gQ2EqXOKhP" role="3EZMnx">
          <property role="3F0ifm" value="&gt;" />
          <node concept="11L4FC" id="5gQ2EqXOKhQ" role="3F10Kt">
            <property role="VOm3f" value="true" />
          </node>
        </node>
        <node concept="l2Vlx" id="5gQ2EqXOKhR" role="2iSdaV" />
        <node concept="pkWqt" id="5gQ2EqXOKhS" role="pqm2j">
          <node concept="3clFbS" id="5gQ2EqXOKhT" role="2VODD2">
            <node concept="3clFbF" id="5gQ2EqXOKhU" role="3cqZAp">
              <node concept="2OqwBi" id="5gQ2EqXOKhV" role="3clFbG">
                <node concept="2OqwBi" id="5gQ2EqXOKhW" role="2Oq$k0">
                  <node concept="pncrf" id="5gQ2EqXOKhX" role="2Oq$k0" />
                  <node concept="3TrEf2" id="5gQ2EqXOKhY" role="2OqNvi">
                    <ref role="3Tt5mk" to="2gyk:5gQ2EqXOKaP" />
                  </node>
                </node>
                <node concept="3x8VRR" id="5gQ2EqXOKhZ" role="2OqNvi" />
              </node>
            </node>
          </node>
        </node>
      </node>
      <node concept="l2Vlx" id="5gQ2EqXOKi0" role="2iSdaV" />
    </node>
  </node>
  <node concept="24kQdi" id="5gQ2EqXQH7a">
    <property role="3GE5qa" value="types.particles" />
    <ref role="1XX52x" to="2gyk:5gQ2EqXQH6s" resolve="FieldType" />
    <node concept="3EZMnI" id="5gQ2EqXQH7b" role="2wV5jI">
      <node concept="PMmxH" id="5gQ2EqXQH7c" role="3EZMnx">
        <ref role="PMmxG" to="tpco:2wZex4PafBj" resolve="alias" />
      </node>
      <node concept="l2Vlx" id="5gQ2EqXQH7d" role="2iSdaV" />
      <node concept="3EZMnI" id="5gQ2EqXQH7e" role="3EZMnx">
        <node concept="VPM3Z" id="5gQ2EqXQH7f" role="3F10Kt">
          <property role="VOm3f" value="false" />
        </node>
        <node concept="3F0ifn" id="5gQ2EqXQH7g" role="3EZMnx">
          <property role="3F0ifm" value="&lt;" />
          <node concept="11LMrY" id="5gQ2EqXQH7h" role="3F10Kt">
            <property role="VOm3f" value="true" />
          </node>
        </node>
        <node concept="3F1sOY" id="5mt6372O$L$" role="3EZMnx">
          <ref role="1NtTu8" to="2gyk:5mt6372O$Cl" />
        </node>
        <node concept="3F0ifn" id="5gQ2EqXQH7j" role="3EZMnx">
          <property role="3F0ifm" value="," />
        </node>
        <node concept="3F0A7n" id="5mt6372O$Lr" role="3EZMnx">
          <ref role="1NtTu8" to="2gyk:5mt6372O$Cj" resolve="ndim" />
        </node>
        <node concept="3F0ifn" id="5gQ2EqXQH7l" role="3EZMnx">
          <property role="3F0ifm" value="&gt;" />
          <node concept="11L4FC" id="5gQ2EqXQH7m" role="3F10Kt">
            <property role="VOm3f" value="true" />
          </node>
        </node>
        <node concept="l2Vlx" id="5gQ2EqXQH7n" role="2iSdaV" />
      </node>
    </node>
  </node>
  <node concept="24kQdi" id="5gQ2EqXTRk5">
    <property role="3GE5qa" value="stmts" />
    <ref role="1XX52x" to="2gyk:5gQ2EqXTRdB" resolve="InlineCodeStatement" />
    <node concept="3EZMnI" id="5gQ2EqXTRk6" role="2wV5jI">
      <node concept="3F0ifn" id="5gQ2EqXTRk7" role="3EZMnx">
        <property role="3F0ifm" value="" />
        <node concept="pVoyu" id="5gQ2EqXTRk8" role="3F10Kt">
          <property role="VOm3f" value="true" />
        </node>
        <node concept="VPM3Z" id="5gQ2EqXTRk9" role="3F10Kt">
          <property role="VOm3f" value="false" />
        </node>
      </node>
      <node concept="l2Vlx" id="5gQ2EqXTRka" role="2iSdaV" />
      <node concept="3EZMnI" id="5gQ2EqXTRkb" role="3EZMnx">
        <node concept="2iRfu4" id="5gQ2EqXTRkc" role="2iSdaV" />
        <node concept="gc7cB" id="5gQ2EqXTRkd" role="3EZMnx">
          <node concept="3VJUX4" id="5gQ2EqXTRke" role="3YsKMw">
            <node concept="3clFbS" id="5gQ2EqXTRkf" role="2VODD2">
              <node concept="3cpWs6" id="5gQ2EqXTRkg" role="3cqZAp">
                <node concept="2ShNRf" id="5gQ2EqXTRkh" role="3cqZAk">
                  <node concept="1pGfFk" id="5gQ2EqXTRki" role="2ShVmc">
                    <ref role="37wK5l" to="eqcn:7vxxPMIjiKQ" resolve="BracketedCellProvider" />
                    <node concept="pncrf" id="5gQ2EqXTRkj" role="37wK5m" />
                    <node concept="3clFbT" id="5gQ2EqXTRkk" role="37wK5m">
                      <property role="3clFbU" value="false" />
                    </node>
                  </node>
                </node>
              </node>
            </node>
          </node>
        </node>
        <node concept="3F1sOY" id="5gQ2EqXTRkl" role="3EZMnx">
          <ref role="1NtTu8" to="2gyk:5gQ2EqXTRdC" />
        </node>
        <node concept="gc7cB" id="5gQ2EqXTRkm" role="3EZMnx">
          <node concept="3VJUX4" id="5gQ2EqXTRkn" role="3YsKMw">
            <node concept="3clFbS" id="5gQ2EqXTRko" role="2VODD2">
              <node concept="3clFbF" id="5gQ2EqXTRkp" role="3cqZAp">
                <node concept="2ShNRf" id="5gQ2EqXTRkq" role="3clFbG">
                  <node concept="1pGfFk" id="5gQ2EqXTRkr" role="2ShVmc">
                    <ref role="37wK5l" to="eqcn:7vxxPMIjiKQ" resolve="BracketedCellProvider" />
                    <node concept="pncrf" id="5gQ2EqXTRks" role="37wK5m" />
                    <node concept="3clFbT" id="5gQ2EqXTRkt" role="37wK5m">
                      <property role="3clFbU" value="true" />
                    </node>
                  </node>
                </node>
              </node>
            </node>
          </node>
        </node>
        <node concept="pVoyu" id="5gQ2EqXTRku" role="3F10Kt">
          <property role="VOm3f" value="true" />
        </node>
      </node>
      <node concept="3F0ifn" id="5gQ2EqXTRkv" role="3EZMnx">
        <property role="3F0ifm" value="" />
        <node concept="pVoyu" id="5gQ2EqXTRkw" role="3F10Kt">
          <property role="VOm3f" value="true" />
        </node>
        <node concept="VPM3Z" id="5gQ2EqXTRkx" role="3F10Kt">
          <property role="VOm3f" value="false" />
        </node>
      </node>
    </node>
  </node>
  <node concept="24kQdi" id="5gQ2EqXTRky">
    <property role="3GE5qa" value="stmts" />
    <ref role="1XX52x" to="2gyk:5gQ2EqXTRdL" resolve="DistributeStatement" />
    <node concept="3EZMnI" id="5gQ2EqXTRkz" role="2wV5jI">
      <node concept="3F0ifn" id="5gQ2EqXTRk$" role="3EZMnx">
        <property role="3F0ifm" value="distribute" />
      </node>
      <node concept="3F1sOY" id="5gQ2EqXTRk_" role="3EZMnx">
        <ref role="1NtTu8" to="2gyk:5gQ2EqXTRdM" />
      </node>
      <node concept="3F0ifn" id="5gQ2EqXTRkA" role="3EZMnx">
        <property role="3F0ifm" value="displaced by" />
      </node>
      <node concept="3F1sOY" id="5gQ2EqXTRkB" role="3EZMnx">
        <ref role="1NtTu8" to="2gyk:5gQ2EqXTRdN" />
      </node>
      <node concept="3F0ifn" id="5gQ2EqXTRkC" role="3EZMnx">
        <property role="3F0ifm" value=";" />
      </node>
      <node concept="l2Vlx" id="5gQ2EqXTRkD" role="2iSdaV" />
    </node>
  </node>
  <node concept="24kQdi" id="5gQ2EqXTRkE">
    <property role="3GE5qa" value="stmts" />
    <ref role="1XX52x" to="2gyk:5gQ2EqXTRdG" resolve="InitializeReferenceStatement" />
    <node concept="3EZMnI" id="5gQ2EqXTRkF" role="2wV5jI">
      <node concept="PMmxH" id="5gQ2EqXTRkG" role="3EZMnx">
        <ref role="PMmxG" to="tpco:2wZex4PafBj" resolve="alias" />
      </node>
      <node concept="3F1sOY" id="5gQ2EqXTRkH" role="3EZMnx">
        <ref role="1NtTu8" to="2gyk:5gQ2EqXTRdH" />
        <node concept="2V7CMv" id="5gQ2EqXTRkI" role="3F10Kt">
          <property role="2V7CMs" value="ext_3_RTransform" />
        </node>
      </node>
      <node concept="3EZMnI" id="5gQ2EqXTRkJ" role="3EZMnx">
        <node concept="VPM3Z" id="5gQ2EqXTRkK" role="3F10Kt">
          <property role="VOm3f" value="false" />
        </node>
        <node concept="3F0ifn" id="5gQ2EqXTRkL" role="3EZMnx">
          <property role="3F0ifm" value="(" />
          <ref role="1k5W1q" to="tpen:hY9fg1G" resolve="LeftParenAfterName" />
        </node>
        <node concept="3F2HdR" id="5gQ2EqXTRkM" role="3EZMnx">
          <ref role="1NtTu8" to="2gyk:5gQ2EqXTRdF" />
          <node concept="l2Vlx" id="5gQ2EqXTRkN" role="2czzBx" />
        </node>
        <node concept="3F0ifn" id="5gQ2EqXTRkO" role="3EZMnx">
          <property role="3F0ifm" value=")" />
          <ref role="1k5W1q" to="tpen:hFCSUmN" resolve="RightParen" />
        </node>
        <node concept="l2Vlx" id="5gQ2EqXTRkP" role="2iSdaV" />
      </node>
      <node concept="3F0ifn" id="5gQ2EqXTRkQ" role="3EZMnx">
        <property role="3F0ifm" value="with" />
      </node>
      <node concept="3F1sOY" id="5gQ2EqXTRkR" role="3EZMnx">
        <ref role="1NtTu8" to="2gyk:5gQ2EqXTRdE" />
        <node concept="pVoyu" id="5gQ2EqXTRkS" role="3F10Kt">
          <property role="VOm3f" value="true" />
        </node>
        <node concept="lj46D" id="5gQ2EqXTRkT" role="3F10Kt">
          <property role="VOm3f" value="true" />
        </node>
      </node>
      <node concept="3F0ifn" id="5gQ2EqXTRkU" role="3EZMnx">
        <property role="3F0ifm" value="end" />
        <node concept="pVoyu" id="5gQ2EqXTRkV" role="3F10Kt">
          <property role="VOm3f" value="true" />
        </node>
      </node>
      <node concept="PMmxH" id="5gQ2EqXTRkW" role="3EZMnx">
        <ref role="PMmxG" to="tpco:2wZex4PafBj" resolve="alias" />
      </node>
      <node concept="l2Vlx" id="5gQ2EqXTRkX" role="2iSdaV" />
    </node>
  </node>
  <node concept="24kQdi" id="5gQ2EqXTRkY">
    <property role="3GE5qa" value="stmts" />
    <ref role="1XX52x" to="2gyk:5gQ2EqXTRdI" resolve="InitializeDeclarationStatement" />
    <node concept="3EZMnI" id="5gQ2EqXTRkZ" role="2wV5jI">
      <node concept="PMmxH" id="5gQ2EqXTRl0" role="3EZMnx">
        <ref role="PMmxG" to="tpco:2wZex4PafBj" resolve="alias" />
      </node>
      <node concept="3F1sOY" id="5gQ2EqXTRl1" role="3EZMnx">
        <ref role="1NtTu8" to="2gyk:5gQ2EqXTRdK" />
      </node>
      <node concept="l2Vlx" id="5gQ2EqXTRl2" role="2iSdaV" />
      <node concept="3EZMnI" id="5gQ2EqXTRl3" role="3EZMnx">
        <node concept="VPM3Z" id="5gQ2EqXTRl4" role="3F10Kt">
          <property role="VOm3f" value="false" />
        </node>
        <node concept="3F0ifn" id="5gQ2EqXTRl5" role="3EZMnx">
          <property role="3F0ifm" value="(" />
          <ref role="1k5W1q" to="tpen:hY9fg1G" resolve="LeftParenAfterName" />
        </node>
        <node concept="3F2HdR" id="5gQ2EqXTRl6" role="3EZMnx">
          <ref role="1NtTu8" to="2gyk:5gQ2EqXTRdF" />
          <node concept="l2Vlx" id="5gQ2EqXTRl7" role="2czzBx" />
        </node>
        <node concept="3F0ifn" id="5gQ2EqXTRl8" role="3EZMnx">
          <property role="3F0ifm" value=")" />
          <ref role="1k5W1q" to="tpen:hFCSUmN" resolve="RightParen" />
        </node>
        <node concept="l2Vlx" id="5gQ2EqXTRl9" role="2iSdaV" />
      </node>
      <node concept="3EZMnI" id="5gQ2EqXTRla" role="3EZMnx">
        <node concept="VPM3Z" id="5gQ2EqXTRlb" role="3F10Kt">
          <property role="VOm3f" value="false" />
        </node>
        <node concept="l2Vlx" id="5gQ2EqXTRlc" role="2iSdaV" />
        <node concept="3F0ifn" id="5gQ2EqXTRld" role="3EZMnx">
          <property role="3F0ifm" value="with" />
        </node>
        <node concept="3F1sOY" id="5gQ2EqXTRle" role="3EZMnx">
          <ref role="1NtTu8" to="2gyk:5gQ2EqXTRdE" />
          <node concept="pVoyu" id="5gQ2EqXTRlf" role="3F10Kt">
            <property role="VOm3f" value="true" />
          </node>
          <node concept="lj46D" id="5gQ2EqXTRlg" role="3F10Kt">
            <property role="VOm3f" value="true" />
          </node>
        </node>
        <node concept="3F0ifn" id="5gQ2EqXTRlh" role="3EZMnx">
          <property role="3F0ifm" value="end" />
          <node concept="pVoyu" id="5gQ2EqXTRli" role="3F10Kt">
            <property role="VOm3f" value="true" />
          </node>
        </node>
        <node concept="PMmxH" id="5gQ2EqXTRlj" role="3EZMnx">
          <ref role="PMmxG" to="tpco:2wZex4PafBj" resolve="alias" />
        </node>
        <node concept="pkWqt" id="5gQ2EqXTRlk" role="pqm2j">
          <node concept="3clFbS" id="5gQ2EqXTRll" role="2VODD2">
            <node concept="3clFbF" id="5gQ2EqXTRlm" role="3cqZAp">
              <node concept="2OqwBi" id="5gQ2EqXTRln" role="3clFbG">
                <node concept="2OqwBi" id="5gQ2EqXTRlo" role="2Oq$k0">
                  <node concept="2OqwBi" id="5gQ2EqXTRlp" role="2Oq$k0">
                    <node concept="pncrf" id="5gQ2EqXTRlq" role="2Oq$k0" />
                    <node concept="3TrEf2" id="5gQ2EqXTRlr" role="2OqNvi">
                      <ref role="3Tt5mk" to="2gyk:5gQ2EqXTRdE" />
                    </node>
                  </node>
                  <node concept="3Tsc0h" id="5gQ2EqXTRls" role="2OqNvi">
                    <ref role="3TtcxE" to="c9eo:5l83jlMhgFJ" />
                  </node>
                </node>
                <node concept="3GX2aA" id="5gQ2EqXTRlt" role="2OqNvi" />
              </node>
            </node>
          </node>
        </node>
      </node>
    </node>
  </node>
  <node concept="24kQdi" id="5gQ2EqXTRlu">
    <property role="3GE5qa" value="stmts" />
    <ref role="1XX52x" to="2gyk:5gQ2EqXTRdP" resolve="CreateNeighborListStatement" />
    <node concept="3EZMnI" id="5gQ2EqXTRlv" role="2wV5jI">
      <node concept="3F0ifn" id="5gQ2EqXTRlw" role="3EZMnx">
        <property role="3F0ifm" value="create neighborlist" />
      </node>
      <node concept="3F0A7n" id="5gQ2EqXTRlx" role="3EZMnx">
        <ref role="1NtTu8" to="tpck:h0TrG11" resolve="name" />
      </node>
      <node concept="3F0ifn" id="5gQ2EqXTRly" role="3EZMnx">
        <property role="3F0ifm" value="for" />
      </node>
      <node concept="1iCGBv" id="5gQ2EqXTRlz" role="3EZMnx">
        <ref role="1NtTu8" to="2gyk:5gQ2EqXTRdR" />
        <node concept="1sVBvm" id="5gQ2EqXTRl$" role="1sWHZn">
          <node concept="1iCGBv" id="5gQ2EqXTRl_" role="2wV5jI">
            <ref role="1NtTu8" to="c9eo:5l83jlMivj4" />
            <node concept="1sVBvm" id="5gQ2EqXTRlA" role="1sWHZn">
              <node concept="3F0A7n" id="5gQ2EqXTRlB" role="2wV5jI">
                <property role="1Intyy" value="true" />
                <ref role="1NtTu8" to="tpck:h0TrG11" resolve="name" />
              </node>
            </node>
          </node>
        </node>
      </node>
      <node concept="l2Vlx" id="5gQ2EqXTRlC" role="2iSdaV" />
      <node concept="3F0ifn" id="Opj2YGCyfw" role="3EZMnx">
        <property role="3F0ifm" value="with" />
      </node>
      <node concept="3EZMnI" id="Opj2YGCygj" role="3EZMnx">
        <property role="S$Qs1" value="true" />
        <node concept="VPM3Z" id="Opj2YGCygl" role="3F10Kt">
          <property role="VOm3f" value="false" />
        </node>
        <node concept="3EZMnI" id="Opj2YGCygA" role="3EZMnx">
          <node concept="VPM3Z" id="Opj2YGCygC" role="3F10Kt">
            <property role="VOm3f" value="false" />
          </node>
          <node concept="3F0ifn" id="Opj2YGCygR" role="3EZMnx">
            <property role="3F0ifm" value="skin:" />
          </node>
          <node concept="3F1sOY" id="Opj2YGCygX" role="3EZMnx">
            <ref role="1NtTu8" to="2gyk:Opj2YGCycu" />
          </node>
          <node concept="2iRfu4" id="Opj2YGCygF" role="2iSdaV" />
        </node>
        <node concept="3EZMnI" id="Opj2YGCyhf" role="3EZMnx">
          <node concept="VPM3Z" id="Opj2YGCyhg" role="3F10Kt">
            <property role="VOm3f" value="false" />
          </node>
          <node concept="3F0ifn" id="Opj2YGCyhh" role="3EZMnx">
            <property role="3F0ifm" value="cutoff" />
          </node>
          <node concept="3F1sOY" id="Opj2YGCyhi" role="3EZMnx">
            <ref role="1NtTu8" to="2gyk:Opj2YGCycx" />
          </node>
          <node concept="2iRfu4" id="Opj2YGCyhj" role="2iSdaV" />
        </node>
        <node concept="3EZMnI" id="Opj2YGCyhu" role="3EZMnx">
          <node concept="VPM3Z" id="Opj2YGCyhv" role="3F10Kt">
            <property role="VOm3f" value="false" />
          </node>
          <node concept="3F0ifn" id="Opj2YGCyhw" role="3EZMnx">
            <property role="3F0ifm" value="symmetry" />
          </node>
          <node concept="3F1sOY" id="Opj2YGCyhx" role="3EZMnx">
            <ref role="1NtTu8" to="2gyk:Opj2YGCyc_" />
          </node>
          <node concept="2iRfu4" id="Opj2YGCyhy" role="2iSdaV" />
        </node>
        <node concept="2iRkQZ" id="Opj2YGCygo" role="2iSdaV" />
        <node concept="pVoyu" id="Opj2YGCygK" role="3F10Kt">
          <property role="VOm3f" value="true" />
        </node>
        <node concept="lj46D" id="Opj2YGCygN" role="3F10Kt">
          <property role="VOm3f" value="true" />
        </node>
      </node>
    </node>
  </node>
  <node concept="24kQdi" id="5gQ2EqXUDSb">
    <property role="3GE5qa" value="mapping" />
    <ref role="1XX52x" to="2gyk:5gQ2EqXUDRJ" resolve="MappingType" />
    <node concept="PMmxH" id="5gQ2EqXUDSc" role="2wV5jI">
      <ref role="PMmxG" to="tpco:2wZex4PafBj" resolve="alias" />
    </node>
  </node>
  <node concept="24kQdi" id="5gQ2EqXUDSd">
    <property role="3GE5qa" value="mapping" />
    <ref role="1XX52x" to="2gyk:5gQ2EqXUDRH" resolve="MappingStatement" />
    <node concept="3EZMnI" id="5gQ2EqXUDSe" role="2wV5jI">
      <node concept="PMmxH" id="5gQ2EqXUDSf" role="3EZMnx">
        <ref role="PMmxG" to="tpco:2wZex4PafBj" resolve="alias" />
      </node>
      <node concept="3F1sOY" id="5gQ2EqXUDSg" role="3EZMnx">
        <ref role="1NtTu8" to="2gyk:5gQ2EqXUDRI" />
      </node>
      <node concept="3F0ifn" id="5gQ2EqXUDSh" role="3EZMnx">
        <property role="3F0ifm" value="(" />
        <ref role="1k5W1q" to="tpen:hY9fg1G" resolve="LeftParenAfterName" />
      </node>
      <node concept="3F1sOY" id="5U5m3Aq6ELe" role="3EZMnx">
        <ref role="1NtTu8" to="2gyk:5U5m3Aq6EIM" />
      </node>
      <node concept="3F0ifn" id="5U5m3Aq6ELq" role="3EZMnx">
        <property role="3F0ifm" value=")" />
        <ref role="1k5W1q" to="tpen:hFCSUmN" resolve="RightParen" />
      </node>
      <node concept="l2Vlx" id="5gQ2EqXUDSi" role="2iSdaV" />
    </node>
  </node>
  <node concept="24kQdi" id="Opj2YGvNfz">
    <property role="3GE5qa" value="stmts" />
    <ref role="1XX52x" to="2gyk:Opj2YGvzKc" resolve="CreateTopologyStatement" />
    <node concept="3EZMnI" id="Opj2YGvNHd" role="2wV5jI">
      <node concept="3F0ifn" id="Opj2YGvNHk" role="3EZMnx">
        <property role="3F0ifm" value="create topology" />
      </node>
      <node concept="3F0A7n" id="Opj2YGvNHq" role="3EZMnx">
        <ref role="1NtTu8" to="tpck:h0TrG11" resolve="name" />
      </node>
      <node concept="3F0ifn" id="Opj2YGvNHy" role="3EZMnx">
        <property role="3F0ifm" value="with" />
      </node>
      <node concept="3EZMnI" id="Opj2YGvNHG" role="3EZMnx">
        <property role="S$Qs1" value="true" />
        <node concept="VPM3Z" id="Opj2YGvNHI" role="3F10Kt">
          <property role="VOm3f" value="false" />
        </node>
        <node concept="3EZMnI" id="Opj2YGvNIi" role="3EZMnx">
          <node concept="3F0ifn" id="Opj2YGvNI6" role="3EZMnx">
            <property role="3F0ifm" value="boundary condition:" />
          </node>
          <node concept="3F1sOY" id="Opj2YGvNIM" role="3EZMnx">
            <ref role="1NtTu8" to="2gyk:Opj2YGvNd5" />
          </node>
          <node concept="2iRfu4" id="Opj2YGvNKd" role="2iSdaV" />
        </node>
        <node concept="3EZMnI" id="Opj2YGvNIs" role="3EZMnx">
          <node concept="3F0ifn" id="Opj2YGvNIc" role="3EZMnx">
            <property role="3F0ifm" value="decomposition:" />
          </node>
          <node concept="3F1sOY" id="Opj2YGvNIF" role="3EZMnx">
            <ref role="1NtTu8" to="2gyk:Opj2YGvNeb" />
          </node>
          <node concept="2iRfu4" id="Opj2YGvNKg" role="2iSdaV" />
        </node>
        <node concept="3EZMnI" id="Opj2YGvNJP" role="3EZMnx">
          <node concept="3F0ifn" id="Opj2YGvNJC" role="3EZMnx">
            <property role="3F0ifm" value="processor assignment:" />
          </node>
          <node concept="3F1sOY" id="Opj2YGvNK9" role="3EZMnx">
            <ref role="1NtTu8" to="2gyk:Opj2YGvNee" />
          </node>
          <node concept="2iRfu4" id="Opj2YGvNKj" role="2iSdaV" />
        </node>
        <node concept="3EZMnI" id="Opj2YGvO1o" role="3EZMnx">
          <node concept="2iRfu4" id="Opj2YGvO1p" role="2iSdaV" />
          <node concept="3F0ifn" id="Opj2YGvO0_" role="3EZMnx">
            <property role="3F0ifm" value="ghost size:" />
          </node>
          <node concept="3F1sOY" id="Opj2YGvO1K" role="3EZMnx">
            <ref role="1NtTu8" to="2gyk:Opj2YGvNei" />
          </node>
        </node>
        <node concept="2EHx9g" id="Opj2YGvNUZ" role="2iSdaV" />
        <node concept="pVoyu" id="Opj2YGvNHU" role="3F10Kt">
          <property role="VOm3f" value="true" />
        </node>
        <node concept="lj46D" id="Opj2YGvNHZ" role="3F10Kt">
          <property role="VOm3f" value="true" />
        </node>
      </node>
      <node concept="l2Vlx" id="Opj2YGvNHg" role="2iSdaV" />
    </node>
  </node>
  <node concept="24kQdi" id="Opj2YGAEJS">
    <property role="3GE5qa" value="stmts" />
    <ref role="1XX52x" to="2gyk:Opj2YGAjWG" resolve="CreateParticlesStatement" />
    <node concept="3EZMnI" id="Opj2YGAEJU" role="2wV5jI">
      <node concept="3F0ifn" id="Opj2YGAEK1" role="3EZMnx">
        <property role="3F0ifm" value="create particles" />
      </node>
      <node concept="3F0A7n" id="Opj2YGAEK7" role="3EZMnx">
        <ref role="1NtTu8" to="tpck:h0TrG11" resolve="name" />
      </node>
      <node concept="3F0ifn" id="Opj2YGAEKf" role="3EZMnx">
        <property role="3F0ifm" value="with" />
      </node>
      <node concept="3EZMnI" id="Opj2YGAEKp" role="3EZMnx">
        <property role="S$Qs1" value="true" />
        <node concept="VPM3Z" id="Opj2YGAEKr" role="3F10Kt">
          <property role="VOm3f" value="false" />
        </node>
        <node concept="3EZMnI" id="Opj2YGAEQ_" role="3EZMnx">
          <node concept="VPM3Z" id="Opj2YGAEQB" role="3F10Kt">
            <property role="VOm3f" value="false" />
          </node>
          <node concept="3F0ifn" id="Opj2YGAEQN" role="3EZMnx">
            <property role="3F0ifm" value="topology:" />
          </node>
          <node concept="3F1sOY" id="Opj2YGAEQV" role="3EZMnx">
            <ref role="1NtTu8" to="2gyk:Opj2YGAjZ5" />
          </node>
          <node concept="2iRfu4" id="Opj2YGAEQE" role="2iSdaV" />
        </node>
        <node concept="3EZMnI" id="Opj2YGAER0" role="3EZMnx">
          <node concept="VPM3Z" id="Opj2YGAER1" role="3F10Kt">
            <property role="VOm3f" value="false" />
          </node>
          <node concept="3F0ifn" id="Opj2YGAER2" role="3EZMnx">
            <property role="3F0ifm" value="npart" />
          </node>
          <node concept="3F1sOY" id="Opj2YGAER3" role="3EZMnx">
            <ref role="1NtTu8" to="2gyk:Opj2YGAjZ7" />
          </node>
          <node concept="2iRfu4" id="Opj2YGAER4" role="2iSdaV" />
        </node>
        <node concept="3EZMnI" id="Opj2YGAERj" role="3EZMnx">
          <node concept="VPM3Z" id="Opj2YGAERk" role="3F10Kt">
            <property role="VOm3f" value="false" />
          </node>
          <node concept="3F0ifn" id="Opj2YGAERl" role="3EZMnx">
            <property role="3F0ifm" value="precision" />
          </node>
          <node concept="3F1sOY" id="Opj2YGAERm" role="3EZMnx">
            <ref role="1NtTu8" to="2gyk:Opj2YGAjZa" />
          </node>
          <node concept="2iRfu4" id="Opj2YGAERn" role="2iSdaV" />
        </node>
        <node concept="3EZMnI" id="Opj2YGAERF" role="3EZMnx">
          <node concept="VPM3Z" id="Opj2YGAERG" role="3F10Kt">
            <property role="VOm3f" value="false" />
          </node>
          <node concept="3F0ifn" id="Opj2YGAERH" role="3EZMnx">
            <property role="3F0ifm" value="ghost size" />
          </node>
          <node concept="3F1sOY" id="Opj2YGAERI" role="3EZMnx">
            <ref role="1NtTu8" to="2gyk:Opj2YGAk0s" />
          </node>
          <node concept="2iRfu4" id="Opj2YGAERJ" role="2iSdaV" />
        </node>
        <node concept="3EZMnI" id="BmRcKWeM0r" role="3EZMnx">
          <node concept="VPM3Z" id="BmRcKWeM0s" role="3F10Kt">
            <property role="VOm3f" value="false" />
          </node>
          <node concept="3F0ifn" id="BmRcKWeM0t" role="3EZMnx">
            <property role="3F0ifm" value="distribution" />
          </node>
          <node concept="3F1sOY" id="BmRcKWeM0u" role="3EZMnx">
            <ref role="1NtTu8" to="2gyk:Opj2YGAk0I" />
          </node>
          <node concept="2iRfu4" id="BmRcKWeM0v" role="2iSdaV" />
        </node>
        <node concept="2EHx9g" id="Opj2YGAEKB" role="2iSdaV" />
        <node concept="pVoyu" id="Opj2YGAEQp" role="3F10Kt">
          <property role="VOm3f" value="true" />
        </node>
        <node concept="lj46D" id="Opj2YGAEQu" role="3F10Kt">
          <property role="VOm3f" value="true" />
        </node>
      </node>
      <node concept="3EZMnI" id="BmRcKWhF9l" role="3EZMnx">
        <property role="S$Qs1" value="true" />
        <node concept="VPM3Z" id="BmRcKWhF9n" role="3F10Kt">
          <property role="VOm3f" value="false" />
        </node>
        <node concept="3EZMnI" id="BmRcKWhFa1" role="3EZMnx">
          <node concept="VPM3Z" id="BmRcKWhFa3" role="3F10Kt">
            <property role="VOm3f" value="false" />
          </node>
          <node concept="3F0ifn" id="BmRcKWhFaj" role="3EZMnx">
            <property role="3F0ifm" value="{" />
            <ref role="1k5W1q" to="tpen:hF$iEdo" resolve="Brace" />
          </node>
          <node concept="3F0ifn" id="BmRcKWhFar" role="3EZMnx">
            <property role="3F0ifm" value="!displacement" />
            <ref role="1k5W1q" to="tpen:hshO_Yc" resolve="Comment" />
          </node>
          <node concept="l2Vlx" id="BmRcKWhFa6" role="2iSdaV" />
        </node>
        <node concept="3F1sOY" id="BmRcKWhFhf" role="3EZMnx">
          <ref role="1NtTu8" to="2gyk:BmRcKWhqX0" />
        </node>
        <node concept="3F0ifn" id="BmRcKWhFhz" role="3EZMnx">
          <property role="3F0ifm" value="}" />
          <ref role="1k5W1q" to="tpen:hF$iEdo" resolve="Brace" />
        </node>
        <node concept="2iRkQZ" id="BmRcKWhF9q" role="2iSdaV" />
        <node concept="pVoyu" id="BmRcKWhFae" role="3F10Kt">
          <property role="VOm3f" value="true" />
        </node>
        <node concept="3EZMnI" id="BmRcKWijSS" role="AHCbl">
          <node concept="l2Vlx" id="BmRcKWijST" role="2iSdaV" />
          <node concept="3F0ifn" id="BmRcKWi6rx" role="3EZMnx">
            <property role="3F0ifm" value="! displacement" />
            <ref role="1k5W1q" to="tpen:hshO_Yc" resolve="Comment" />
          </node>
          <node concept="3F0ifn" id="BmRcKWijT3" role="3EZMnx">
            <property role="3F0ifm" value="..." />
            <node concept="VPM3Z" id="BmRcKWikfK" role="3F10Kt">
              <property role="VOm3f" value="false" />
            </node>
            <node concept="30gYXW" id="BmRcKWi$bt" role="3F10Kt">
              <property role="Vb096" value="lightGray" />
            </node>
          </node>
        </node>
      </node>
      <node concept="3EZMnI" id="BmRcKWhSwj" role="3EZMnx">
        <property role="S$Qs1" value="true" />
        <node concept="VPM3Z" id="BmRcKWhSwl" role="3F10Kt">
          <property role="VOm3f" value="false" />
        </node>
        <node concept="3EZMnI" id="BmRcKWhSxa" role="3EZMnx">
          <node concept="VPM3Z" id="BmRcKWhSxc" role="3F10Kt">
            <property role="VOm3f" value="false" />
          </node>
          <node concept="3F0ifn" id="BmRcKWhSCb" role="3EZMnx">
            <property role="3F0ifm" value="{" />
            <ref role="1k5W1q" to="tpen:hF$iEdo" resolve="Brace" />
          </node>
          <node concept="3F0ifn" id="BmRcKWhSCj" role="3EZMnx">
            <property role="3F0ifm" value="! fields and properties" />
            <ref role="1k5W1q" to="tpen:hshO_Yc" resolve="Comment" />
          </node>
          <node concept="l2Vlx" id="BmRcKWhSxf" role="2iSdaV" />
        </node>
        <node concept="3F1sOY" id="BmRcKWhSJi" role="3EZMnx">
          <ref role="1NtTu8" to="2gyk:BmRcKWhqZL" />
        </node>
        <node concept="3F0ifn" id="BmRcKWhSJs" role="3EZMnx">
          <property role="3F0ifm" value="}" />
          <ref role="1k5W1q" to="tpen:hF$iEdo" resolve="Brace" />
        </node>
        <node concept="2iRkQZ" id="BmRcKWhSwo" role="2iSdaV" />
        <node concept="pVoyu" id="BmRcKWhSC6" role="3F10Kt">
          <property role="VOm3f" value="true" />
        </node>
        <node concept="3EZMnI" id="BmRcKWiLVp" role="AHCbl">
          <node concept="l2Vlx" id="BmRcKWiLVq" role="2iSdaV" />
          <node concept="3F0ifn" id="BmRcKWiLVr" role="3EZMnx">
            <property role="3F0ifm" value="! fields/properties" />
            <ref role="1k5W1q" to="tpen:hshO_Yc" resolve="Comment" />
          </node>
          <node concept="3F0ifn" id="BmRcKWiLVs" role="3EZMnx">
            <property role="3F0ifm" value="..." />
            <node concept="VPM3Z" id="BmRcKWiLVt" role="3F10Kt">
              <property role="VOm3f" value="false" />
            </node>
            <node concept="30gYXW" id="BmRcKWiLVu" role="3F10Kt">
              <property role="Vb096" value="lightGray" />
            </node>
          </node>
        </node>
      </node>
      <node concept="l2Vlx" id="Opj2YGAEJX" role="2iSdaV" />
    </node>
  </node>
  <node concept="24kQdi" id="2Xvn13Ha$ZE">
    <property role="3GE5qa" value="types.particles" />
    <ref role="1XX52x" to="2gyk:2Xvn13Ha$NO" resolve="PropertyType" />
    <node concept="3EZMnI" id="2Xvn13Ha_v5" role="2wV5jI">
      <node concept="PMmxH" id="2Xvn13Ha_vc" role="3EZMnx">
        <ref role="PMmxG" to="tpco:2wZex4PafBj" resolve="alias" />
      </node>
      <node concept="3EZMnI" id="2Xvn13Ha_vh" role="3EZMnx">
        <node concept="VPM3Z" id="2Xvn13Ha_vj" role="3F10Kt">
          <property role="VOm3f" value="false" />
        </node>
        <node concept="3F0ifn" id="2Xvn13Ha_vu" role="3EZMnx">
          <property role="3F0ifm" value="&lt;" />
          <node concept="11LMrY" id="2Xvn13Ha_xj" role="3F10Kt">
            <property role="VOm3f" value="true" />
          </node>
        </node>
        <node concept="3F1sOY" id="2Xvn13Ha_Ln" role="3EZMnx">
          <property role="1$x2rV" value="real" />
          <ref role="1NtTu8" to="2gyk:2Xvn13Ha$UU" />
        </node>
        <node concept="3F0ifn" id="2Xvn13Ha_LB" role="3EZMnx">
          <property role="3F0ifm" value="," />
        </node>
        <node concept="3F1sOY" id="2Xvn13Ha_LT" role="3EZMnx">
          <property role="1$x2rV" value="ppm_dim" />
          <ref role="1NtTu8" to="2gyk:2Xvn13Ha$Wq" />
        </node>
        <node concept="3F0ifn" id="2Xvn13HbOEr" role="3EZMnx">
          <property role="3F0ifm" value="," />
        </node>
        <node concept="3F1sOY" id="2Xvn13HeEmh" role="3EZMnx">
          <ref role="1NtTu8" to="2gyk:2Xvn13HeEcx" />
        </node>
        <node concept="3F0ifn" id="2Xvn13Hd7lp" role="3EZMnx">
          <property role="3F0ifm" value="," />
        </node>
        <node concept="3F1sOY" id="2Xvn13HbOEL" role="3EZMnx">
          <ref role="1NtTu8" to="2gyk:2Xvn13Ha$Wt" />
        </node>
        <node concept="3F0ifn" id="2Xvn13HbOF9" role="3EZMnx">
          <property role="3F0ifm" value="," />
        </node>
        <node concept="3F1sOY" id="2Xvn13HbOFz" role="3EZMnx">
          <ref role="1NtTu8" to="2gyk:2Xvn13Ha$Wx" />
        </node>
        <node concept="3F0ifn" id="2Xvn13Ha_vA" role="3EZMnx">
          <property role="3F0ifm" value="&gt;" />
          <node concept="11L4FC" id="2Xvn13Ha_yY" role="3F10Kt">
            <property role="VOm3f" value="true" />
          </node>
        </node>
        <node concept="l2Vlx" id="2Xvn13Ha_vm" role="2iSdaV" />
      </node>
      <node concept="l2Vlx" id="2Xvn13Ha_v8" role="2iSdaV" />
    </node>
  </node>
  <node concept="24kQdi" id="m1E9k9f8sM">
    <property role="3GE5qa" value="expr" />
    <ref role="1XX52x" to="2gyk:m1E9k9eONZ" resolve="ArrowExpression" />
    <node concept="3EZMnI" id="m1E9k9f8MJ" role="2wV5jI">
      <node concept="3F1sOY" id="m1E9k9f8Ud" role="3EZMnx">
        <ref role="1NtTu8" to="2gyk:m1E9k9eOTT" />
      </node>
      <node concept="3F0ifn" id="m1E9k9f91E" role="3EZMnx">
        <property role="3F0ifm" value="→" />
        <ref role="1k5W1q" to="tpen:hFDnyG9" resolve="Dot" />
      </node>
      <node concept="3F1sOY" id="m1E9k9f99b" role="3EZMnx">
        <ref role="1NtTu8" to="2gyk:m1E9k9eOTV" />
      </node>
      <node concept="l2Vlx" id="m1E9k9f8MM" role="2iSdaV" />
    </node>
  </node>
  <node concept="24kQdi" id="m1E9k9gn9y">
    <property role="3GE5qa" value="expr" />
    <ref role="1XX52x" to="2gyk:m1E9k9gn6i" resolve="PositionMemberAccess" />
    <node concept="3F0ifn" id="m1E9k9gQky" role="2wV5jI">
      <property role="3F0ifm" value="pos" />
      <ref role="1k5W1q" to="tpen:hshQ_OE" resolve="Field" />
    </node>
  </node>
  <node concept="24kQdi" id="52AxEEP0iPn">
    <property role="3GE5qa" value="expr.plist" />
    <ref role="1XX52x" to="2gyk:52AxEEP0ivF" resolve="ParticleListMemberAccess" />
    <node concept="1iCGBv" id="52AxEEP0ljV" role="2wV5jI">
      <ref role="1NtTu8" to="2gyk:52AxEEP0iNz" />
      <node concept="1sVBvm" id="52AxEEP0ljX" role="1sWHZn">
        <node concept="3F0A7n" id="52AxEEP0lk7" role="2wV5jI">
          <property role="1Intyy" value="true" />
          <ref role="1NtTu8" to="tpck:h0TrG11" resolve="name" />
        </node>
      </node>
    </node>
  </node>
  <node concept="24kQdi" id="6Wx7SFgahmt">
    <property role="3GE5qa" value="types" />
    <ref role="1XX52x" to="2gyk:6Wx7SFgabxi" resolve="ParticleListType" />
    <node concept="3EZMnI" id="6Wx7SFgap78" role="2wV5jI">
      <node concept="PMmxH" id="6Wx7SFgapgG" role="3EZMnx">
        <ref role="PMmxG" to="tpco:2wZex4PafBj" resolve="alias" />
      </node>
      <node concept="l2Vlx" id="6Wx7SFgap7b" role="2iSdaV" />
    </node>
  </node>
  <node concept="24kQdi" id="6Wx7SFgmIzV">
    <property role="3GE5qa" value="expr" />
    <ref role="1XX52x" to="2gyk:6Wx7SFgmIy1" resolve="ParticleMemberAccess" />
    <node concept="1iCGBv" id="6Wx7SFgmIzX" role="2wV5jI">
      <ref role="1NtTu8" to="2gyk:6Wx7SFgmIy3" />
      <node concept="1sVBvm" id="6Wx7SFgmIzZ" role="1sWHZn">
        <node concept="3F0A7n" id="6Wx7SFgmI$6" role="2wV5jI">
          <property role="1Intyy" value="true" />
          <ref role="1NtTu8" to="tpck:h0TrG11" resolve="name" />
        </node>
      </node>
    </node>
  </node>
  <node concept="24kQdi" id="6Vu8sWdd85P">
    <property role="3GE5qa" value="stmts.loops" />
    <ref role="1XX52x" to="2gyk:6Vu8sWdd84P" resolve="ParticleLoopStatment" />
    <node concept="3EZMnI" id="6Vu8sWdd85Q" role="2wV5jI">
      <node concept="3F0ifn" id="6Vu8sWdd85R" role="3EZMnx">
        <property role="3F0ifm" value="foreach" />
      </node>
      <node concept="3F1sOY" id="6Vu8sWdg_ZE" role="3EZMnx">
        <ref role="1NtTu8" to="2gyk:6Vu8sWdgo6p" />
      </node>
      <node concept="3F0ifn" id="6Vu8sWdd85V" role="3EZMnx">
        <property role="3F0ifm" value="in" />
      </node>
      <node concept="3F1sOY" id="6Vu8sWdd85W" role="3EZMnx">
        <ref role="1NtTu8" to="2gyk:6Vu8sWdd84Q" />
      </node>
      <node concept="3F0ifn" id="6Vu8sWdd85X" role="3EZMnx">
        <property role="3F0ifm" value="do" />
      </node>
      <node concept="3F1sOY" id="6Vu8sWdd85Y" role="3EZMnx">
        <ref role="1NtTu8" to="c9eo:6JTxo0b1E4r" />
        <node concept="pVoyu" id="6Vu8sWdd85Z" role="3F10Kt">
          <property role="VOm3f" value="true" />
        </node>
        <node concept="lj46D" id="6Vu8sWdd860" role="3F10Kt">
          <property role="VOm3f" value="true" />
        </node>
      </node>
      <node concept="3F0ifn" id="6Vu8sWdd861" role="3EZMnx">
        <property role="3F0ifm" value="end foreach" />
        <node concept="pVoyu" id="6Vu8sWdd862" role="3F10Kt">
          <property role="VOm3f" value="true" />
        </node>
      </node>
      <node concept="l2Vlx" id="6Vu8sWdd863" role="2iSdaV" />
    </node>
  </node>
  <node concept="24kQdi" id="26Us85XGJnw">
    <property role="3GE5qa" value="expr" />
    <ref role="1XX52x" to="2gyk:26Us85XGIPD" resolve="NeighborsExpression" />
    <node concept="3EZMnI" id="26Us85XGK09" role="2wV5jI">
      <node concept="3F0ifn" id="26Us85XGK0g" role="3EZMnx">
        <property role="3F0ifm" value="neighbors" />
        <ref role="1k5W1q" to="tpch:24YP6ZDyde4" resolve="Keyword" />
      </node>
      <node concept="3F0ifn" id="26Us85XGK0m" role="3EZMnx">
        <property role="3F0ifm" value="(" />
        <ref role="1k5W1q" to="tpen:hF$iCJm" resolve="Parenthesis" />
        <node concept="11L4FC" id="26Us85XI4pW" role="3F10Kt">
          <property role="VOm3f" value="true" />
        </node>
        <node concept="11LMrY" id="26Us85XI4qP" role="3F10Kt">
          <property role="VOm3f" value="true" />
        </node>
      </node>
      <node concept="3F1sOY" id="26Us85XGK0C" role="3EZMnx">
        <ref role="1NtTu8" to="2gyk:26Us85XGJjh" />
      </node>
      <node concept="3F0ifn" id="26Us85XGK0O" role="3EZMnx">
        <property role="3F0ifm" value="," />
      </node>
      <node concept="3F1sOY" id="26Us85XGK12" role="3EZMnx">
        <ref role="1NtTu8" to="2gyk:26Us85XGJjf" />
      </node>
      <node concept="3F0ifn" id="26Us85XGK0u" role="3EZMnx">
        <property role="3F0ifm" value=")" />
        <ref role="1k5W1q" to="eqcn:5l83jlMgW$8" resolve="Parenthesis" />
        <node concept="11L4FC" id="26Us85XIs91" role="3F10Kt">
          <property role="VOm3f" value="true" />
        </node>
      </node>
      <node concept="l2Vlx" id="26Us85XGK0c" role="2iSdaV" />
    </node>
  </node>
  <node concept="24kQdi" id="2OjMSZ8y57K">
    <property role="3GE5qa" value="expr.plist" />
    <ref role="1XX52x" to="2gyk:2OjMSZ8y4Xy" resolve="ParticleListMember" />
    <node concept="PMmxH" id="2OjMSZ8y57Y" role="2wV5jI">
      <ref role="PMmxG" to="tpco:2wZex4PafBj" resolve="alias" />
      <ref role="1k5W1q" to="tpen:hshQ_OE" resolve="Field" />
    </node>
  </node>
  <node concept="24kQdi" id="5U5m3Aq5San">
    <property role="3GE5qa" value="stmts" />
    <ref role="1XX52x" to="2gyk:5U5m3Aq5RMk" resolve="ComputeNeighlistStatment" />
    <node concept="3EZMnI" id="5U5m3Aq5Siw" role="2wV5jI">
      <node concept="3F0ifn" id="5U5m3Aq5SiB" role="3EZMnx">
        <property role="3F0ifm" value="compute neighlist" />
      </node>
      <node concept="3F0ifn" id="5U5m3Aq5SiH" role="3EZMnx">
        <property role="3F0ifm" value="(" />
        <ref role="1k5W1q" to="tpen:hY9fg1G" resolve="LeftParenAfterName" />
      </node>
      <node concept="3F1sOY" id="5U5m3Aq5Sj7" role="3EZMnx">
        <ref role="1NtTu8" to="2gyk:5U5m3Aq5S81" />
      </node>
      <node concept="3F0ifn" id="5U5m3Aq5SiP" role="3EZMnx">
        <property role="3F0ifm" value=")" />
        <ref role="1k5W1q" to="tpen:hFCSUmN" resolve="RightParen" />
      </node>
      <node concept="l2Vlx" id="5U5m3Aq5Siz" role="2iSdaV" />
    </node>
  </node>
  <node concept="24kQdi" id="5U5m3AqguI1">
    <property role="3GE5qa" value="types" />
    <ref role="1XX52x" to="2gyk:5U5m3Aqgu$C" resolve="NeighborlistType" />
    <node concept="3EZMnI" id="5U5m3AqguQs" role="2wV5jI">
      <node concept="PMmxH" id="5U5m3AqguQt" role="3EZMnx">
        <ref role="PMmxG" to="tpco:2wZex4PafBj" resolve="alias" />
      </node>
      <node concept="l2Vlx" id="5U5m3AqguQu" role="2iSdaV" />
    </node>
  </node>
  <node concept="24kQdi" id="hRSdiNjF3j">
    <property role="3GE5qa" value="ppml" />
    <ref role="1XX52x" to="2gyk:hRSdiNjF37" resolve="UncheckedReference" />
    <node concept="3EZMnI" id="hRSdiNjF3k" role="2wV5jI">
      <node concept="3F0A7n" id="hRSdiNjF3l" role="3EZMnx">
        <ref role="1NtTu8" to="2gyk:hRSdiNjF38" resolve="var" />
      </node>
      <node concept="l2Vlx" id="hRSdiNjF3m" role="2iSdaV" />
    </node>
  </node>
  <node concept="24kQdi" id="7bntxMfBDeB">
    <property role="3GE5qa" value="types" />
    <ref role="1XX52x" to="2gyk:7bntxMfBCN1" resolve="MyKindAnnotation" />
    <node concept="3EZMnI" id="7bntxMfBDnr" role="2wV5jI">
      <node concept="2SsqMj" id="7bntxMfBDny" role="3EZMnx" />
      <node concept="3F0ifn" id="7bntxMfBDnC" role="3EZMnx">
        <property role="3F0ifm" value="_mk" />
        <node concept="11L4FC" id="7bntxMfIGhT" role="3F10Kt">
          <property role="VOm3f" value="true" />
        </node>
        <node concept="VechU" id="7bntxMfIGjJ" role="3F10Kt">
          <property role="Vb096" value="lightGray" />
        </node>
      </node>
      <node concept="l2Vlx" id="7bntxMfBDnu" role="2iSdaV" />
    </node>
  </node>
  <node concept="24kQdi" id="3tLYWtJpPi9">
    <property role="3GE5qa" value="expr" />
    <ref role="1XX52x" to="2gyk:3tLYWtJpOSV" resolve="SqrtExpression" />
    <node concept="jtDx7" id="3tLYWtJpPUx" role="2wV5jI">
      <node concept="3F1sOY" id="3tLYWtJpPUB" role="jiWj0">
        <ref role="1NtTu8" to="pfd6:5l83jlMfE3N" />
      </node>
    </node>
  </node>
</model>

