<?xml version="1.0" encoding="UTF-8"?>
<model ref="r:ddf342bf-1354-4725-9d7c-9dce4bea910b(de.ppme.modules.behavior)">
  <persistence version="9" />
  <languages>
    <use id="af65afd8-f0dd-4942-87d9-63a55f2a9db1" name="jetbrains.mps.lang.behavior" version="-1" />
    <use id="7866978e-a0f0-4cc7-81bc-4d213d9375e1" name="jetbrains.mps.lang.smodel" version="0" />
    <use id="d8f591ec-4d86-4af2-9f92-a9e93c803ffa" name="jetbrains.mps.lang.scopes" version="0" />
    <devkit ref="fbc25dd2-5da4-483a-8b19-70928e1b62d7(jetbrains.mps.devkit.general-purpose)" />
  </languages>
  <imports>
    <import index="tpcu" ref="r:00000000-0000-4000-0000-011c89590282(jetbrains.mps.lang.core.behavior)" />
    <import index="tpck" ref="r:00000000-0000-4000-0000-011c89590288(jetbrains.mps.lang.core.structure)" />
    <import index="o8zo" ref="r:314576fc-3aee-4386-a0a5-a38348ac317d(jetbrains.mps.scope)" />
    <import index="fnmy" ref="r:89c0fb70-0977-4113-a076-5906f9d8630f(jetbrains.mps.baseLanguage.scopes)" />
    <import index="c9eo" ref="r:493484be-3d66-4fd8-b261-ed47cd8c6981(de.ppme.statements.structure)" />
    <import index="c3oy" ref="r:8a0fa9ef-3e8e-4313-a85b-46b3640418fd(de.ppme.modules.structure)" />
    <import index="z32s" ref="r:e67f0956-599a-410e-9d27-48e0cdd610ec(de.ppme.statements.behavior)" />
    <import index="2gyk" ref="r:be57a480-399b-470c-860e-bdfcf98e0b2c(de.ppme.core.structure)" />
    <import index="397v" ref="r:e0a05848-4611-4c14-a0e1-c4d39eaefce4(de.ppme.core.behavior)" />
    <import index="e2lb" ref="6354ebe7-c22a-4a0f-ac54-50b52ab9b065/f:java_stub#6354ebe7-c22a-4a0f-ac54-50b52ab9b065#java.lang(JDK/java.lang@java_stub)" />
    <import index="lm2c" ref="r:10261a70-d383-49ff-b567-775cda9fba27(de.ppme.ctrl.structure)" />
    <import index="tpee" ref="r:00000000-0000-4000-0000-011c895902ca(jetbrains.mps.baseLanguage.structure)" />
  </imports>
  <registry>
    <language id="af65afd8-f0dd-4942-87d9-63a55f2a9db1" name="jetbrains.mps.lang.behavior">
      <concept id="6496299201655527393" name="jetbrains.mps.lang.behavior.structure.LocalBehaviorMethodCall" flags="nn" index="BsUDl" />
      <concept id="1225194240794" name="jetbrains.mps.lang.behavior.structure.ConceptBehavior" flags="ng" index="13h7C7">
        <reference id="1225194240799" name="concept" index="13h7C2" />
        <child id="1225194240805" name="method" index="13h7CS" />
        <child id="1225194240801" name="constructor" index="13h7CW" />
      </concept>
      <concept id="1225194413805" name="jetbrains.mps.lang.behavior.structure.ConceptConstructorDeclaration" flags="in" index="13hLZK" />
      <concept id="1225194472830" name="jetbrains.mps.lang.behavior.structure.ConceptMethodDeclaration" flags="ng" index="13i0hz">
        <property id="1225194472832" name="isVirtual" index="13i0it" />
        <property id="1225194472834" name="isAbstract" index="13i0iv" />
        <reference id="1225194472831" name="overriddenMethod" index="13i0hy" />
      </concept>
      <concept id="1225194628440" name="jetbrains.mps.lang.behavior.structure.SuperNodeExpression" flags="nn" index="13iAh5">
        <reference id="5299096511375896640" name="superConcept" index="3eA5LN" />
      </concept>
      <concept id="1225194691553" name="jetbrains.mps.lang.behavior.structure.ThisNodeExpression" flags="nn" index="13iPFW" />
    </language>
    <language id="f3061a53-9226-4cc5-a443-f952ceaf5816" name="jetbrains.mps.baseLanguage">
      <concept id="1082485599095" name="jetbrains.mps.baseLanguage.structure.BlockStatement" flags="nn" index="9aQIb">
        <child id="1082485599096" name="statements" index="9aQI4" />
      </concept>
      <concept id="1215693861676" name="jetbrains.mps.baseLanguage.structure.BaseAssignmentExpression" flags="nn" index="d038R">
        <child id="1068498886297" name="rValue" index="37vLTx" />
        <child id="1068498886295" name="lValue" index="37vLTJ" />
      </concept>
      <concept id="4836112446988635817" name="jetbrains.mps.baseLanguage.structure.UndefinedType" flags="in" index="2jxLKc" />
      <concept id="1202948039474" name="jetbrains.mps.baseLanguage.structure.InstanceMethodCallOperation" flags="nn" index="liA8E" />
      <concept id="1465982738277781862" name="jetbrains.mps.baseLanguage.structure.PlaceholderMember" flags="ng" index="2tJIrI" />
      <concept id="1076505808687" name="jetbrains.mps.baseLanguage.structure.WhileStatement" flags="nn" index="2$JKZl">
        <child id="1076505808688" name="condition" index="2$JKZa" />
      </concept>
      <concept id="1224848483129" name="jetbrains.mps.baseLanguage.structure.IBLDeprecatable" flags="ng" index="IEa8$">
        <property id="1224848525476" name="isDeprecated" index="IEkAT" />
      </concept>
      <concept id="1154032098014" name="jetbrains.mps.baseLanguage.structure.AbstractLoopStatement" flags="nn" index="2LF5Ji">
        <child id="1154032183016" name="body" index="2LFqv$" />
      </concept>
      <concept id="1197027756228" name="jetbrains.mps.baseLanguage.structure.DotExpression" flags="nn" index="2OqwBi">
        <child id="1197027771414" name="operand" index="2Oq$k0" />
        <child id="1197027833540" name="operation" index="2OqNvi" />
      </concept>
      <concept id="1145552977093" name="jetbrains.mps.baseLanguage.structure.GenericNewExpression" flags="nn" index="2ShNRf">
        <child id="1145553007750" name="creator" index="2ShVmc" />
      </concept>
      <concept id="1137021947720" name="jetbrains.mps.baseLanguage.structure.ConceptFunction" flags="in" index="2VMwT0">
        <child id="1137022507850" name="body" index="2VODD2" />
      </concept>
      <concept id="1070462154015" name="jetbrains.mps.baseLanguage.structure.StaticFieldDeclaration" flags="ig" index="Wx3nA">
        <property id="6468716278899126575" name="isVolatile" index="2dlcS1" />
        <property id="6468716278899125786" name="isTransient" index="2dld4O" />
      </concept>
      <concept id="1070475926800" name="jetbrains.mps.baseLanguage.structure.StringLiteral" flags="nn" index="Xl_RD">
        <property id="1070475926801" name="value" index="Xl_RC" />
      </concept>
      <concept id="1081236700938" name="jetbrains.mps.baseLanguage.structure.StaticMethodDeclaration" flags="ig" index="2YIFZL" />
      <concept id="1081236700937" name="jetbrains.mps.baseLanguage.structure.StaticMethodCall" flags="nn" index="2YIFZM">
        <reference id="1144433194310" name="classConcept" index="1Pybhc" />
      </concept>
      <concept id="1068390468198" name="jetbrains.mps.baseLanguage.structure.ClassConcept" flags="ig" index="312cEu" />
      <concept id="1068431474542" name="jetbrains.mps.baseLanguage.structure.VariableDeclaration" flags="ng" index="33uBYm">
        <property id="1176718929932" name="isFinal" index="3TUv4t" />
        <child id="1068431790190" name="initializer" index="33vP2m" />
      </concept>
      <concept id="1068498886296" name="jetbrains.mps.baseLanguage.structure.VariableReference" flags="nn" index="37vLTw">
        <reference id="1068581517664" name="variableDeclaration" index="3cqZAo" />
      </concept>
      <concept id="1068498886292" name="jetbrains.mps.baseLanguage.structure.ParameterDeclaration" flags="ir" index="37vLTG" />
      <concept id="1068498886294" name="jetbrains.mps.baseLanguage.structure.AssignmentExpression" flags="nn" index="37vLTI" />
      <concept id="1225271177708" name="jetbrains.mps.baseLanguage.structure.StringType" flags="in" index="17QB3L" />
      <concept id="1225271546410" name="jetbrains.mps.baseLanguage.structure.TrimOperation" flags="nn" index="17S1cR">
        <property id="1225271546413" name="trimKind" index="17S1cK" />
      </concept>
      <concept id="4972933694980447171" name="jetbrains.mps.baseLanguage.structure.BaseVariableDeclaration" flags="ng" index="19Szcq">
        <child id="5680397130376446158" name="type" index="1tU5fm" />
      </concept>
      <concept id="1068580123132" name="jetbrains.mps.baseLanguage.structure.BaseMethodDeclaration" flags="ng" index="3clF44">
        <property id="4276006055363816570" name="isSynchronized" index="od$2w" />
        <property id="1181808852946" name="isFinal" index="DiZV1" />
        <child id="1068580123133" name="returnType" index="3clF45" />
        <child id="1068580123134" name="parameter" index="3clF46" />
        <child id="1068580123135" name="body" index="3clF47" />
      </concept>
      <concept id="1068580123152" name="jetbrains.mps.baseLanguage.structure.EqualsExpression" flags="nn" index="3clFbC" />
      <concept id="1068580123155" name="jetbrains.mps.baseLanguage.structure.ExpressionStatement" flags="nn" index="3clFbF">
        <child id="1068580123156" name="expression" index="3clFbG" />
      </concept>
      <concept id="1068580123157" name="jetbrains.mps.baseLanguage.structure.Statement" flags="nn" index="3clFbH" />
      <concept id="1068580123159" name="jetbrains.mps.baseLanguage.structure.IfStatement" flags="nn" index="3clFbJ">
        <child id="1082485599094" name="ifFalseStatement" index="9aQIa" />
        <child id="1068580123160" name="condition" index="3clFbw" />
        <child id="1068580123161" name="ifTrue" index="3clFbx" />
      </concept>
      <concept id="1068580123136" name="jetbrains.mps.baseLanguage.structure.StatementList" flags="sn" stub="5293379017992965193" index="3clFbS">
        <child id="1068581517665" name="statement" index="3cqZAp" />
      </concept>
      <concept id="1068580123140" name="jetbrains.mps.baseLanguage.structure.ConstructorDeclaration" flags="ig" index="3clFbW" />
      <concept id="1068581242878" name="jetbrains.mps.baseLanguage.structure.ReturnStatement" flags="nn" index="3cpWs6">
        <child id="1068581517676" name="expression" index="3cqZAk" />
      </concept>
      <concept id="1068581242864" name="jetbrains.mps.baseLanguage.structure.LocalVariableDeclarationStatement" flags="nn" index="3cpWs8">
        <child id="1068581242865" name="localVariableDeclaration" index="3cpWs9" />
      </concept>
      <concept id="1068581242863" name="jetbrains.mps.baseLanguage.structure.LocalVariableDeclaration" flags="nr" index="3cpWsn" />
      <concept id="1068581517677" name="jetbrains.mps.baseLanguage.structure.VoidType" flags="in" index="3cqZAl" />
      <concept id="1081516740877" name="jetbrains.mps.baseLanguage.structure.NotExpression" flags="nn" index="3fqX7Q">
        <child id="1081516765348" name="expression" index="3fr31v" />
      </concept>
      <concept id="1204053956946" name="jetbrains.mps.baseLanguage.structure.IMethodCall" flags="ng" index="1ndlxa">
        <reference id="1068499141037" name="baseMethodDeclaration" index="37wK5l" />
        <child id="1068499141038" name="actualArgument" index="37wK5m" />
      </concept>
      <concept id="1212685548494" name="jetbrains.mps.baseLanguage.structure.ClassCreator" flags="nn" index="1pGfFk" />
      <concept id="1107461130800" name="jetbrains.mps.baseLanguage.structure.Classifier" flags="ng" index="3pOWGL">
        <child id="5375687026011219971" name="member" index="jymVt" unordered="true" />
      </concept>
      <concept id="7812454656619025416" name="jetbrains.mps.baseLanguage.structure.MethodDeclaration" flags="ng" index="1rXfSm">
        <property id="8355037393041754995" name="isNative" index="2aFKle" />
      </concept>
      <concept id="1107535904670" name="jetbrains.mps.baseLanguage.structure.ClassifierType" flags="in" index="3uibUv">
        <reference id="1107535924139" name="classifier" index="3uigEE" />
      </concept>
      <concept id="1081773326031" name="jetbrains.mps.baseLanguage.structure.BinaryOperation" flags="nn" index="3uHJSO">
        <child id="1081773367579" name="rightExpression" index="3uHU7w" />
        <child id="1081773367580" name="leftExpression" index="3uHU7B" />
      </concept>
      <concept id="1081855346303" name="jetbrains.mps.baseLanguage.structure.BreakStatement" flags="nn" index="3zACq4" />
      <concept id="1178549954367" name="jetbrains.mps.baseLanguage.structure.IVisible" flags="ng" index="1B3ioH">
        <child id="1178549979242" name="visibility" index="1B3o_S" />
      </concept>
      <concept id="1144226303539" name="jetbrains.mps.baseLanguage.structure.ForeachStatement" flags="nn" index="1DcWWT">
        <child id="1144226360166" name="iterable" index="1DdaDG" />
      </concept>
      <concept id="1144230876926" name="jetbrains.mps.baseLanguage.structure.AbstractForStatement" flags="nn" index="1DupvO">
        <child id="1144230900587" name="variable" index="1Duv9x" />
      </concept>
      <concept id="1221737317277" name="jetbrains.mps.baseLanguage.structure.StaticInitializer" flags="lg" index="1Pe0a1">
        <child id="1221737317278" name="statementList" index="1Pe0a2" />
      </concept>
      <concept id="6329021646629104957" name="jetbrains.mps.baseLanguage.structure.TextCommentPart" flags="nn" index="3SKdUq">
        <property id="6329021646629104958" name="text" index="3SKdUp" />
      </concept>
      <concept id="6329021646629104954" name="jetbrains.mps.baseLanguage.structure.SingleLineComment" flags="nn" index="3SKdUt">
        <child id="6329021646629175155" name="commentPart" index="3SKWNk" />
      </concept>
      <concept id="1146644602865" name="jetbrains.mps.baseLanguage.structure.PublicVisibility" flags="nn" index="3Tm1VV" />
      <concept id="1146644623116" name="jetbrains.mps.baseLanguage.structure.PrivateVisibility" flags="nn" index="3Tm6S6" />
    </language>
    <language id="fd392034-7849-419d-9071-12563d152375" name="jetbrains.mps.baseLanguage.closures">
      <concept id="1199569711397" name="jetbrains.mps.baseLanguage.closures.structure.ClosureLiteral" flags="nn" index="1bVj0M">
        <child id="1199569906740" name="parameter" index="1bW2Oz" />
        <child id="1199569916463" name="body" index="1bW5cS" />
      </concept>
    </language>
    <language id="d8f591ec-4d86-4af2-9f92-a9e93c803ffa" name="jetbrains.mps.lang.scopes">
      <concept id="8077936094962944991" name="jetbrains.mps.lang.scopes.structure.ComeFromExpression" flags="nn" index="iy1fb">
        <reference id="8077936094962945822" name="link" index="iy1sa" />
      </concept>
      <concept id="8077936094962911282" name="jetbrains.mps.lang.scopes.structure.ParentScope" flags="nn" index="iy90A" />
    </language>
    <language id="7866978e-a0f0-4cc7-81bc-4d213d9375e1" name="jetbrains.mps.lang.smodel">
      <concept id="1177026924588" name="jetbrains.mps.lang.smodel.structure.RefConcept_Reference" flags="nn" index="chp4Y">
        <reference id="1177026940964" name="conceptDeclaration" index="cht4Q" />
      </concept>
      <concept id="1138411891628" name="jetbrains.mps.lang.smodel.structure.SNodeOperation" flags="nn" index="eCIE_">
        <child id="1144104376918" name="parameter" index="1xVPHs" />
      </concept>
      <concept id="1179409122411" name="jetbrains.mps.lang.smodel.structure.Node_ConceptMethodCall" flags="nn" index="2qgKlT" />
      <concept id="1145383075378" name="jetbrains.mps.lang.smodel.structure.SNodeListType" flags="in" index="2I9FWS">
        <reference id="1145383142433" name="elementConcept" index="2I9WkF" />
      </concept>
      <concept id="1171305280644" name="jetbrains.mps.lang.smodel.structure.Node_GetDescendantsOperation" flags="nn" index="2Rf3mk" />
      <concept id="1171310072040" name="jetbrains.mps.lang.smodel.structure.Node_GetContainingRootOperation" flags="nn" index="2Rxl7S" />
      <concept id="1145567426890" name="jetbrains.mps.lang.smodel.structure.SNodeListCreator" flags="nn" index="2T8Vx0">
        <child id="1145567471833" name="createdType" index="2T96Bj" />
      </concept>
      <concept id="1180031783296" name="jetbrains.mps.lang.smodel.structure.Concept_IsSubConceptOfOperation" flags="nn" index="2Zo12i">
        <child id="1180031783297" name="conceptArgument" index="2Zo12j" />
      </concept>
      <concept id="1139613262185" name="jetbrains.mps.lang.smodel.structure.Node_GetParentOperation" flags="nn" index="1mfA1w" />
      <concept id="1139621453865" name="jetbrains.mps.lang.smodel.structure.Node_IsInstanceOfOperation" flags="nn" index="1mIQ4w">
        <child id="1177027386292" name="conceptArgument" index="cj9EA" />
      </concept>
      <concept id="1144101972840" name="jetbrains.mps.lang.smodel.structure.OperationParm_Concept" flags="ng" index="1xMEDy">
        <child id="1207343664468" name="conceptArgument" index="ri$Ld" />
      </concept>
      <concept id="1172326502327" name="jetbrains.mps.lang.smodel.structure.Concept_IsExactlyOperation" flags="nn" index="3O6GUB">
        <child id="1206733650006" name="conceptArgument" index="3QVz_e" />
      </concept>
      <concept id="1140137987495" name="jetbrains.mps.lang.smodel.structure.SNodeTypeCastExpression" flags="nn" index="1PxgMI">
        <property id="1238684351431" name="asCast" index="1BlNFB" />
        <reference id="1140138128738" name="concept" index="1PxNhF" />
        <child id="1140138123956" name="leftExpression" index="1PxMeX" />
      </concept>
      <concept id="1138055754698" name="jetbrains.mps.lang.smodel.structure.SNodeType" flags="in" index="3Tqbb2">
        <reference id="1138405853777" name="concept" index="ehGHo" />
      </concept>
      <concept id="1138056022639" name="jetbrains.mps.lang.smodel.structure.SPropertyAccess" flags="nn" index="3TrcHB">
        <reference id="1138056395725" name="property" index="3TsBF5" />
      </concept>
      <concept id="1138056143562" name="jetbrains.mps.lang.smodel.structure.SLinkAccess" flags="nn" index="3TrEf2">
        <reference id="1138056516764" name="link" index="3Tt5mk" />
      </concept>
      <concept id="1138056282393" name="jetbrains.mps.lang.smodel.structure.SLinkListAccess" flags="nn" index="3Tsc0h">
        <reference id="1138056546658" name="link" index="3TtcxE" />
      </concept>
      <concept id="1172420572800" name="jetbrains.mps.lang.smodel.structure.SConceptType" flags="in" index="3THzug" />
    </language>
    <language id="ceab5195-25ea-4f22-9b92-103b95ca8c0c" name="jetbrains.mps.lang.core">
      <concept id="1133920641626" name="jetbrains.mps.lang.core.structure.BaseConcept" flags="ng" index="2VYdi">
        <property id="1193676396447" name="virtualPackage" index="3GE5qa" />
      </concept>
      <concept id="1169194658468" name="jetbrains.mps.lang.core.structure.INamedConcept" flags="ng" index="TrEIO">
        <property id="1169194664001" name="name" index="TrG5h" />
      </concept>
    </language>
    <language id="83888646-71ce-4f1c-9c53-c54016f6ad4f" name="jetbrains.mps.baseLanguage.collections">
      <concept id="1204796164442" name="jetbrains.mps.baseLanguage.collections.structure.InternalSequenceOperation" flags="nn" index="23sCx2">
        <child id="1204796294226" name="closure" index="23t8la" />
      </concept>
      <concept id="540871147943773365" name="jetbrains.mps.baseLanguage.collections.structure.SingleArgumentSequenceOperation" flags="nn" index="25WWJ4">
        <child id="540871147943773366" name="argument" index="25WWJ7" />
      </concept>
      <concept id="1204980550705" name="jetbrains.mps.baseLanguage.collections.structure.VisitAllOperation" flags="nn" index="2es0OD" />
      <concept id="1151702311717" name="jetbrains.mps.baseLanguage.collections.structure.ToListOperation" flags="nn" index="ANE8D" />
      <concept id="1153943597977" name="jetbrains.mps.baseLanguage.collections.structure.ForEachStatement" flags="nn" index="2Gpval">
        <child id="1153944400369" name="variable" index="2Gsz3X" />
        <child id="1153944424730" name="inputSequence" index="2GsD0m" />
      </concept>
      <concept id="1153944193378" name="jetbrains.mps.baseLanguage.collections.structure.ForEachVariable" flags="nr" index="2GrKxI" />
      <concept id="1153944233411" name="jetbrains.mps.baseLanguage.collections.structure.ForEachVariableReference" flags="nn" index="2GrUjf">
        <reference id="1153944258490" name="variable" index="2Gs0qQ" />
      </concept>
      <concept id="1201306600024" name="jetbrains.mps.baseLanguage.collections.structure.ContainsKeyOperation" flags="nn" index="2Nt0df">
        <child id="1201654602639" name="key" index="38cxEo" />
      </concept>
      <concept id="1203518072036" name="jetbrains.mps.baseLanguage.collections.structure.SmartClosureParameterDeclaration" flags="ig" index="Rh6nW" />
      <concept id="1160612413312" name="jetbrains.mps.baseLanguage.collections.structure.AddElementOperation" flags="nn" index="TSZUe" />
      <concept id="1160666733551" name="jetbrains.mps.baseLanguage.collections.structure.AddAllElementsOperation" flags="nn" index="X8dFx" />
      <concept id="1197683403723" name="jetbrains.mps.baseLanguage.collections.structure.MapType" flags="in" index="3rvAFt">
        <child id="1197683466920" name="keyType" index="3rvQeY" />
        <child id="1197683475734" name="valueType" index="3rvSg0" />
      </concept>
      <concept id="1197686869805" name="jetbrains.mps.baseLanguage.collections.structure.HashMapCreator" flags="nn" index="3rGOSV">
        <child id="1197687026896" name="keyType" index="3rHrn6" />
        <child id="1197687035757" name="valueType" index="3rHtpV" />
      </concept>
      <concept id="1197932370469" name="jetbrains.mps.baseLanguage.collections.structure.MapElement" flags="nn" index="3EllGN">
        <child id="1197932505799" name="map" index="3ElQJh" />
        <child id="1197932525128" name="key" index="3ElVtu" />
      </concept>
      <concept id="1178894719932" name="jetbrains.mps.baseLanguage.collections.structure.DistinctOperation" flags="nn" index="1VAtEI" />
    </language>
  </registry>
  <node concept="13h7C7" id="5o9jvTM6Iau">
    <property role="3GE5qa" value="phase" />
    <ref role="13h7C2" to="c3oy:5l83jlMf16T" resolve="Phase" />
    <node concept="13i0hz" id="dkQEiESnPF" role="13h7CS">
      <property role="TrG5h" value="preprocess" />
      <node concept="3Tm1VV" id="dkQEiESnPG" role="1B3o_S" />
      <node concept="3clFbS" id="dkQEiESnPH" role="3clF47">
        <node concept="3SKdUt" id="dkQEiFaXk9" role="3cqZAp">
          <node concept="3SKdUq" id="dkQEiFaXmD" role="3SKWNk">
            <property role="3SKdUp" value="TODO preprocess in/out declarations" />
          </node>
        </node>
        <node concept="3clFbF" id="dkQEiEStBw" role="3cqZAp">
          <node concept="2OqwBi" id="dkQEiEUKLo" role="3clFbG">
            <node concept="2OqwBi" id="dkQEiEUKmb" role="2Oq$k0">
              <node concept="13iPFW" id="dkQEiEUKk3" role="2Oq$k0" />
              <node concept="3TrEf2" id="dkQEiEUKyM" role="2OqNvi">
                <ref role="3Tt5mk" to="c3oy:5l83jlMfKuN" />
              </node>
            </node>
            <node concept="2qgKlT" id="dkQEiEULbc" role="2OqNvi">
              <ref role="37wK5l" to="z32s:dkQEiETpsI" resolve="preprocess" />
            </node>
          </node>
        </node>
        <node concept="3clFbH" id="7yaypfBXmAE" role="3cqZAp" />
        <node concept="3SKdUt" id="7yaypfBXmDb" role="3cqZAp">
          <node concept="3SKdUq" id="7yaypfBXmFn" role="3SKWNk">
            <property role="3SKdUp" value="collect ODEs " />
          </node>
        </node>
        <node concept="3clFbF" id="7yaypfBXmHO" role="3cqZAp">
          <node concept="2OqwBi" id="7yaypfBXoSA" role="3clFbG">
            <node concept="2OqwBi" id="7yaypfBXnKa" role="2Oq$k0">
              <node concept="13iPFW" id="7yaypfBXmHM" role="2Oq$k0" />
              <node concept="2Rf3mk" id="7yaypfBXob5" role="2OqNvi">
                <node concept="1xMEDy" id="7yaypfBXob7" role="1xVPHs">
                  <node concept="chp4Y" id="7yaypfBXod8" role="ri$Ld">
                    <ref role="cht4Q" to="2gyk:2zxr1HVm6oe" resolve="ODEStatement" />
                  </node>
                </node>
              </node>
            </node>
            <node concept="2es0OD" id="7yaypfBXtqP" role="2OqNvi">
              <node concept="1bVj0M" id="7yaypfBXtqR" role="23t8la">
                <node concept="3clFbS" id="7yaypfBXtqS" role="1bW5cS">
                  <node concept="3clFbF" id="7yaypfBXtuC" role="3cqZAp">
                    <node concept="2OqwBi" id="7yaypfBXu2t" role="3clFbG">
                      <node concept="2YIFZM" id="7yaypfBXtvQ" role="2Oq$k0">
                        <ref role="37wK5l" to="397v:2zxr1HVlPiO" resolve="getInstance" />
                        <ref role="1Pybhc" to="397v:2zxr1HVlPim" resolve="ODEUtil" />
                        <node concept="2OqwBi" id="7yaypfBXt_w" role="37wK5m">
                          <node concept="13iPFW" id="7yaypfBXtxC" role="2Oq$k0" />
                          <node concept="2Rxl7S" id="7yaypfBXu0b" role="2OqNvi" />
                        </node>
                      </node>
                      <node concept="liA8E" id="7yaypfBXufv" role="2OqNvi">
                        <ref role="37wK5l" to="397v:2zxr1HVlPjd" resolve="add" />
                        <node concept="37vLTw" id="7yaypfBXuhG" role="37wK5m">
                          <ref role="3cqZAo" node="7yaypfBXtqT" resolve="it" />
                        </node>
                      </node>
                    </node>
                  </node>
                </node>
                <node concept="Rh6nW" id="7yaypfBXtqT" role="1bW2Oz">
                  <property role="TrG5h" value="it" />
                  <node concept="2jxLKc" id="7yaypfBXtqU" role="1tU5fm" />
                </node>
              </node>
            </node>
          </node>
        </node>
      </node>
      <node concept="3cqZAl" id="dkQEiESpmj" role="3clF45" />
    </node>
    <node concept="13hLZK" id="5o9jvTM6Iav" role="13h7CW">
      <node concept="3clFbS" id="5o9jvTM6Iaw" role="2VODD2" />
    </node>
    <node concept="13i0hz" id="5o9jvTM6Ia$" role="13h7CS">
      <property role="13i0iv" value="false" />
      <property role="TrG5h" value="getScope" />
      <property role="13i0it" value="false" />
      <ref role="13i0hy" to="tpcu:3fifI_xCJOQ" resolve="getScope" />
      <node concept="3Tm1VV" id="5o9jvTM6Ia_" role="1B3o_S" />
      <node concept="3clFbS" id="5o9jvTM6IaI" role="3clF47">
        <node concept="3clFbH" id="4N4dcYnTq9_" role="3cqZAp" />
        <node concept="3clFbJ" id="5o9jvTM7yS4" role="3cqZAp">
          <node concept="3clFbS" id="5o9jvTM7yS6" role="3clFbx">
            <node concept="3SKdUt" id="5rrFAeHU8bf" role="3cqZAp">
              <node concept="3SKdUq" id="5rrFAeHU9oT" role="3SKWNk">
                <property role="3SKdUp" value="TODO if (come from provides) { ... }" />
              </node>
            </node>
            <node concept="3clFbJ" id="3yJ4drhU9sI" role="3cqZAp">
              <node concept="3clFbS" id="3yJ4drhU9sK" role="3clFbx">
                <node concept="3cpWs8" id="1aS1l$gXGO" role="3cqZAp">
                  <node concept="3cpWsn" id="1aS1l$gXGR" role="3cpWs9">
                    <property role="TrG5h" value="variables" />
                    <node concept="2I9FWS" id="1aS1l$gXGM" role="1tU5fm">
                      <ref role="2I9WkF" to="c9eo:5l83jlMhBWg" resolve="VariableDeclaration" />
                    </node>
                    <node concept="2ShNRf" id="1aS1l$gXLK" role="33vP2m">
                      <node concept="2T8Vx0" id="1aS1l$gZTV" role="2ShVmc">
                        <node concept="2I9FWS" id="1aS1l$gZTX" role="2T96Bj">
                          <ref role="2I9WkF" to="c9eo:5l83jlMhBWg" resolve="VariableDeclaration" />
                        </node>
                      </node>
                    </node>
                  </node>
                </node>
                <node concept="1DcWWT" id="5rrFAeHUx7Q" role="3cqZAp">
                  <node concept="3clFbS" id="5rrFAeHUx7S" role="2LFqv$">
                    <node concept="3clFbF" id="5rrFAeHU_iP" role="3cqZAp">
                      <node concept="2OqwBi" id="5rrFAeHUA7m" role="3clFbG">
                        <node concept="37vLTw" id="5rrFAeHU_iN" role="2Oq$k0">
                          <ref role="3cqZAo" node="1aS1l$gXGR" resolve="variables" />
                        </node>
                        <node concept="TSZUe" id="5rrFAeHUFQ8" role="2OqNvi">
                          <node concept="2OqwBi" id="5rrFAeHUGcT" role="25WWJ7">
                            <node concept="37vLTw" id="5rrFAeHUFZW" role="2Oq$k0">
                              <ref role="3cqZAo" node="5rrFAeHUx7T" resolve="inputDecl" />
                            </node>
                            <node concept="3TrEf2" id="5rrFAeHUGwa" role="2OqNvi">
                              <ref role="3Tt5mk" to="c3oy:5rrFAeHUiE8" />
                            </node>
                          </node>
                        </node>
                      </node>
                    </node>
                    <node concept="1DcWWT" id="3z8Mov8biWM" role="3cqZAp">
                      <node concept="3clFbS" id="3z8Mov8biWO" role="2LFqv$">
                        <node concept="3clFbF" id="3z8Mov8bkV0" role="3cqZAp">
                          <node concept="2OqwBi" id="3z8Mov8blJx" role="3clFbG">
                            <node concept="37vLTw" id="3z8Mov8bkUY" role="2Oq$k0">
                              <ref role="3cqZAo" node="1aS1l$gXGR" resolve="variables" />
                            </node>
                            <node concept="TSZUe" id="3z8Mov8brv5" role="2OqNvi">
                              <node concept="37vLTw" id="3z8Mov8brDp" role="25WWJ7">
                                <ref role="3cqZAo" node="3z8Mov8biWP" resolve="inputProperties" />
                              </node>
                            </node>
                          </node>
                        </node>
                      </node>
                      <node concept="3cpWsn" id="3z8Mov8biWP" role="1Duv9x">
                        <property role="TrG5h" value="inputProperties" />
                        <node concept="3Tqbb2" id="3z8Mov8bj5N" role="1tU5fm">
                          <ref role="ehGHo" to="c3oy:3z8Mov8aL2J" resolve="InputPropertyDeclaration" />
                        </node>
                      </node>
                      <node concept="2OqwBi" id="3z8Mov8bjPu" role="1DdaDG">
                        <node concept="37vLTw" id="3z8Mov8bjLU" role="2Oq$k0">
                          <ref role="3cqZAo" node="5rrFAeHUx7T" resolve="inputDecl" />
                        </node>
                        <node concept="3Tsc0h" id="3z8Mov8bk2V" role="2OqNvi">
                          <ref role="3TtcxE" to="c3oy:3z8Mov8atRo" />
                        </node>
                      </node>
                    </node>
                  </node>
                  <node concept="3cpWsn" id="5rrFAeHUx7T" role="1Duv9x">
                    <property role="TrG5h" value="inputDecl" />
                    <node concept="3Tqbb2" id="5rrFAeHU$13" role="1tU5fm">
                      <ref role="ehGHo" to="c3oy:3yJ4drhX9yy" resolve="PhaseInputDeclaration" />
                    </node>
                  </node>
                  <node concept="2OqwBi" id="5rrFAeHU$vd" role="1DdaDG">
                    <node concept="13iPFW" id="5rrFAeHU$pT" role="2Oq$k0" />
                    <node concept="3Tsc0h" id="5rrFAeHU$Kx" role="2OqNvi">
                      <ref role="3TtcxE" to="c3oy:5o9jvTMbnTN" />
                    </node>
                  </node>
                </node>
                <node concept="1DcWWT" id="5rrFAeHTRti" role="3cqZAp">
                  <node concept="3clFbS" id="5rrFAeHTRtk" role="2LFqv$">
                    <node concept="3clFbF" id="5rrFAeHTWmz" role="3cqZAp">
                      <node concept="2OqwBi" id="5rrFAeHTXb4" role="3clFbG">
                        <node concept="37vLTw" id="5rrFAeHTWmx" role="2Oq$k0">
                          <ref role="3cqZAo" node="1aS1l$gXGR" resolve="variables" />
                        </node>
                        <node concept="TSZUe" id="5rrFAeHU2TQ" role="2OqNvi">
                          <node concept="37vLTw" id="5rrFAeHU33C" role="25WWJ7">
                            <ref role="3cqZAo" node="5rrFAeHTRtl" resolve="decl" />
                          </node>
                        </node>
                      </node>
                    </node>
                  </node>
                  <node concept="3cpWsn" id="5rrFAeHTRtl" role="1Duv9x">
                    <property role="TrG5h" value="decl" />
                    <node concept="3Tqbb2" id="5rrFAeHTUM0" role="1tU5fm">
                      <ref role="ehGHo" to="c3oy:5o9jvTMaoHN" resolve="PhaseOutputDeclaration" />
                    </node>
                  </node>
                  <node concept="2OqwBi" id="5rrFAeHTVz3" role="1DdaDG">
                    <node concept="13iPFW" id="5rrFAeHTV9M" role="2Oq$k0" />
                    <node concept="3Tsc0h" id="5rrFAeHTVOn" role="2OqNvi">
                      <ref role="3TtcxE" to="c3oy:5o9jvTMaq6I" />
                    </node>
                  </node>
                </node>
                <node concept="3cpWs6" id="3yJ4drhUar7" role="3cqZAp">
                  <node concept="2YIFZM" id="3yJ4drhUar8" role="3cqZAk">
                    <ref role="1Pybhc" to="fnmy:3A2qfoxVUBF" resolve="Scopes" />
                    <ref role="37wK5l" to="fnmy:3A2qfoxVU7a" resolve="forVariables" />
                    <node concept="37vLTw" id="3yJ4drhUar9" role="37wK5m">
                      <ref role="3cqZAo" node="5o9jvTM6IaJ" resolve="kind" />
                    </node>
                    <node concept="37vLTw" id="1aS1l$hp3z" role="37wK5m">
                      <ref role="3cqZAo" node="1aS1l$gXGR" resolve="variables" />
                    </node>
                    <node concept="iy90A" id="3yJ4drhUarb" role="37wK5m" />
                  </node>
                </node>
              </node>
              <node concept="iy1fb" id="3yJ4drhUapQ" role="3clFbw">
                <ref role="iy1sa" to="c3oy:5l83jlMfKuN" />
              </node>
              <node concept="9aQIb" id="3yJ4drhVIHy" role="9aQIa">
                <node concept="3clFbS" id="3yJ4drhVIHz" role="9aQI4">
                  <node concept="3cpWs6" id="3yJ4drhVR2w" role="3cqZAp">
                    <node concept="iy90A" id="3yJ4drhVR2L" role="3cqZAk" />
                  </node>
                </node>
              </node>
            </node>
          </node>
          <node concept="2OqwBi" id="Opj2YG$M45" role="3clFbw">
            <node concept="37vLTw" id="Opj2YG$KGY" role="2Oq$k0">
              <ref role="3cqZAo" node="5o9jvTM6IaJ" resolve="kind" />
            </node>
            <node concept="2Zo12i" id="Opj2YG$NE6" role="2OqNvi">
              <node concept="chp4Y" id="Opj2YG$NFb" role="2Zo12j">
                <ref role="cht4Q" to="tpee:4H$HgYMZ7sw" resolve="IVariableDeclaration" />
              </node>
            </node>
          </node>
        </node>
        <node concept="3clFbH" id="5rrFAeHUjTz" role="3cqZAp" />
        <node concept="3clFbF" id="5o9jvTM6IaT" role="3cqZAp">
          <node concept="2OqwBi" id="5o9jvTM6IaQ" role="3clFbG">
            <node concept="13iAh5" id="5o9jvTM6IaR" role="2Oq$k0">
              <ref role="3eA5LN" to="tpck:3fifI_xCcJN" resolve="ScopeProvider" />
            </node>
            <node concept="2qgKlT" id="5o9jvTM6IaS" role="2OqNvi">
              <ref role="37wK5l" to="tpcu:3fifI_xCJOQ" resolve="getScope" />
              <node concept="37vLTw" id="5o9jvTM6IaO" role="37wK5m">
                <ref role="3cqZAo" node="5o9jvTM6IaJ" resolve="kind" />
              </node>
              <node concept="37vLTw" id="5o9jvTM6IaP" role="37wK5m">
                <ref role="3cqZAo" node="5o9jvTM6IaL" resolve="child" />
              </node>
            </node>
          </node>
        </node>
      </node>
      <node concept="37vLTG" id="5o9jvTM6IaJ" role="3clF46">
        <property role="TrG5h" value="kind" />
        <node concept="3THzug" id="5o9jvTM6IaK" role="1tU5fm" />
      </node>
      <node concept="37vLTG" id="5o9jvTM6IaL" role="3clF46">
        <property role="TrG5h" value="child" />
        <node concept="3Tqbb2" id="5o9jvTM6IaM" role="1tU5fm" />
      </node>
      <node concept="3uibUv" id="5o9jvTM6IaN" role="3clF45">
        <ref role="3uigEE" to="o8zo:3fifI_xCtN$" resolve="Scope" />
      </node>
    </node>
    <node concept="13i0hz" id="7GORU49pZ94" role="13h7CS">
      <property role="13i0iv" value="false" />
      <property role="13i0it" value="false" />
      <property role="TrG5h" value="getGlobalVariableDeclarations" />
      <ref role="13i0hy" to="z32s:7GORU49pRR3" resolve="getGlobalVariableDeclarations" />
      <node concept="3Tm1VV" id="7GORU49pZ95" role="1B3o_S" />
      <node concept="3clFbS" id="7GORU49pZ98" role="3clF47">
        <node concept="3cpWs6" id="7GORU49r$fs" role="3cqZAp">
          <node concept="2OqwBi" id="7GORU49r$HN" role="3cqZAk">
            <node concept="2OqwBi" id="7GORU49r$is" role="2Oq$k0">
              <node concept="13iPFW" id="7GORU49r$fF" role="2Oq$k0" />
              <node concept="3TrEf2" id="7GORU49r$v7" role="2OqNvi">
                <ref role="3Tt5mk" to="c3oy:5l83jlMfKuN" />
              </node>
            </node>
            <node concept="2qgKlT" id="7GORU49r$TJ" role="2OqNvi">
              <ref role="37wK5l" to="z32s:7GORU49pRR3" resolve="getGlobalVariableDeclarations" />
            </node>
          </node>
        </node>
      </node>
      <node concept="2I9FWS" id="7GORU49pZ99" role="3clF45">
        <ref role="2I9WkF" to="tpee:4H$HgYMZ7sw" resolve="IVariableDeclaration" />
      </node>
    </node>
  </node>
  <node concept="13h7C7" id="5o9jvTM96RT">
    <property role="3GE5qa" value="module" />
    <ref role="13h7C2" to="c3oy:7eZWuAL6NR2" resolve="Module" />
    <node concept="13i0hz" id="7aQhY_B1VS2" role="13h7CS">
      <property role="TrG5h" value="getFormattedName" />
      <node concept="3Tm1VV" id="7aQhY_B1VS3" role="1B3o_S" />
      <node concept="17QB3L" id="7aQhY_B1Y8E" role="3clF45" />
      <node concept="3clFbS" id="7aQhY_B1VS5" role="3clF47">
        <node concept="3clFbF" id="7aQhY_B1YXk" role="3cqZAp">
          <node concept="2OqwBi" id="7aQhY_B20lB" role="3clFbG">
            <node concept="2OqwBi" id="7aQhY_B1Z_W" role="2Oq$k0">
              <node concept="2OqwBi" id="7aQhY_B1Zvv" role="2Oq$k0">
                <node concept="2OqwBi" id="7aQhY_B1YZZ" role="2Oq$k0">
                  <node concept="13iPFW" id="7aQhY_B1YXj" role="2Oq$k0" />
                  <node concept="3TrcHB" id="7aQhY_B1ZcA" role="2OqNvi">
                    <ref role="3TsBF5" to="tpck:h0TrG11" resolve="name" />
                  </node>
                </node>
                <node concept="liA8E" id="4F3nn$o4Yqr" role="2OqNvi">
                  <ref role="37wK5l" to="e2lb:~String.replaceAll(java.lang.String,java.lang.String):java.lang.String" resolve="replaceAll" />
                  <node concept="Xl_RD" id="4F3nn$o4ZuY" role="37wK5m">
                    <property role="Xl_RC" value="[^a-zA-Z0-9]" />
                  </node>
                  <node concept="Xl_RD" id="4F3nn$o51vV" role="37wK5m">
                    <property role="Xl_RC" value="_" />
                  </node>
                </node>
              </node>
              <node concept="liA8E" id="7aQhY_B2017" role="2OqNvi">
                <ref role="37wK5l" to="e2lb:~String.toLowerCase():java.lang.String" resolve="toLowerCase" />
              </node>
            </node>
            <node concept="17S1cR" id="7aQhY_B21fm" role="2OqNvi">
              <property role="17S1cK" value="both" />
            </node>
          </node>
        </node>
      </node>
    </node>
    <node concept="13i0hz" id="dkQEiESdQs" role="13h7CS">
      <property role="TrG5h" value="preprocess" />
      <node concept="3Tm1VV" id="dkQEiESdQt" role="1B3o_S" />
      <node concept="3clFbS" id="dkQEiESdQu" role="3clF47">
        <node concept="3clFbF" id="dkQEiFaOZN" role="3cqZAp">
          <node concept="2OqwBi" id="dkQEiFaQhW" role="3clFbG">
            <node concept="2OqwBi" id="dkQEiFaP1W" role="2Oq$k0">
              <node concept="13iPFW" id="dkQEiFaOZM" role="2Oq$k0" />
              <node concept="3Tsc0h" id="dkQEiFaPqR" role="2OqNvi">
                <ref role="3TtcxE" to="c3oy:5l83jlMf9j5" />
              </node>
            </node>
            <node concept="2es0OD" id="dkQEiFaTSa" role="2OqNvi">
              <node concept="1bVj0M" id="dkQEiFaTSc" role="23t8la">
                <node concept="3clFbS" id="dkQEiFaTSd" role="1bW5cS">
                  <node concept="3clFbF" id="dkQEiFaTV7" role="3cqZAp">
                    <node concept="2OqwBi" id="dkQEiFaTYD" role="3clFbG">
                      <node concept="37vLTw" id="dkQEiFaTV6" role="2Oq$k0">
                        <ref role="3cqZAo" node="dkQEiFaTSe" resolve="it" />
                      </node>
                      <node concept="2qgKlT" id="dkQEiFaUeq" role="2OqNvi">
                        <ref role="37wK5l" node="dkQEiESnPF" resolve="preprocess" />
                      </node>
                    </node>
                  </node>
                </node>
                <node concept="Rh6nW" id="dkQEiFaTSe" role="1bW2Oz">
                  <property role="TrG5h" value="it" />
                  <node concept="2jxLKc" id="dkQEiFaTSf" role="1tU5fm" />
                </node>
              </node>
            </node>
          </node>
        </node>
      </node>
      <node concept="3cqZAl" id="dkQEiESkgT" role="3clF45" />
    </node>
    <node concept="13i0hz" id="5o9jvTM9GZD" role="13h7CS">
      <property role="13i0iv" value="false" />
      <property role="TrG5h" value="getScope" />
      <property role="13i0it" value="false" />
      <ref role="13i0hy" to="tpcu:3fifI_xCJOQ" resolve="getScope" />
      <node concept="3Tm1VV" id="5o9jvTM9GZE" role="1B3o_S" />
      <node concept="3clFbS" id="5o9jvTM9GZN" role="3clF47">
        <node concept="3clFbH" id="5o9jvTM9HNA" role="3cqZAp" />
        <node concept="3clFbJ" id="5rrFAeHUq76" role="3cqZAp">
          <node concept="3clFbS" id="5rrFAeHUq78" role="3clFbx">
            <node concept="3cpWs6" id="3z8Mov89Onn" role="3cqZAp">
              <node concept="2YIFZM" id="3z8Mov89Qyg" role="3cqZAk">
                <ref role="1Pybhc" to="fnmy:3A2qfoxVUBF" resolve="Scopes" />
                <ref role="37wK5l" to="fnmy:3A2qfoxVU7a" resolve="forVariables" />
                <node concept="37vLTw" id="3z8Mov89Rjm" role="37wK5m">
                  <ref role="3cqZAo" node="5o9jvTM9GZO" resolve="kind" />
                </node>
                <node concept="BsUDl" id="3z8Mov8afrQ" role="37wK5m">
                  <ref role="37wK5l" node="3z8Mov8a6qr" resolve="getPhaseOutputVariableDeclarations" />
                  <node concept="37vLTw" id="3z8Mov8c7U8" role="37wK5m">
                    <ref role="3cqZAo" node="5o9jvTM9GZQ" resolve="child" />
                  </node>
                </node>
                <node concept="iy90A" id="3z8Mov89TOq" role="37wK5m" />
              </node>
            </node>
          </node>
          <node concept="2OqwBi" id="5rrFAeHUqcr" role="3clFbw">
            <node concept="37vLTw" id="5rrFAeHUq8X" role="2Oq$k0">
              <ref role="3cqZAo" node="5o9jvTM9GZO" resolve="kind" />
            </node>
            <node concept="3O6GUB" id="5rrFAeHUqnY" role="2OqNvi">
              <node concept="chp4Y" id="5rrFAeHUqol" role="3QVz_e">
                <ref role="cht4Q" to="c3oy:5o9jvTMaoHN" resolve="PhaseOutputDeclaration" />
              </node>
            </node>
          </node>
        </node>
        <node concept="3clFbH" id="2GdYKw1UKZe" role="3cqZAp" />
        <node concept="3clFbJ" id="1lih$07dHg" role="3cqZAp">
          <node concept="3clFbS" id="1lih$07dHi" role="3clFbx">
            <node concept="3cpWs8" id="1lih$07eKd" role="3cqZAp">
              <node concept="3cpWsn" id="1lih$07eKg" role="3cpWs9">
                <property role="TrG5h" value="result" />
                <node concept="2I9FWS" id="1lih$07eKc" role="1tU5fm">
                  <ref role="2I9WkF" to="tpee:4H$HgYMZ7sw" resolve="IVariableDeclaration" />
                </node>
                <node concept="2ShNRf" id="1lih$07k0V" role="33vP2m">
                  <node concept="2T8Vx0" id="1lih$07k0T" role="2ShVmc">
                    <node concept="2I9FWS" id="1lih$07k0U" role="2T96Bj">
                      <ref role="2I9WkF" to="tpee:4H$HgYMZ7sw" resolve="IVariableDeclaration" />
                    </node>
                  </node>
                </node>
              </node>
            </node>
            <node concept="2Gpval" id="1lih$07k1s" role="3cqZAp">
              <node concept="2GrKxI" id="1lih$07k1u" role="2Gsz3X">
                <property role="TrG5h" value="p" />
              </node>
              <node concept="3clFbS" id="1lih$07k1w" role="2LFqv$">
                <node concept="3clFbF" id="1lih$07kIw" role="3cqZAp">
                  <node concept="2OqwBi" id="1lih$07laX" role="3clFbG">
                    <node concept="37vLTw" id="1lih$07kIv" role="2Oq$k0">
                      <ref role="3cqZAo" node="1lih$07eKg" resolve="result" />
                    </node>
                    <node concept="TSZUe" id="1lih$07ogz" role="2OqNvi">
                      <node concept="2GrUjf" id="1lih$07oli" role="25WWJ7">
                        <ref role="2Gs0qQ" node="1lih$07k1u" resolve="p" />
                      </node>
                    </node>
                  </node>
                </node>
              </node>
              <node concept="2OqwBi" id="1lih$07kwR" role="2GsD0m">
                <node concept="2OqwBi" id="1lih$07k53" role="2Oq$k0">
                  <node concept="13iPFW" id="1lih$07k26" role="2Oq$k0" />
                  <node concept="3TrEf2" id="1lih$07khO" role="2OqNvi">
                    <ref role="3Tt5mk" to="c3oy:6r3vkxbWl_W" />
                  </node>
                </node>
                <node concept="3Tsc0h" id="1lih$07kGH" role="2OqNvi">
                  <ref role="3TtcxE" to="lm2c:5z7tqBB6xAa" />
                </node>
              </node>
            </node>
            <node concept="3cpWs6" id="1lih$07owH" role="3cqZAp">
              <node concept="2YIFZM" id="1lih$07oQi" role="3cqZAk">
                <ref role="37wK5l" to="fnmy:3A2qfoxVU7a" resolve="forVariables" />
                <ref role="1Pybhc" to="fnmy:3A2qfoxVUBF" resolve="Scopes" />
                <node concept="37vLTw" id="1lih$07p0G" role="37wK5m">
                  <ref role="3cqZAo" node="5o9jvTM9GZO" resolve="kind" />
                </node>
                <node concept="37vLTw" id="1lih$07pb3" role="37wK5m">
                  <ref role="3cqZAo" node="1lih$07eKg" resolve="result" />
                </node>
                <node concept="iy90A" id="1lih$07pxN" role="37wK5m" />
              </node>
            </node>
          </node>
          <node concept="2OqwBi" id="1lih$07e9k" role="3clFbw">
            <node concept="37vLTw" id="1lih$07dK6" role="2Oq$k0">
              <ref role="3cqZAo" node="5o9jvTM9GZO" resolve="kind" />
            </node>
            <node concept="3O6GUB" id="1lih$07emy" role="2OqNvi">
              <node concept="chp4Y" id="1lih$07enB" role="3QVz_e">
                <ref role="cht4Q" to="lm2c:5z7tqBB6nSJ" resolve="CtrlProperty" />
              </node>
            </node>
          </node>
        </node>
        <node concept="3clFbH" id="3z8Mov8ahB5" role="3cqZAp" />
        <node concept="3clFbJ" id="5o9jvTM9HOU" role="3cqZAp">
          <node concept="3clFbS" id="5o9jvTM9HOW" role="3clFbx">
            <node concept="3cpWs6" id="5o9jvTM9I1U" role="3cqZAp">
              <node concept="2YIFZM" id="5o9jvTM9I97" role="3cqZAk">
                <ref role="1Pybhc" to="fnmy:3A2qfoxVUBF" resolve="Scopes" />
                <ref role="37wK5l" to="fnmy:3A2qfoxVU7a" resolve="forVariables" />
                <node concept="37vLTw" id="5o9jvTM9IzN" role="37wK5m">
                  <ref role="3cqZAo" node="5o9jvTM9GZO" resolve="kind" />
                </node>
                <node concept="BsUDl" id="5o9jvTM9IB6" role="37wK5m">
                  <ref role="37wK5l" node="5o9jvTM96RW" resolve="getExternalVariableDeclarations" />
                  <node concept="37vLTw" id="5o9jvTM9IWx" role="37wK5m">
                    <ref role="3cqZAo" node="5o9jvTM9GZQ" resolve="child" />
                  </node>
                </node>
                <node concept="iy90A" id="5o9jvTM9K64" role="37wK5m" />
              </node>
            </node>
          </node>
          <node concept="2OqwBi" id="5o9jvTM9HTn" role="3clFbw">
            <node concept="37vLTw" id="5o9jvTM9HQi" role="2Oq$k0">
              <ref role="3cqZAo" node="5o9jvTM9GZO" resolve="kind" />
            </node>
            <node concept="2Zo12i" id="5o9jvTM9HZ$" role="2OqNvi">
              <node concept="chp4Y" id="2NTMEjkYUH$" role="2Zo12j">
                <ref role="cht4Q" to="tpee:4H$HgYMZ7sw" resolve="IVariableDeclaration" />
              </node>
            </node>
          </node>
        </node>
        <node concept="3clFbH" id="5rrFAeHUq4P" role="3cqZAp" />
        <node concept="3clFbF" id="5o9jvTM9GZY" role="3cqZAp">
          <node concept="2OqwBi" id="5o9jvTM9GZV" role="3clFbG">
            <node concept="13iAh5" id="5o9jvTM9GZW" role="2Oq$k0">
              <ref role="3eA5LN" to="tpck:3fifI_xCcJN" resolve="ScopeProvider" />
            </node>
            <node concept="2qgKlT" id="5o9jvTM9GZX" role="2OqNvi">
              <ref role="37wK5l" to="tpcu:3fifI_xCJOQ" resolve="getScope" />
              <node concept="37vLTw" id="5o9jvTM9GZT" role="37wK5m">
                <ref role="3cqZAo" node="5o9jvTM9GZO" resolve="kind" />
              </node>
              <node concept="37vLTw" id="5o9jvTM9GZU" role="37wK5m">
                <ref role="3cqZAo" node="5o9jvTM9GZQ" resolve="child" />
              </node>
            </node>
          </node>
        </node>
      </node>
      <node concept="37vLTG" id="5o9jvTM9GZO" role="3clF46">
        <property role="TrG5h" value="kind" />
        <node concept="3THzug" id="5o9jvTM9GZP" role="1tU5fm" />
      </node>
      <node concept="37vLTG" id="5o9jvTM9GZQ" role="3clF46">
        <property role="TrG5h" value="child" />
        <node concept="3Tqbb2" id="5o9jvTM9GZR" role="1tU5fm" />
      </node>
      <node concept="3uibUv" id="5o9jvTM9GZS" role="3clF45">
        <ref role="3uigEE" to="o8zo:3fifI_xCtN$" resolve="Scope" />
      </node>
    </node>
    <node concept="13hLZK" id="5o9jvTM96RU" role="13h7CW">
      <node concept="3clFbS" id="5o9jvTM96RV" role="2VODD2" />
    </node>
    <node concept="13i0hz" id="5o9jvTM96RW" role="13h7CS">
      <property role="13i0iv" value="false" />
      <property role="TrG5h" value="getExternalVariableDeclarations" />
      <property role="13i0it" value="false" />
      <node concept="3Tm6S6" id="5o9jvTM9FOU" role="1B3o_S" />
      <node concept="3clFbS" id="5o9jvTM96S6" role="3clF47">
        <node concept="3cpWs8" id="5o9jvTM9c9u" role="3cqZAp">
          <node concept="3cpWsn" id="5o9jvTM9c9v" role="3cpWs9">
            <property role="TrG5h" value="result" />
            <node concept="2I9FWS" id="5o9jvTM9c9w" role="1tU5fm">
              <ref role="2I9WkF" to="c9eo:5l83jlMhBWg" resolve="VariableDeclaration" />
            </node>
            <node concept="2ShNRf" id="5o9jvTM9c9x" role="33vP2m">
              <node concept="2T8Vx0" id="5o9jvTM9c9y" role="2ShVmc">
                <node concept="2I9FWS" id="5o9jvTM9c9z" role="2T96Bj">
                  <ref role="2I9WkF" to="c9eo:5l83jlMhBWg" resolve="VariableDeclaration" />
                </node>
              </node>
            </node>
          </node>
        </node>
        <node concept="1DcWWT" id="5o9jvTM97XU" role="3cqZAp">
          <node concept="3clFbS" id="5o9jvTM97Y2" role="2LFqv$">
            <node concept="3clFbF" id="5o9jvTM9dh1" role="3cqZAp">
              <node concept="2OqwBi" id="5o9jvTM9eav" role="3clFbG">
                <node concept="37vLTw" id="5o9jvTM9dgZ" role="2Oq$k0">
                  <ref role="3cqZAo" node="5o9jvTM9c9v" resolve="result" />
                </node>
                <node concept="TSZUe" id="5o9jvTM9qyr" role="2OqNvi">
                  <node concept="2OqwBi" id="5o9jvTM9qXz" role="25WWJ7">
                    <node concept="37vLTw" id="5o9jvTM9qJI" role="2Oq$k0">
                      <ref role="3cqZAo" node="5o9jvTM97Y3" resolve="external" />
                    </node>
                    <node concept="3TrEf2" id="5o9jvTM9rh$" role="2OqNvi">
                      <ref role="3Tt5mk" to="c3oy:6fgLCPsBUlc" />
                    </node>
                  </node>
                </node>
              </node>
            </node>
          </node>
          <node concept="3cpWsn" id="5o9jvTM97Y3" role="1Duv9x">
            <property role="TrG5h" value="external" />
            <node concept="3Tqbb2" id="5o9jvTM985x" role="1tU5fm">
              <ref role="ehGHo" to="c3oy:7eZWuAL6RNp" resolve="External" />
            </node>
          </node>
          <node concept="2OqwBi" id="5o9jvTM98ze" role="1DdaDG">
            <node concept="13iPFW" id="5o9jvTM98u7" role="2Oq$k0" />
            <node concept="3Tsc0h" id="5o9jvTM98Pm" role="2OqNvi">
              <ref role="3TtcxE" to="c3oy:7eZWuAL6RPP" />
            </node>
          </node>
        </node>
        <node concept="3clFbF" id="5o9jvTM9sQg" role="3cqZAp">
          <node concept="37vLTw" id="5o9jvTM9sQe" role="3clFbG">
            <ref role="3cqZAo" node="5o9jvTM9c9v" resolve="result" />
          </node>
        </node>
      </node>
      <node concept="37vLTG" id="5o9jvTM96S9" role="3clF46">
        <property role="TrG5h" value="child" />
        <node concept="3Tqbb2" id="5o9jvTM96Sa" role="1tU5fm" />
      </node>
      <node concept="2I9FWS" id="5o9jvTM9tY5" role="3clF45">
        <ref role="2I9WkF" to="c9eo:5l83jlMhBWg" resolve="VariableDeclaration" />
      </node>
    </node>
    <node concept="13i0hz" id="3z8Mov8a6qr" role="13h7CS">
      <property role="TrG5h" value="getPhaseOutputVariableDeclarations" />
      <node concept="3Tm6S6" id="3z8Mov8ae_$" role="1B3o_S" />
      <node concept="3clFbS" id="3z8Mov8a6qt" role="3clF47">
        <node concept="3SKdUt" id="3z8Mov8c8LT" role="3cqZAp">
          <node concept="3SKdUq" id="3z8Mov8c9$z" role="3SKWNk">
            <property role="3SKdUp" value="find parent phase of `child`" />
          </node>
        </node>
        <node concept="3cpWs8" id="5rrFAeHURms" role="3cqZAp">
          <node concept="3cpWsn" id="5rrFAeHURmv" role="3cpWs9">
            <property role="TrG5h" value="result" />
            <node concept="2I9FWS" id="5rrFAeHURmq" role="1tU5fm">
              <ref role="2I9WkF" to="c3oy:5o9jvTMaoHN" resolve="PhaseOutputDeclaration" />
            </node>
            <node concept="2ShNRf" id="5rrFAeHUW0I" role="33vP2m">
              <node concept="2T8Vx0" id="5rrFAeHV0Wk" role="2ShVmc">
                <node concept="2I9FWS" id="5rrFAeHV0Wm" role="2T96Bj">
                  <ref role="2I9WkF" to="c3oy:5o9jvTMaoHN" resolve="PhaseOutputDeclaration" />
                </node>
              </node>
            </node>
          </node>
        </node>
        <node concept="1DcWWT" id="5rrFAeHUMI9" role="3cqZAp">
          <node concept="3clFbS" id="5rrFAeHUMIb" role="2LFqv$">
            <node concept="3clFbJ" id="3z8Mov8cibz" role="3cqZAp">
              <node concept="3clFbS" id="3z8Mov8cib_" role="3clFbx">
                <node concept="3zACq4" id="3z8Mov8cieN" role="3cqZAp" />
              </node>
              <node concept="3clFbC" id="3z8Mov8cidH" role="3clFbw">
                <node concept="37vLTw" id="3z8Mov8cie0" role="3uHU7w">
                  <ref role="3cqZAo" node="5rrFAeHUMIc" resolve="phase" />
                </node>
                <node concept="37vLTw" id="3z8Mov8cic4" role="3uHU7B">
                  <ref role="3cqZAo" node="3z8Mov8c6UN" resolve="child" />
                </node>
              </node>
            </node>
            <node concept="1DcWWT" id="5rrFAeHUOKv" role="3cqZAp">
              <node concept="3clFbS" id="5rrFAeHUOKx" role="2LFqv$">
                <node concept="3clFbF" id="5rrFAeHUSb7" role="3cqZAp">
                  <node concept="2OqwBi" id="5rrFAeHUSBW" role="3clFbG">
                    <node concept="37vLTw" id="5rrFAeHUSb5" role="2Oq$k0">
                      <ref role="3cqZAo" node="5rrFAeHURmv" resolve="result" />
                    </node>
                    <node concept="TSZUe" id="5rrFAeHUVHe" role="2OqNvi">
                      <node concept="37vLTw" id="5rrFAeHUVLT" role="25WWJ7">
                        <ref role="3cqZAo" node="5rrFAeHUOKy" resolve="outDecl" />
                      </node>
                    </node>
                  </node>
                </node>
              </node>
              <node concept="3cpWsn" id="5rrFAeHUOKy" role="1Duv9x">
                <property role="TrG5h" value="outDecl" />
                <node concept="3Tqbb2" id="5rrFAeHUOQP" role="1tU5fm">
                  <ref role="ehGHo" to="c3oy:5o9jvTMaoHN" resolve="PhaseOutputDeclaration" />
                </node>
              </node>
              <node concept="2OqwBi" id="5rrFAeHUPeG" role="1DdaDG">
                <node concept="37vLTw" id="5rrFAeHUP9Q" role="2Oq$k0">
                  <ref role="3cqZAo" node="5rrFAeHUMIc" resolve="phase" />
                </node>
                <node concept="3Tsc0h" id="5rrFAeHUPyX" role="2OqNvi">
                  <ref role="3TtcxE" to="c3oy:5o9jvTMaq6I" />
                </node>
              </node>
            </node>
          </node>
          <node concept="3cpWsn" id="5rrFAeHUMIc" role="1Duv9x">
            <property role="TrG5h" value="phase" />
            <node concept="3Tqbb2" id="5rrFAeHUMSh" role="1tU5fm">
              <ref role="ehGHo" to="c3oy:5l83jlMf16T" resolve="Phase" />
            </node>
          </node>
          <node concept="2OqwBi" id="5rrFAeHUNf8" role="1DdaDG">
            <node concept="13iPFW" id="5rrFAeHUNah" role="2Oq$k0" />
            <node concept="3Tsc0h" id="5rrFAeHUNwq" role="2OqNvi">
              <ref role="3TtcxE" to="c3oy:5l83jlMf9j5" />
            </node>
          </node>
        </node>
        <node concept="3cpWs6" id="3z8Mov8acm2" role="3cqZAp">
          <node concept="37vLTw" id="3z8Mov8adMH" role="3cqZAk">
            <ref role="3cqZAo" node="5rrFAeHURmv" resolve="result" />
          </node>
        </node>
      </node>
      <node concept="2I9FWS" id="3z8Mov8a7Ky" role="3clF45">
        <ref role="2I9WkF" to="c3oy:5o9jvTMaoHN" resolve="PhaseOutputDeclaration" />
      </node>
      <node concept="37vLTG" id="3z8Mov8c6UN" role="3clF46">
        <property role="TrG5h" value="child" />
        <node concept="3Tqbb2" id="3z8Mov8c6UM" role="1tU5fm" />
      </node>
    </node>
    <node concept="13i0hz" id="7GORU49qiwE" role="13h7CS">
      <property role="13i0iv" value="false" />
      <property role="13i0it" value="false" />
      <property role="TrG5h" value="getGlobalVariableDeclarations" />
      <ref role="13i0hy" to="z32s:7GORU49pRR3" resolve="getGlobalVariableDeclarations" />
      <node concept="3Tm1VV" id="7GORU49qiwF" role="1B3o_S" />
      <node concept="3clFbS" id="7GORU49qiwI" role="3clF47">
        <node concept="3cpWs8" id="7GORU49qrMZ" role="3cqZAp">
          <node concept="3cpWsn" id="7GORU49qrN2" role="3cpWs9">
            <property role="TrG5h" value="result" />
            <node concept="2I9FWS" id="7GORU49qrMY" role="1tU5fm">
              <ref role="2I9WkF" to="tpee:4H$HgYMZ7sw" resolve="IVariableDeclaration" />
            </node>
            <node concept="2ShNRf" id="7GORU49qrNq" role="33vP2m">
              <node concept="2T8Vx0" id="7GORU49qseh" role="2ShVmc">
                <node concept="2I9FWS" id="7GORU49qsej" role="2T96Bj">
                  <ref role="2I9WkF" to="c9eo:5l83jlMhBWg" resolve="VariableDeclaration" />
                </node>
              </node>
            </node>
          </node>
        </node>
        <node concept="1DcWWT" id="7GORU49qt9K" role="3cqZAp">
          <node concept="3clFbS" id="7GORU49qt9M" role="2LFqv$">
            <node concept="3clFbF" id="7GORU49quIb" role="3cqZAp">
              <node concept="2OqwBi" id="7GORU49qvyC" role="3clFbG">
                <node concept="37vLTw" id="7GORU49quI9" role="2Oq$k0">
                  <ref role="3cqZAo" node="7GORU49qrN2" resolve="result" />
                </node>
                <node concept="X8dFx" id="7GORU49qCPV" role="2OqNvi">
                  <node concept="2OqwBi" id="7GORU49qGMn" role="25WWJ7">
                    <node concept="37vLTw" id="7GORU49qF9G" role="2Oq$k0">
                      <ref role="3cqZAo" node="7GORU49qt9N" resolve="phase" />
                    </node>
                    <node concept="2qgKlT" id="7GORU49qIpk" role="2OqNvi">
                      <ref role="37wK5l" to="z32s:7GORU49pRR3" resolve="getGlobalVariableDeclarations" />
                    </node>
                  </node>
                </node>
              </node>
            </node>
          </node>
          <node concept="3cpWsn" id="7GORU49qt9N" role="1Duv9x">
            <property role="TrG5h" value="phase" />
            <node concept="3Tqbb2" id="7GORU49qtgq" role="1tU5fm">
              <ref role="ehGHo" to="c3oy:5l83jlMf16T" resolve="Phase" />
            </node>
          </node>
          <node concept="2OqwBi" id="7GORU49qtBT" role="1DdaDG">
            <node concept="13iPFW" id="7GORU49qtyh" role="2Oq$k0" />
            <node concept="3Tsc0h" id="7GORU49qtUS" role="2OqNvi">
              <ref role="3TtcxE" to="c3oy:5l83jlMf9j5" />
            </node>
          </node>
        </node>
        <node concept="3cpWs6" id="7GORU49qskS" role="3cqZAp">
          <node concept="2OqwBi" id="4byABwACLAO" role="3cqZAk">
            <node concept="2OqwBi" id="4byABwACzIu" role="2Oq$k0">
              <node concept="37vLTw" id="7GORU49qslh" role="2Oq$k0">
                <ref role="3cqZAo" node="7GORU49qrN2" resolve="result" />
              </node>
              <node concept="1VAtEI" id="4byABwACGse" role="2OqNvi" />
            </node>
            <node concept="ANE8D" id="4byABwACOiC" role="2OqNvi" />
          </node>
        </node>
      </node>
      <node concept="2I9FWS" id="7GORU49qiwJ" role="3clF45">
        <ref role="2I9WkF" to="tpee:4H$HgYMZ7sw" resolve="IVariableDeclaration" />
      </node>
    </node>
  </node>
  <node concept="312cEu" id="6en_lsotT37">
    <property role="TrG5h" value="RHSUtil" />
    <node concept="2tJIrI" id="6en_lsotWKk" role="jymVt" />
    <node concept="Wx3nA" id="6en_lsotT7P" role="jymVt">
      <property role="2dlcS1" value="false" />
      <property role="2dld4O" value="false" />
      <property role="TrG5h" value="map" />
      <property role="3TUv4t" value="false" />
      <property role="IEkAT" value="false" />
      <node concept="3rvAFt" id="6en_lsotT7H" role="1tU5fm">
        <node concept="3uibUv" id="6en_lsotT8j" role="3rvSg0">
          <ref role="3uigEE" node="6en_lsotT37" resolve="RHSUtil" />
        </node>
        <node concept="3Tqbb2" id="6en_lsotT86" role="3rvQeY" />
      </node>
    </node>
    <node concept="1Pe0a1" id="6en_lsotWlm" role="jymVt">
      <node concept="3clFbS" id="6en_lsotWln" role="1Pe0a2">
        <node concept="3clFbF" id="6en_lsotWoN" role="3cqZAp">
          <node concept="37vLTI" id="6en_lsotW$n" role="3clFbG">
            <node concept="2ShNRf" id="6en_lsotWAa" role="37vLTx">
              <node concept="3rGOSV" id="6en_lsotWA1" role="2ShVmc">
                <node concept="3Tqbb2" id="6en_lsotWA2" role="3rHrn6" />
                <node concept="3uibUv" id="6en_lsotWA3" role="3rHtpV">
                  <ref role="3uigEE" node="6en_lsotT37" resolve="RHSUtil" />
                </node>
              </node>
            </node>
            <node concept="37vLTw" id="6en_lsotWoM" role="37vLTJ">
              <ref role="3cqZAo" node="6en_lsotT7P" resolve="map" />
            </node>
          </node>
        </node>
      </node>
    </node>
    <node concept="2tJIrI" id="6en_lsotT8$" role="jymVt" />
    <node concept="2tJIrI" id="6en_lsotX72" role="jymVt" />
    <node concept="3clFbW" id="6en_lsotT9_" role="jymVt">
      <node concept="3cqZAl" id="6en_lsotT9A" role="3clF45" />
      <node concept="3clFbS" id="6en_lsotT9C" role="3clF47" />
      <node concept="3Tm6S6" id="6en_lsotT9d" role="1B3o_S" />
    </node>
    <node concept="2tJIrI" id="6en_lsotT9Y" role="jymVt" />
    <node concept="2YIFZL" id="6en_lsotTb4" role="jymVt">
      <property role="TrG5h" value="getInstance" />
      <property role="od$2w" value="false" />
      <property role="DiZV1" value="false" />
      <property role="2aFKle" value="false" />
      <node concept="3clFbS" id="6en_lsotTb7" role="3clF47">
        <node concept="3clFbJ" id="6en_lsotTcm" role="3cqZAp">
          <node concept="3clFbS" id="6en_lsotTcn" role="3clFbx">
            <node concept="3clFbF" id="6en_lsotU4g" role="3cqZAp">
              <node concept="37vLTI" id="6en_lsotVCi" role="3clFbG">
                <node concept="2ShNRf" id="6en_lsotVH7" role="37vLTx">
                  <node concept="1pGfFk" id="6en_lsotVEX" role="2ShVmc">
                    <ref role="37wK5l" node="6en_lsotT9_" resolve="RHSUtil" />
                  </node>
                </node>
                <node concept="3EllGN" id="6en_lsotVAp" role="37vLTJ">
                  <node concept="37vLTw" id="6en_lsotVBi" role="3ElVtu">
                    <ref role="3cqZAo" node="6en_lsotTb_" resolve="root" />
                  </node>
                  <node concept="37vLTw" id="6en_lsotVqS" role="3ElQJh">
                    <ref role="3cqZAo" node="6en_lsotT7P" resolve="map" />
                  </node>
                </node>
              </node>
            </node>
          </node>
          <node concept="3fqX7Q" id="6en_lsotTcJ" role="3clFbw">
            <node concept="2OqwBi" id="6en_lsotTsB" role="3fr31v">
              <node concept="37vLTw" id="6en_lsotTdc" role="2Oq$k0">
                <ref role="3cqZAo" node="6en_lsotT7P" resolve="map" />
              </node>
              <node concept="2Nt0df" id="6en_lsotU24" role="2OqNvi">
                <node concept="37vLTw" id="6en_lsotU34" role="38cxEo">
                  <ref role="3cqZAo" node="6en_lsotTb_" resolve="root" />
                </node>
              </node>
            </node>
          </node>
        </node>
        <node concept="3cpWs6" id="6en_lsotVJ7" role="3cqZAp">
          <node concept="3EllGN" id="6en_lsotW1r" role="3cqZAk">
            <node concept="37vLTw" id="6en_lsotW33" role="3ElVtu">
              <ref role="3cqZAo" node="6en_lsotTb_" resolve="root" />
            </node>
            <node concept="37vLTw" id="6en_lsotVLc" role="3ElQJh">
              <ref role="3cqZAo" node="6en_lsotT7P" resolve="map" />
            </node>
          </node>
        </node>
      </node>
      <node concept="3Tm1VV" id="6en_lsotTax" role="1B3o_S" />
      <node concept="3uibUv" id="6en_lsotTaW" role="3clF45">
        <ref role="3uigEE" node="6en_lsotT37" resolve="RHSUtil" />
      </node>
      <node concept="37vLTG" id="6en_lsotTb_" role="3clF46">
        <property role="TrG5h" value="root" />
        <node concept="3Tqbb2" id="6en_lsotTb$" role="1tU5fm" />
      </node>
    </node>
    <node concept="3Tm1VV" id="6en_lsotT38" role="1B3o_S" />
  </node>
  <node concept="13h7C7" id="11U4SzQbgkt">
    <ref role="13h7C2" to="c9eo:5l83jlMhgCt" resolve="Statement" />
    <node concept="13i0hz" id="7yaypfBLgtR" role="13h7CS">
      <property role="TrG5h" value="containingPhase" />
      <node concept="3Tm1VV" id="7yaypfBLgtS" role="1B3o_S" />
      <node concept="3clFbS" id="7yaypfBLgtT" role="3clF47">
        <node concept="3cpWs8" id="7yaypfBLLgz" role="3cqZAp">
          <node concept="3cpWsn" id="7yaypfBLLgA" role="3cpWs9">
            <property role="TrG5h" value="parent" />
            <node concept="3Tqbb2" id="7yaypfBLLgy" role="1tU5fm" />
            <node concept="2OqwBi" id="7yaypfBLOAH" role="33vP2m">
              <node concept="13iPFW" id="7yaypfBLLgW" role="2Oq$k0" />
              <node concept="1mfA1w" id="7yaypfBLOJV" role="2OqNvi" />
            </node>
          </node>
        </node>
        <node concept="2$JKZl" id="7yaypfBLOMH" role="3cqZAp">
          <node concept="3clFbS" id="7yaypfBLOML" role="2LFqv$">
            <node concept="3clFbF" id="7yaypfBLP9B" role="3cqZAp">
              <node concept="37vLTI" id="7yaypfBLPap" role="3clFbG">
                <node concept="2OqwBi" id="7yaypfBLPbH" role="37vLTx">
                  <node concept="37vLTw" id="7yaypfBLPaR" role="2Oq$k0">
                    <ref role="3cqZAo" node="7yaypfBLLgA" resolve="parent" />
                  </node>
                  <node concept="1mfA1w" id="7yaypfBLPht" role="2OqNvi" />
                </node>
                <node concept="37vLTw" id="7yaypfBLP9A" role="37vLTJ">
                  <ref role="3cqZAo" node="7yaypfBLLgA" resolve="parent" />
                </node>
              </node>
            </node>
          </node>
          <node concept="3fqX7Q" id="7yaypfBLP8f" role="2$JKZa">
            <node concept="2OqwBi" id="7yaypfBLP8h" role="3fr31v">
              <node concept="37vLTw" id="7yaypfBLP8i" role="2Oq$k0">
                <ref role="3cqZAo" node="7yaypfBLLgA" resolve="parent" />
              </node>
              <node concept="1mIQ4w" id="7yaypfBLQrD" role="2OqNvi">
                <node concept="chp4Y" id="7yaypfBLQsk" role="cj9EA">
                  <ref role="cht4Q" to="c3oy:5l83jlMf16T" resolve="Phase" />
                </node>
              </node>
            </node>
          </node>
        </node>
        <node concept="3cpWs6" id="7yaypfBLPjT" role="3cqZAp">
          <node concept="1PxgMI" id="7yaypfBLQ2a" role="3cqZAk">
            <property role="1BlNFB" value="true" />
            <ref role="1PxNhF" to="c3oy:5l83jlMf16T" resolve="Phase" />
            <node concept="37vLTw" id="7yaypfBLPTz" role="1PxMeX">
              <ref role="3cqZAo" node="7yaypfBLLgA" resolve="parent" />
            </node>
          </node>
        </node>
      </node>
      <node concept="3Tqbb2" id="7yaypfBLAxN" role="3clF45">
        <ref role="ehGHo" to="c3oy:5l83jlMf16T" resolve="Phase" />
      </node>
    </node>
    <node concept="13hLZK" id="11U4SzQbgku" role="13h7CW">
      <node concept="3clFbS" id="11U4SzQbgkv" role="2VODD2" />
    </node>
  </node>
</model>

