<?xml version="1.0" encoding="UTF-8"?>
<model ref="r:9fa2a636-f8ea-41f2-adc8-e333346e6cd8(de.ppme.modules.editor)">
  <persistence version="9" />
  <languages>
    <use id="18bc6592-03a6-4e29-a83a-7ff23bde13ba" name="jetbrains.mps.lang.editor" version="-1" />
    <devkit ref="fbc25dd2-5da4-483a-8b19-70928e1b62d7(jetbrains.mps.devkit.general-purpose)" />
  </languages>
  <imports>
    <import index="tpch" ref="r:00000000-0000-4000-0000-011c8959028d(jetbrains.mps.lang.structure.editor)" />
    <import index="pfd6" ref="r:9e939139-f0d1-4eb5-9ac6-55348163d9b2(de.ppme.expressions.structure)" />
    <import index="tpco" ref="r:00000000-0000-4000-0000-011c89590284(jetbrains.mps.lang.core.editor)" />
    <import index="c3oy" ref="r:8a0fa9ef-3e8e-4313-a85b-46b3640418fd(de.ppme.modules.structure)" />
    <import index="2gyk" ref="r:be57a480-399b-470c-860e-bdfcf98e0b2c(de.ppme.core.structure)" />
    <import index="c9eo" ref="r:493484be-3d66-4fd8-b261-ed47cd8c6981(de.ppme.statements.structure)" />
    <import index="tpen" ref="r:00000000-0000-4000-0000-011c895902c3(jetbrains.mps.baseLanguage.editor)" />
    <import index="tpck" ref="r:00000000-0000-4000-0000-011c89590288(jetbrains.mps.lang.core.structure)" implicit="true" />
  </imports>
  <registry>
    <language id="18bc6592-03a6-4e29-a83a-7ff23bde13ba" name="jetbrains.mps.lang.editor">
      <concept id="1071666914219" name="jetbrains.mps.lang.editor.structure.ConceptEditorDeclaration" flags="ig" index="24kQdi" />
      <concept id="1140524381322" name="jetbrains.mps.lang.editor.structure.CellModel_ListWithRole" flags="ng" index="2czfm3">
        <property id="1140524450555" name="gridLayout" index="2czwfM" />
        <property id="1140524450554" name="vertical" index="2czwfN" />
        <property id="1160590307797" name="usesFolding" index="S$F3r" />
        <child id="1140524464360" name="cellLayout" index="2czzBx" />
        <child id="1140524464359" name="emptyCellModel" index="2czzBI" />
      </concept>
      <concept id="1106270549637" name="jetbrains.mps.lang.editor.structure.CellLayout_Horizontal" flags="nn" index="2iRfu4" />
      <concept id="1106270571710" name="jetbrains.mps.lang.editor.structure.CellLayout_Vertical" flags="nn" index="2iRkQZ" />
      <concept id="1237303669825" name="jetbrains.mps.lang.editor.structure.CellLayout_Indent" flags="nn" index="l2Vlx" />
      <concept id="1237307900041" name="jetbrains.mps.lang.editor.structure.IndentLayoutIndentStyleClassItem" flags="ln" index="lj46D" />
      <concept id="1237308012275" name="jetbrains.mps.lang.editor.structure.IndentLayoutNewLineStyleClassItem" flags="ln" index="ljvvj" />
      <concept id="1237375020029" name="jetbrains.mps.lang.editor.structure.IndentLayoutNewLineChildrenStyleClassItem" flags="ln" index="pj6Ft" />
      <concept id="1142886221719" name="jetbrains.mps.lang.editor.structure.QueryFunction_NodeCondition" flags="in" index="pkWqt" />
      <concept id="1142886811589" name="jetbrains.mps.lang.editor.structure.ConceptFunctionParameter_node" flags="nn" index="pncrf" />
      <concept id="1237385578942" name="jetbrains.mps.lang.editor.structure.IndentLayoutOnNewLineStyleClassItem" flags="ln" index="pVoyu" />
      <concept id="1080736578640" name="jetbrains.mps.lang.editor.structure.BaseEditorComponent" flags="ig" index="2wURMF">
        <child id="1080736633877" name="cellModel" index="2wV5jI" />
      </concept>
      <concept id="1239814640496" name="jetbrains.mps.lang.editor.structure.CellLayout_VerticalGrid" flags="nn" index="2EHx9g" />
      <concept id="1164824717996" name="jetbrains.mps.lang.editor.structure.CellMenuDescriptor" flags="ng" index="OXEIz">
        <child id="1164824815888" name="cellMenuPart" index="OY2wv" />
      </concept>
      <concept id="1078939183254" name="jetbrains.mps.lang.editor.structure.CellModel_Component" flags="sg" stub="3162947552742194261" index="PMmxH">
        <reference id="1078939183255" name="editorComponent" index="PMmxG" />
      </concept>
      <concept id="4323500428121233431" name="jetbrains.mps.lang.editor.structure.EditorCellId" flags="ng" index="2SqB2G" />
      <concept id="1186403694788" name="jetbrains.mps.lang.editor.structure.ColorStyleClassItem" flags="ln" index="VaVBg">
        <property id="1186403713874" name="color" index="Vb096" />
      </concept>
      <concept id="1186403751766" name="jetbrains.mps.lang.editor.structure.FontStyleStyleClassItem" flags="ln" index="Vb9p2">
        <property id="1186403771423" name="style" index="Vbekb" />
      </concept>
      <concept id="1186404549998" name="jetbrains.mps.lang.editor.structure.ForegroundColorStyleClassItem" flags="ln" index="VechU" />
      <concept id="1186414536763" name="jetbrains.mps.lang.editor.structure.BooleanStyleSheetItem" flags="ln" index="VOi$J">
        <property id="1186414551515" name="flag" index="VOm3f" />
      </concept>
      <concept id="1186414860679" name="jetbrains.mps.lang.editor.structure.EditableStyleClassItem" flags="ln" index="VPxyj" />
      <concept id="1186414928363" name="jetbrains.mps.lang.editor.structure.SelectableStyleSheetItem" flags="ln" index="VPM3Z" />
      <concept id="1088013125922" name="jetbrains.mps.lang.editor.structure.CellModel_RefCell" flags="sg" stub="730538219795941030" index="1iCGBv">
        <child id="1088186146602" name="editorComponent" index="1sWHZn" />
      </concept>
      <concept id="1381004262292414836" name="jetbrains.mps.lang.editor.structure.ICellStyle" flags="ng" index="1k5N5V">
        <reference id="1381004262292426837" name="parentStyleClass" index="1k5W1q" />
      </concept>
      <concept id="1088185857835" name="jetbrains.mps.lang.editor.structure.InlineEditorComponent" flags="ig" index="1sVBvm" />
      <concept id="1139848536355" name="jetbrains.mps.lang.editor.structure.CellModel_WithRole" flags="ng" index="1$h60E">
        <property id="1140017977771" name="readOnly" index="1Intyy" />
        <reference id="1140103550593" name="relationDeclaration" index="1NtTu8" />
      </concept>
      <concept id="1073389214265" name="jetbrains.mps.lang.editor.structure.EditorCellModel" flags="ng" index="3EYTF0">
        <child id="1142887637401" name="renderingCondition" index="pqm2j" />
        <child id="1164826688380" name="menuDescriptor" index="P5bDN" />
        <child id="4323500428121274054" name="id" index="2SqHTX" />
      </concept>
      <concept id="1073389446423" name="jetbrains.mps.lang.editor.structure.CellModel_Collection" flags="sn" stub="3013115976261988961" index="3EZMnI">
        <child id="1106270802874" name="cellLayout" index="2iSdaV" />
        <child id="1073389446424" name="childCellModel" index="3EZMnx" />
      </concept>
      <concept id="1073389577006" name="jetbrains.mps.lang.editor.structure.CellModel_Constant" flags="sn" stub="3610246225209162225" index="3F0ifn">
        <property id="1082639509531" name="nullText" index="ilYzB" />
        <property id="1073389577007" name="text" index="3F0ifm" />
      </concept>
      <concept id="1073389658414" name="jetbrains.mps.lang.editor.structure.CellModel_Property" flags="sg" stub="730538219796134133" index="3F0A7n" />
      <concept id="1219418625346" name="jetbrains.mps.lang.editor.structure.IStyleContainer" flags="ng" index="3F0Thp">
        <child id="1219418656006" name="styleItem" index="3F10Kt" />
      </concept>
      <concept id="1073389882823" name="jetbrains.mps.lang.editor.structure.CellModel_RefNode" flags="sg" stub="730538219795960754" index="3F1sOY" />
      <concept id="1073390211982" name="jetbrains.mps.lang.editor.structure.CellModel_RefNodeList" flags="sg" stub="2794558372793454595" index="3F2HdR" />
      <concept id="1225898583838" name="jetbrains.mps.lang.editor.structure.ReadOnlyModelAccessor" flags="ng" index="1HfYo3">
        <child id="1225898971709" name="getter" index="1Hhtcw" />
      </concept>
      <concept id="1225900081164" name="jetbrains.mps.lang.editor.structure.CellModel_ReadOnlyModelAccessor" flags="sg" stub="3708815482283559694" index="1HlG4h">
        <child id="1225900141900" name="modelAccessor" index="1HlULh" />
      </concept>
      <concept id="8233876857994246075" name="jetbrains.mps.lang.editor.structure.CellMenuPart_ApplySideTransforms" flags="ng" index="3JiINr">
        <property id="870577895075788418" name="tag" index="2_m5XT" />
      </concept>
      <concept id="1088612959204" name="jetbrains.mps.lang.editor.structure.CellModel_Alternation" flags="sg" stub="8104358048506729361" index="1QoScp">
        <property id="1088613081987" name="vertical" index="1QpmdY" />
        <child id="1145918517974" name="alternationCondition" index="3e4ffs" />
        <child id="1088612958265" name="ifTrueCellModel" index="1QoS34" />
        <child id="1088612973955" name="ifFalseCellModel" index="1QoVPY" />
      </concept>
      <concept id="1176717841777" name="jetbrains.mps.lang.editor.structure.QueryFunction_ModelAccess_Getter" flags="in" index="3TQlhw" />
      <concept id="1198256887712" name="jetbrains.mps.lang.editor.structure.CellModel_Indent" flags="ng" index="3XFhqQ" />
      <concept id="1166049232041" name="jetbrains.mps.lang.editor.structure.AbstractComponent" flags="ng" index="1XWOmA">
        <reference id="1166049300910" name="conceptDeclaration" index="1XX52x" />
      </concept>
    </language>
    <language id="f3061a53-9226-4cc5-a443-f952ceaf5816" name="jetbrains.mps.baseLanguage">
      <concept id="1197027756228" name="jetbrains.mps.baseLanguage.structure.DotExpression" flags="nn" index="2OqwBi">
        <child id="1197027771414" name="operand" index="2Oq$k0" />
        <child id="1197027833540" name="operation" index="2OqNvi" />
      </concept>
      <concept id="1137021947720" name="jetbrains.mps.baseLanguage.structure.ConceptFunction" flags="in" index="2VMwT0">
        <child id="1137022507850" name="body" index="2VODD2" />
      </concept>
      <concept id="1225271408483" name="jetbrains.mps.baseLanguage.structure.IsNotEmptyOperation" flags="nn" index="17RvpY" />
      <concept id="1068580123155" name="jetbrains.mps.baseLanguage.structure.ExpressionStatement" flags="nn" index="3clFbF">
        <child id="1068580123156" name="expression" index="3clFbG" />
      </concept>
      <concept id="1068580123136" name="jetbrains.mps.baseLanguage.structure.StatementList" flags="sn" stub="5293379017992965193" index="3clFbS">
        <child id="1068581517665" name="statement" index="3cqZAp" />
      </concept>
      <concept id="1081773326031" name="jetbrains.mps.baseLanguage.structure.BinaryOperation" flags="nn" index="3uHJSO">
        <child id="1081773367579" name="rightExpression" index="3uHU7w" />
        <child id="1081773367580" name="leftExpression" index="3uHU7B" />
      </concept>
      <concept id="1080120340718" name="jetbrains.mps.baseLanguage.structure.AndExpression" flags="nn" index="1Wc70l" />
    </language>
    <language id="7866978e-a0f0-4cc7-81bc-4d213d9375e1" name="jetbrains.mps.lang.smodel">
      <concept id="1177026924588" name="jetbrains.mps.lang.smodel.structure.RefConcept_Reference" flags="nn" index="chp4Y">
        <reference id="1177026940964" name="conceptDeclaration" index="cht4Q" />
      </concept>
      <concept id="1139621453865" name="jetbrains.mps.lang.smodel.structure.Node_IsInstanceOfOperation" flags="nn" index="1mIQ4w">
        <child id="1177027386292" name="conceptArgument" index="cj9EA" />
      </concept>
      <concept id="1172008320231" name="jetbrains.mps.lang.smodel.structure.Node_IsNotNullOperation" flags="nn" index="3x8VRR" />
      <concept id="1140137987495" name="jetbrains.mps.lang.smodel.structure.SNodeTypeCastExpression" flags="nn" index="1PxgMI">
        <reference id="1140138128738" name="concept" index="1PxNhF" />
        <child id="1140138123956" name="leftExpression" index="1PxMeX" />
      </concept>
      <concept id="1138056022639" name="jetbrains.mps.lang.smodel.structure.SPropertyAccess" flags="nn" index="3TrcHB">
        <reference id="1138056395725" name="property" index="3TsBF5" />
      </concept>
      <concept id="1138056143562" name="jetbrains.mps.lang.smodel.structure.SLinkAccess" flags="nn" index="3TrEf2">
        <reference id="1138056516764" name="link" index="3Tt5mk" />
      </concept>
    </language>
    <language id="ceab5195-25ea-4f22-9b92-103b95ca8c0c" name="jetbrains.mps.lang.core">
      <concept id="1133920641626" name="jetbrains.mps.lang.core.structure.BaseConcept" flags="ng" index="2VYdi">
        <property id="1193676396447" name="virtualPackage" index="3GE5qa" />
      </concept>
      <concept id="1169194658468" name="jetbrains.mps.lang.core.structure.INamedConcept" flags="ng" index="TrEIO">
        <property id="1169194664001" name="name" index="TrG5h" />
      </concept>
    </language>
  </registry>
  <node concept="24kQdi" id="7eZWuAL6RLK">
    <property role="3GE5qa" value="module" />
    <ref role="1XX52x" to="c3oy:7eZWuAL6NSF" resolve="Import" />
    <node concept="3EZMnI" id="7eZWuAL6RLM" role="2wV5jI">
      <node concept="PMmxH" id="7eZWuAL6RNq" role="3EZMnx">
        <ref role="PMmxG" to="tpco:2wZex4PafBj" resolve="alias" />
        <ref role="1k5W1q" to="tpch:24YP6ZDyde4" resolve="Keyword" />
      </node>
      <node concept="1iCGBv" id="7eZWuAL6RM5" role="3EZMnx">
        <ref role="1NtTu8" to="c3oy:7eZWuAL6RLq" />
        <node concept="1sVBvm" id="7eZWuAL6RM7" role="1sWHZn">
          <node concept="3F0A7n" id="7eZWuAL6RMj" role="2wV5jI">
            <property role="1Intyy" value="true" />
            <ref role="1NtTu8" to="tpck:h0TrG11" resolve="name" />
          </node>
        </node>
      </node>
      <node concept="3EZMnI" id="6fgLCPsDJ0T" role="3EZMnx">
        <node concept="VPM3Z" id="6fgLCPsDJ0V" role="3F10Kt">
          <property role="VOm3f" value="false" />
        </node>
        <node concept="3F0ifn" id="6fgLCPsDJd4" role="3EZMnx">
          <property role="3F0ifm" value="from" />
          <node concept="VPM3Z" id="6fgLCPsDPg0" role="3F10Kt">
            <property role="VOm3f" value="false" />
          </node>
          <node concept="VechU" id="6fgLCPsDTM4" role="3F10Kt">
            <property role="Vb096" value="lightGray" />
          </node>
        </node>
        <node concept="1HlG4h" id="6fgLCPsDlNU" role="3EZMnx">
          <node concept="1HfYo3" id="6fgLCPsDlNW" role="1HlULh">
            <node concept="3TQlhw" id="6fgLCPsDlNY" role="1Hhtcw">
              <node concept="3clFbS" id="6fgLCPsDlO0" role="2VODD2">
                <node concept="3clFbF" id="6fgLCPsDo4Y" role="3cqZAp">
                  <node concept="2OqwBi" id="6fgLCPsDCEs" role="3clFbG">
                    <node concept="2OqwBi" id="6fgLCPsDo8Y" role="2Oq$k0">
                      <node concept="pncrf" id="6fgLCPsDo4X" role="2Oq$k0" />
                      <node concept="3TrEf2" id="6fgLCPsDChi" role="2OqNvi">
                        <ref role="3Tt5mk" to="c3oy:7eZWuAL6RLq" />
                      </node>
                    </node>
                    <node concept="3TrcHB" id="6fgLCPsDD0Z" role="2OqNvi">
                      <ref role="3TsBF5" to="tpck:hnGE5uv" resolve="virtualPackage" />
                    </node>
                  </node>
                </node>
              </node>
            </node>
          </node>
          <node concept="VPxyj" id="6fgLCPsDOTE" role="3F10Kt">
            <property role="VOm3f" value="false" />
          </node>
          <node concept="VPM3Z" id="6fgLCPsDP6N" role="3F10Kt">
            <property role="VOm3f" value="false" />
          </node>
          <node concept="VechU" id="6fgLCPsDTWL" role="3F10Kt">
            <property role="Vb096" value="lightGray" />
          </node>
        </node>
        <node concept="l2Vlx" id="6fgLCPsDJ0Y" role="2iSdaV" />
        <node concept="pkWqt" id="6fgLCPsDlTg" role="pqm2j">
          <node concept="3clFbS" id="6fgLCPsDlTh" role="2VODD2">
            <node concept="3clFbF" id="6fgLCPsD_z$" role="3cqZAp">
              <node concept="2OqwBi" id="6fgLCPsDAPy" role="3clFbG">
                <node concept="2OqwBi" id="6fgLCPsDAa7" role="2Oq$k0">
                  <node concept="2OqwBi" id="6fgLCPsD_Bx" role="2Oq$k0">
                    <node concept="pncrf" id="6fgLCPsD_zy" role="2Oq$k0" />
                    <node concept="3TrEf2" id="6fgLCPsD_XG" role="2OqNvi">
                      <ref role="3Tt5mk" to="c3oy:7eZWuAL6RLq" />
                    </node>
                  </node>
                  <node concept="3TrcHB" id="6fgLCPsDAw0" role="2OqNvi">
                    <ref role="3TsBF5" to="tpck:hnGE5uv" resolve="virtualPackage" />
                  </node>
                </node>
                <node concept="17RvpY" id="6fgLCPsDBMq" role="2OqNvi" />
              </node>
            </node>
          </node>
        </node>
      </node>
      <node concept="3EZMnI" id="dGdbRZiBAl" role="3EZMnx">
        <node concept="VPM3Z" id="dGdbRZiBAn" role="3F10Kt">
          <property role="VOm3f" value="false" />
        </node>
        <node concept="3F0ifn" id="dGdbRZiBM3" role="3EZMnx">
          <property role="3F0ifm" value="as" />
        </node>
        <node concept="3F1sOY" id="dGdbRZiK4y" role="3EZMnx">
          <ref role="1NtTu8" to="c3oy:dGdbRZiBfa" />
        </node>
        <node concept="l2Vlx" id="dGdbRZiBAq" role="2iSdaV" />
        <node concept="pkWqt" id="dGdbRZiBOv" role="pqm2j">
          <node concept="3clFbS" id="dGdbRZiBOw" role="2VODD2">
            <node concept="3clFbF" id="dGdbRZiBTr" role="3cqZAp">
              <node concept="2OqwBi" id="dGdbRZiCve" role="3clFbG">
                <node concept="2OqwBi" id="dGdbRZiBXp" role="2Oq$k0">
                  <node concept="pncrf" id="dGdbRZiBTq" role="2Oq$k0" />
                  <node concept="3TrEf2" id="dGdbRZiCir" role="2OqNvi">
                    <ref role="3Tt5mk" to="c3oy:dGdbRZiBfa" />
                  </node>
                </node>
                <node concept="3x8VRR" id="dGdbRZiCKy" role="2OqNvi" />
              </node>
            </node>
          </node>
        </node>
      </node>
      <node concept="l2Vlx" id="7eZWuAL6RLP" role="2iSdaV" />
    </node>
  </node>
  <node concept="24kQdi" id="7eZWuAL6RO1">
    <property role="3GE5qa" value="module" />
    <ref role="1XX52x" to="c3oy:7eZWuAL6RNp" resolve="External" />
    <node concept="3EZMnI" id="1piarU9Fc16" role="2wV5jI">
      <node concept="PMmxH" id="1piarU9Fc1c" role="3EZMnx">
        <ref role="PMmxG" to="tpco:2wZex4PafBj" resolve="alias" />
      </node>
      <node concept="3F1sOY" id="6fgLCPsBUD4" role="3EZMnx">
        <ref role="1NtTu8" to="c3oy:6fgLCPsBUlc" />
      </node>
      <node concept="3EZMnI" id="6fgLCPsEyob" role="3EZMnx">
        <node concept="VPM3Z" id="6fgLCPsEyod" role="3F10Kt">
          <property role="VOm3f" value="false" />
        </node>
        <node concept="l2Vlx" id="6fgLCPsEyog" role="2iSdaV" />
        <node concept="3XFhqQ" id="6fgLCPsEyoD" role="3EZMnx" />
        <node concept="3F1sOY" id="6fgLCPsEyoU" role="3EZMnx">
          <ref role="1NtTu8" to="c3oy:6fgLCPsD6B1" />
        </node>
        <node concept="pkWqt" id="6fgLCPsEypv" role="pqm2j">
          <node concept="3clFbS" id="6fgLCPsEypw" role="2VODD2">
            <node concept="3clFbF" id="6fgLCPsEyuu" role="3cqZAp">
              <node concept="2OqwBi" id="6fgLCPsEyZv" role="3clFbG">
                <node concept="2OqwBi" id="6fgLCPsEyys" role="2Oq$k0">
                  <node concept="pncrf" id="6fgLCPsEyut" role="2Oq$k0" />
                  <node concept="3TrEf2" id="6fgLCPsEyJI" role="2OqNvi">
                    <ref role="3Tt5mk" to="c3oy:6fgLCPsD6B1" />
                  </node>
                </node>
                <node concept="3x8VRR" id="6fgLCPsEzeh" role="2OqNvi" />
              </node>
            </node>
          </node>
        </node>
      </node>
      <node concept="2iRfu4" id="1piarU9Fc17" role="2iSdaV" />
    </node>
  </node>
  <node concept="24kQdi" id="7eZWuAL6RQj">
    <property role="3GE5qa" value="module" />
    <ref role="1XX52x" to="c3oy:7eZWuAL6NR2" resolve="Module" />
    <node concept="3EZMnI" id="7eZWuAL6RQl" role="2wV5jI">
      <node concept="3F2HdR" id="7eZWuAL6RQz" role="3EZMnx">
        <ref role="1NtTu8" to="c3oy:7eZWuAL6NSB" />
        <node concept="2iRkQZ" id="7eZWuAL6RQA" role="2czzBx" />
        <node concept="VPM3Z" id="7eZWuAL6RQB" role="3F10Kt">
          <property role="VOm3f" value="false" />
        </node>
        <node concept="pVoyu" id="7eZWuAL6TgW" role="3F10Kt">
          <property role="VOm3f" value="true" />
        </node>
        <node concept="pVoyu" id="7eZWuAL6Tkr" role="3F10Kt">
          <property role="VOm3f" value="true" />
        </node>
        <node concept="pVoyu" id="7eZWuAL75MT" role="3F10Kt">
          <property role="VOm3f" value="true" />
        </node>
      </node>
      <node concept="3F0ifn" id="7eZWuAL75NP" role="3EZMnx">
        <property role="3F0ifm" value="" />
        <node concept="pVoyu" id="7eZWuAL75O_" role="3F10Kt">
          <property role="VOm3f" value="true" />
        </node>
      </node>
      <node concept="PMmxH" id="7eZWuAL6Tco" role="3EZMnx">
        <ref role="PMmxG" to="tpco:2wZex4PafBj" resolve="alias" />
        <node concept="pVoyu" id="7eZWuAL75OD" role="3F10Kt">
          <property role="VOm3f" value="true" />
        </node>
      </node>
      <node concept="3F0A7n" id="7eZWuAL6Tda" role="3EZMnx">
        <ref role="1NtTu8" to="tpck:h0TrG11" resolve="name" />
        <node concept="pj6Ft" id="7eZWuAL6Teg" role="3F10Kt" />
        <node concept="pVoyu" id="1piarU9Enz9" role="3F10Kt" />
        <node concept="ljvvj" id="6r3vkxbWmY4" role="3F10Kt">
          <property role="VOm3f" value="true" />
        </node>
      </node>
      <node concept="3EZMnI" id="2NTMEjkMJzD" role="3EZMnx">
        <node concept="VPM3Z" id="2NTMEjkMJzF" role="3F10Kt">
          <property role="VOm3f" value="false" />
        </node>
        <node concept="lj46D" id="2NTMEjkMJRz" role="3F10Kt">
          <property role="VOm3f" value="true" />
        </node>
        <node concept="3F0ifn" id="6r3vkxbWmVS" role="3EZMnx">
          <property role="3F0ifm" value="ctrl:" />
        </node>
        <node concept="1iCGBv" id="6r3vkxbZbUe" role="3EZMnx">
          <ref role="1NtTu8" to="c3oy:6r3vkxbWl_W" />
          <node concept="1sVBvm" id="6r3vkxbZbUg" role="1sWHZn">
            <node concept="3EZMnI" id="6r3vkxbZbUo" role="2wV5jI">
              <node concept="1QoScp" id="6r3vkxbZhMi" role="3EZMnx">
                <property role="1QpmdY" value="true" />
                <node concept="3F0A7n" id="6r3vkxbZhRq" role="1QoS34">
                  <property role="1Intyy" value="true" />
                  <ref role="1NtTu8" to="tpck:hnGE5uv" resolve="virtualPackage" />
                  <node concept="Vb9p2" id="6r3vkxbZTYf" role="3F10Kt" />
                </node>
                <node concept="pkWqt" id="6r3vkxbZhMl" role="3e4ffs">
                  <node concept="3clFbS" id="6r3vkxbZhMn" role="2VODD2">
                    <node concept="3clFbF" id="6r3vkxbZmGd" role="3cqZAp">
                      <node concept="2OqwBi" id="6r3vkxbZxLv" role="3clFbG">
                        <node concept="2OqwBi" id="6r3vkxbZn4Y" role="2Oq$k0">
                          <node concept="pncrf" id="6r3vkxbZmGc" role="2Oq$k0" />
                          <node concept="3TrcHB" id="6r3vkxbZxqc" role="2OqNvi">
                            <ref role="3TsBF5" to="tpck:hnGE5uv" resolve="virtualPackage" />
                          </node>
                        </node>
                        <node concept="17RvpY" id="6r3vkxbZyH7" role="2OqNvi" />
                      </node>
                    </node>
                  </node>
                </node>
                <node concept="3F0ifn" id="6r3vkxbZhTQ" role="1QoVPY">
                  <property role="3F0ifm" value="." />
                  <node concept="Vb9p2" id="6r3vkxbZRE_" role="3F10Kt" />
                </node>
              </node>
              <node concept="3F0ifn" id="6r3vkxbZbUE" role="3EZMnx">
                <property role="3F0ifm" value="/" />
                <ref role="1k5W1q" to="tpen:hFDnyG9" resolve="Dot" />
              </node>
              <node concept="2iRfu4" id="6r3vkxbZbUr" role="2iSdaV" />
              <node concept="VPM3Z" id="6r3vkxbZbUs" role="3F10Kt">
                <property role="VOm3f" value="false" />
              </node>
            </node>
          </node>
        </node>
        <node concept="1iCGBv" id="1lih$06O9i" role="3EZMnx">
          <ref role="1NtTu8" to="c3oy:6r3vkxbWl_W" />
          <node concept="1sVBvm" id="1lih$06O9k" role="1sWHZn">
            <node concept="3F0A7n" id="1lih$06O9J" role="2wV5jI">
              <property role="1Intyy" value="true" />
              <ref role="1NtTu8" to="tpck:h0TrG11" resolve="name" />
            </node>
          </node>
          <node concept="ljvvj" id="2NTMEjkMKd1" role="3F10Kt">
            <property role="VOm3f" value="true" />
          </node>
        </node>
        <node concept="3EZMnI" id="2NTMEjl1$LB" role="3EZMnx">
          <node concept="VPM3Z" id="2NTMEjl1$LD" role="3F10Kt">
            <property role="VOm3f" value="false" />
          </node>
          <node concept="2EHx9g" id="2NTMEjl1IhQ" role="2iSdaV" />
          <node concept="3F2HdR" id="2NTMEjkMJx5" role="3EZMnx">
            <property role="S$F3r" value="true" />
            <ref role="1NtTu8" to="c3oy:2NTMEjkMGlj" />
            <node concept="2EHx9g" id="2NTMEjkOcI4" role="2czzBx" />
            <node concept="pVoyu" id="2NTMEjkMKm6" role="3F10Kt">
              <property role="VOm3f" value="true" />
            </node>
            <node concept="lj46D" id="2NTMEjkMKm8" role="3F10Kt">
              <property role="VOm3f" value="true" />
            </node>
          </node>
        </node>
        <node concept="l2Vlx" id="2NTMEjkMKd4" role="2iSdaV" />
      </node>
      <node concept="3F0ifn" id="2NTMEjkMJuL" role="3EZMnx">
        <property role="3F0ifm" value="" />
        <node concept="pVoyu" id="2NTMEjkMJvS" role="3F10Kt">
          <property role="VOm3f" value="true" />
        </node>
      </node>
      <node concept="3F2HdR" id="g5NcwXs" role="3EZMnx">
        <property role="2czwfN" value="true" />
        <property role="2czwfM" value="true" />
        <ref role="1NtTu8" to="c3oy:7eZWuAL6RPP" />
        <node concept="3F0ifn" id="16BE8Zl$cte" role="2czzBI">
          <property role="3F0ifm" value="" />
          <property role="ilYzB" value="&lt;&lt; ... &gt;&gt;" />
          <node concept="VechU" id="16BE8Zl$ctf" role="3F10Kt">
            <property role="Vb096" value="gray" />
          </node>
          <node concept="VPxyj" id="16BE8Zl$ctg" role="3F10Kt">
            <property role="VOm3f" value="true" />
          </node>
          <node concept="2SqB2G" id="16BE8Zl$cth" role="2SqHTX">
            <property role="TrG5h" value="emptyPropertiesPlaceHolder" />
          </node>
          <node concept="OXEIz" id="JeRNd$To4P" role="P5bDN">
            <node concept="3JiINr" id="JeRNd$ToIh" role="OY2wv">
              <property role="2_m5XT" value="ext_4_RTransform" />
            </node>
          </node>
        </node>
        <node concept="2EHx9g" id="1KBnK_bwF2J" role="2czzBx" />
        <node concept="VPM3Z" id="hEU$P5i" role="3F10Kt">
          <property role="VOm3f" value="false" />
        </node>
        <node concept="pVoyu" id="1piarU9Exkl" role="3F10Kt">
          <property role="VOm3f" value="true" />
        </node>
        <node concept="pj6Ft" id="4G1g3fHey1I" role="3F10Kt">
          <property role="VOm3f" value="true" />
        </node>
        <node concept="ljvvj" id="4G1g3fHey1K" role="3F10Kt">
          <property role="VOm3f" value="true" />
        </node>
        <node concept="lj46D" id="1piarU9E$Vz" role="3F10Kt">
          <property role="VOm3f" value="true" />
        </node>
      </node>
      <node concept="3F0ifn" id="7eZWuAL6Tl3" role="3EZMnx">
        <property role="3F0ifm" value="" />
        <node concept="pVoyu" id="7eZWuAL6Tl_" role="3F10Kt">
          <property role="VOm3f" value="true" />
        </node>
        <node concept="lj46D" id="7eZWuAL75PK" role="3F10Kt">
          <property role="VOm3f" value="true" />
        </node>
      </node>
      <node concept="3F2HdR" id="5l83jlMfjdm" role="3EZMnx">
        <ref role="1NtTu8" to="c3oy:5l83jlMf9j5" />
        <node concept="2iRkQZ" id="5l83jlMfjdq" role="2czzBx" />
        <node concept="VPM3Z" id="5l83jlMfjdr" role="3F10Kt">
          <property role="VOm3f" value="false" />
        </node>
        <node concept="pVoyu" id="5l83jlMfje3" role="3F10Kt">
          <property role="VOm3f" value="true" />
        </node>
        <node concept="lj46D" id="5l83jlMfje6" role="3F10Kt">
          <property role="VOm3f" value="true" />
        </node>
        <node concept="pj6Ft" id="5l83jlMfjh0" role="3F10Kt">
          <property role="VOm3f" value="true" />
        </node>
      </node>
      <node concept="3F0ifn" id="7eZWuAL6Tmr" role="3EZMnx">
        <property role="3F0ifm" value="end " />
        <node concept="pVoyu" id="7eZWuAL6Tn4" role="3F10Kt">
          <property role="VOm3f" value="true" />
        </node>
      </node>
      <node concept="PMmxH" id="7eZWuAL6TnM" role="3EZMnx">
        <ref role="PMmxG" to="tpco:2wZex4PafBj" resolve="alias" />
      </node>
      <node concept="3F0A7n" id="7eZWuAL75QK" role="3EZMnx">
        <ref role="1NtTu8" to="tpck:h0TrG11" resolve="name" />
        <node concept="VechU" id="7eZWuAL75Ti" role="3F10Kt">
          <property role="Vb096" value="lightGray" />
        </node>
      </node>
      <node concept="l2Vlx" id="7eZWuAL6RQo" role="2iSdaV" />
    </node>
  </node>
  <node concept="24kQdi" id="7eZWuAL6Tp8">
    <ref role="1XX52x" to="c3oy:7eZWuAL6RiF" resolve="Library" />
    <node concept="3EZMnI" id="7eZWuAL6Tpa" role="2wV5jI">
      <node concept="PMmxH" id="7eZWuAL6Tpo" role="3EZMnx">
        <ref role="PMmxG" to="tpco:2wZex4PafBj" resolve="alias" />
      </node>
      <node concept="3F0A7n" id="7eZWuAL6Tqa" role="3EZMnx">
        <ref role="1NtTu8" to="tpck:h0TrG11" resolve="name" />
      </node>
      <node concept="3F0ifn" id="7eZWuAL6Trf" role="3EZMnx">
        <property role="3F0ifm" value="" />
        <node concept="pVoyu" id="7eZWuAL6Trt" role="3F10Kt">
          <property role="VOm3f" value="true" />
        </node>
        <node concept="lj46D" id="7eZWuAL6Trx" role="3F10Kt">
          <property role="VOm3f" value="true" />
        </node>
      </node>
      <node concept="3F0ifn" id="7eZWuAL6Tq$" role="3EZMnx">
        <property role="3F0ifm" value="end" />
        <node concept="pVoyu" id="7eZWuAL6TqY" role="3F10Kt">
          <property role="VOm3f" value="true" />
        </node>
      </node>
      <node concept="PMmxH" id="7eZWuAL6TqP" role="3EZMnx">
        <ref role="PMmxG" to="tpco:2wZex4PafBj" resolve="alias" />
      </node>
      <node concept="3F0A7n" id="7eZWuAL6TsG" role="3EZMnx">
        <ref role="1NtTu8" to="tpck:h0TrG11" resolve="name" />
        <node concept="VechU" id="7eZWuAL6TuA" role="3F10Kt">
          <property role="Vb096" value="lightGray" />
        </node>
      </node>
      <node concept="l2Vlx" id="7eZWuAL6Tpd" role="2iSdaV" />
    </node>
  </node>
  <node concept="24kQdi" id="5l83jlMf6vN">
    <property role="3GE5qa" value="phase" />
    <ref role="1XX52x" to="c3oy:5l83jlMf16T" resolve="Phase" />
    <node concept="3EZMnI" id="5l83jlMf7nT" role="2wV5jI">
      <node concept="PMmxH" id="5l83jlMf7o3" role="3EZMnx">
        <ref role="PMmxG" to="tpco:2wZex4PafBj" resolve="alias" />
        <ref role="1k5W1q" to="tpch:24YP6ZDyde4" resolve="Keyword" />
      </node>
      <node concept="3F0A7n" id="5l83jlMf7Wa" role="3EZMnx">
        <ref role="1NtTu8" to="tpck:h0TrG11" resolve="name" />
      </node>
      <node concept="3F2HdR" id="5o9jvTMbnUX" role="3EZMnx">
        <ref role="1NtTu8" to="c3oy:5o9jvTMbnTN" />
        <node concept="2EHx9g" id="4N4dcYnR9uK" role="2czzBx" />
        <node concept="VPM3Z" id="5o9jvTMbnUZ" role="3F10Kt">
          <property role="VOm3f" value="false" />
        </node>
        <node concept="pVoyu" id="5o9jvTMbnV0" role="3F10Kt">
          <property role="VOm3f" value="true" />
        </node>
        <node concept="lj46D" id="5o9jvTMbnV1" role="3F10Kt">
          <property role="VOm3f" value="true" />
        </node>
      </node>
      <node concept="3F2HdR" id="5o9jvTMaq7r" role="3EZMnx">
        <ref role="1NtTu8" to="c3oy:5o9jvTMaq6I" />
        <node concept="2EHx9g" id="4N4dcYnR9qc" role="2czzBx" />
        <node concept="VPM3Z" id="5o9jvTMaq7w" role="3F10Kt">
          <property role="VOm3f" value="false" />
        </node>
        <node concept="pVoyu" id="5o9jvTMaq7N" role="3F10Kt">
          <property role="VOm3f" value="true" />
        </node>
        <node concept="lj46D" id="5o9jvTMaq7Q" role="3F10Kt">
          <property role="VOm3f" value="true" />
        </node>
      </node>
      <node concept="3F0ifn" id="5o9jvTMaq8g" role="3EZMnx">
        <property role="3F0ifm" value="" />
        <node concept="pVoyu" id="5o9jvTMaq8B" role="3F10Kt">
          <property role="VOm3f" value="true" />
        </node>
      </node>
      <node concept="3F1sOY" id="3yJ4drhUgQ2" role="3EZMnx">
        <ref role="1NtTu8" to="c3oy:5l83jlMfKuN" />
        <node concept="pVoyu" id="3yJ4drhUgQs" role="3F10Kt">
          <property role="VOm3f" value="true" />
        </node>
        <node concept="lj46D" id="3yJ4drhUgQu" role="3F10Kt">
          <property role="VOm3f" value="true" />
        </node>
      </node>
      <node concept="3F0ifn" id="5l83jlMf7Wx" role="3EZMnx">
        <property role="3F0ifm" value="end " />
        <node concept="pVoyu" id="5l83jlMf7WD" role="3F10Kt">
          <property role="VOm3f" value="true" />
        </node>
      </node>
      <node concept="3F0A7n" id="5l83jlMf7WY" role="3EZMnx">
        <ref role="1NtTu8" to="tpck:h0TrG11" resolve="name" />
        <node concept="VechU" id="5l83jlMf99C" role="3F10Kt">
          <property role="Vb096" value="lightGray" />
        </node>
        <node concept="VPM3Z" id="5l83jlMf9d6" role="3F10Kt">
          <property role="VOm3f" value="false" />
        </node>
        <node concept="VPxyj" id="5l83jlMf9eV" role="3F10Kt">
          <property role="VOm3f" value="false" />
        </node>
      </node>
      <node concept="3F0ifn" id="5l83jlMg2Uc" role="3EZMnx">
        <property role="3F0ifm" value="" />
        <node concept="pVoyu" id="5l83jlMg2Ud" role="3F10Kt">
          <property role="VOm3f" value="true" />
        </node>
      </node>
      <node concept="l2Vlx" id="5l83jlMf7nW" role="2iSdaV" />
    </node>
  </node>
  <node concept="24kQdi" id="dGdbRZiBd0">
    <property role="3GE5qa" value="module" />
    <ref role="1XX52x" to="c3oy:dGdbRZiB83" resolve="AliasConcept" />
    <node concept="3F0A7n" id="dGdbRZiBd2" role="2wV5jI">
      <ref role="1NtTu8" to="tpck:h0TrG11" resolve="name" />
    </node>
  </node>
  <node concept="24kQdi" id="5o9jvTMap7x">
    <property role="3GE5qa" value="phase" />
    <ref role="1XX52x" to="c3oy:5o9jvTMaoHN" resolve="PhaseOutputDeclaration" />
    <node concept="3EZMnI" id="5o9jvTMap7z" role="2wV5jI">
      <node concept="PMmxH" id="5o9jvTMap7E" role="3EZMnx">
        <ref role="PMmxG" to="tpco:2wZex4PafBj" resolve="alias" />
        <ref role="1k5W1q" to="tpch:24YP6ZDyde4" resolve="Keyword" />
        <node concept="Vb9p2" id="4N4dcYnQCIo" role="3F10Kt">
          <property role="Vbekb" value="ITALIC" />
        </node>
      </node>
      <node concept="3F1sOY" id="5rrFAeHTCmc" role="3EZMnx">
        <ref role="1NtTu8" to="pfd6:6fgLCPsByeL" />
      </node>
      <node concept="3F0A7n" id="3z8Mov88Ajt" role="3EZMnx">
        <ref role="1NtTu8" to="tpck:h0TrG11" resolve="name" />
      </node>
      <node concept="2iRfu4" id="5o9jvTMap7A" role="2iSdaV" />
      <node concept="Vb9p2" id="5o9jvTMfAcb" role="3F10Kt">
        <property role="Vbekb" value="ITALIC" />
      </node>
    </node>
  </node>
  <node concept="24kQdi" id="3yJ4drhXX6e">
    <property role="3GE5qa" value="phase" />
    <ref role="1XX52x" to="c3oy:3yJ4drhX9yy" resolve="PhaseInputDeclaration" />
    <node concept="3EZMnI" id="3yJ4drhXX6g" role="2wV5jI">
      <node concept="PMmxH" id="3yJ4drhXX9s" role="3EZMnx">
        <ref role="PMmxG" to="tpco:2wZex4PafBj" resolve="alias" />
        <ref role="1k5W1q" to="tpch:24YP6ZDyde4" resolve="Keyword" />
        <node concept="Vb9p2" id="3yJ4drhXXar" role="3F10Kt">
          <property role="Vbekb" value="ITALIC" />
        </node>
      </node>
      <node concept="1iCGBv" id="3z8Mov88Qfq" role="3EZMnx">
        <ref role="1NtTu8" to="c3oy:5rrFAeHUiE8" />
        <node concept="1sVBvm" id="3z8Mov88Qfs" role="1sWHZn">
          <node concept="3F1sOY" id="3z8Mov88Qf_" role="2wV5jI">
            <ref role="1NtTu8" to="pfd6:6fgLCPsByeL" />
          </node>
        </node>
      </node>
      <node concept="l2Vlx" id="3yJ4drhXX6j" role="2iSdaV" />
      <node concept="1iCGBv" id="3z8Mov88QfJ" role="3EZMnx">
        <ref role="1NtTu8" to="c3oy:5rrFAeHUiE8" />
        <node concept="1sVBvm" id="3z8Mov88QfL" role="1sWHZn">
          <node concept="3F0A7n" id="3z8Mov88QfX" role="2wV5jI">
            <property role="1Intyy" value="true" />
            <ref role="1NtTu8" to="tpck:h0TrG11" resolve="name" />
          </node>
        </node>
      </node>
      <node concept="3EZMnI" id="3z8Mov8c_lR" role="3EZMnx">
        <node concept="VPM3Z" id="3z8Mov8c_lT" role="3F10Kt">
          <property role="VOm3f" value="false" />
        </node>
        <node concept="3F0ifn" id="3z8Mov8atSp" role="3EZMnx">
          <property role="3F0ifm" value="with" />
        </node>
        <node concept="3F2HdR" id="3z8Mov8atTh" role="3EZMnx">
          <ref role="1NtTu8" to="c3oy:3z8Mov8atRo" />
          <node concept="2EHx9g" id="3z8Mov8atTy" role="2czzBx" />
          <node concept="VPM3Z" id="3z8Mov8atTl" role="3F10Kt">
            <property role="VOm3f" value="false" />
          </node>
        </node>
        <node concept="l2Vlx" id="3z8Mov8c_lW" role="2iSdaV" />
        <node concept="pkWqt" id="3z8Mov8c_mG" role="pqm2j">
          <node concept="3clFbS" id="3z8Mov8c_mH" role="2VODD2">
            <node concept="3clFbF" id="3z8Mov8c_rC" role="3cqZAp">
              <node concept="1Wc70l" id="3z8Mov8cCnx" role="3clFbG">
                <node concept="2OqwBi" id="3z8Mov8cFFe" role="3uHU7w">
                  <node concept="2OqwBi" id="3z8Mov8cELH" role="2Oq$k0">
                    <node concept="1PxgMI" id="3z8Mov8cErS" role="2Oq$k0">
                      <ref role="1PxNhF" to="pfd6:3SvAy0XHWnV" resolve="VectorType" />
                      <node concept="2OqwBi" id="3z8Mov8cDgB" role="1PxMeX">
                        <node concept="2OqwBi" id="3z8Mov8cC_A" role="2Oq$k0">
                          <node concept="pncrf" id="3z8Mov8cCwg" role="2Oq$k0" />
                          <node concept="3TrEf2" id="3z8Mov8cCW5" role="2OqNvi">
                            <ref role="3Tt5mk" to="c3oy:5rrFAeHUiE8" />
                          </node>
                        </node>
                        <node concept="3TrEf2" id="3z8Mov8cDCH" role="2OqNvi">
                          <ref role="3Tt5mk" to="pfd6:6fgLCPsByeL" />
                        </node>
                      </node>
                    </node>
                    <node concept="3TrEf2" id="3z8Mov8cFde" role="2OqNvi">
                      <ref role="3Tt5mk" to="pfd6:3SvAy0XHWz0" />
                    </node>
                  </node>
                  <node concept="1mIQ4w" id="3z8Mov8cG8R" role="2OqNvi">
                    <node concept="chp4Y" id="3z8Mov8cGiO" role="cj9EA">
                      <ref role="cht4Q" to="2gyk:5gQ2EqXQH6v" resolve="ParticleType" />
                    </node>
                  </node>
                </node>
                <node concept="2OqwBi" id="3z8Mov8cAVx" role="3uHU7B">
                  <node concept="2OqwBi" id="3z8Mov8cA63" role="2Oq$k0">
                    <node concept="2OqwBi" id="3z8Mov8c_vA" role="2Oq$k0">
                      <node concept="pncrf" id="3z8Mov8c_rB" role="2Oq$k0" />
                      <node concept="3TrEf2" id="3z8Mov8c_OD" role="2OqNvi">
                        <ref role="3Tt5mk" to="c3oy:5rrFAeHUiE8" />
                      </node>
                    </node>
                    <node concept="3TrEf2" id="3z8Mov8cAvv" role="2OqNvi">
                      <ref role="3Tt5mk" to="pfd6:6fgLCPsByeL" />
                    </node>
                  </node>
                  <node concept="1mIQ4w" id="3z8Mov8cC0P" role="2OqNvi">
                    <node concept="chp4Y" id="3z8Mov8cC8h" role="cj9EA">
                      <ref role="cht4Q" to="pfd6:3SvAy0XHWnV" resolve="VectorType" />
                    </node>
                  </node>
                </node>
              </node>
            </node>
          </node>
        </node>
      </node>
    </node>
  </node>
  <node concept="24kQdi" id="3z8Mov8aLoI">
    <property role="3GE5qa" value="phase" />
    <ref role="1XX52x" to="c3oy:3z8Mov8aL2J" resolve="InputPropertyDeclaration" />
    <node concept="3EZMnI" id="3z8Mov8aLoO" role="2wV5jI">
      <node concept="3F1sOY" id="3z8Mov8aLoV" role="3EZMnx">
        <ref role="1NtTu8" to="pfd6:6fgLCPsByeL" />
      </node>
      <node concept="3F0A7n" id="3z8Mov8aLp1" role="3EZMnx">
        <ref role="1NtTu8" to="tpck:h0TrG11" resolve="name" />
      </node>
      <node concept="3EZMnI" id="3z8Mov8aLrY" role="3EZMnx">
        <node concept="VPM3Z" id="3z8Mov8aLs0" role="3F10Kt">
          <property role="VOm3f" value="false" />
        </node>
        <node concept="3F0ifn" id="3z8Mov8aLsc" role="3EZMnx">
          <property role="3F0ifm" value="=" />
        </node>
        <node concept="3F1sOY" id="3z8Mov8aLsk" role="3EZMnx">
          <ref role="1NtTu8" to="c9eo:5l83jlMhFC2" />
        </node>
        <node concept="l2Vlx" id="3z8Mov8aLs3" role="2iSdaV" />
        <node concept="pkWqt" id="3z8Mov8aLvj" role="pqm2j">
          <node concept="3clFbS" id="3z8Mov8aLvk" role="2VODD2">
            <node concept="3clFbF" id="3z8Mov8aL$g" role="3cqZAp">
              <node concept="2OqwBi" id="3z8Mov8aMts" role="3clFbG">
                <node concept="2OqwBi" id="3z8Mov8aLFh" role="2Oq$k0">
                  <node concept="pncrf" id="3z8Mov8aL$f" role="2Oq$k0" />
                  <node concept="3TrEf2" id="3z8Mov8aM3F" role="2OqNvi">
                    <ref role="3Tt5mk" to="c9eo:5l83jlMhFC2" />
                  </node>
                </node>
                <node concept="3x8VRR" id="3z8Mov8aMLg" role="2OqNvi" />
              </node>
            </node>
          </node>
        </node>
      </node>
      <node concept="l2Vlx" id="3z8Mov8aLoR" role="2iSdaV" />
    </node>
  </node>
</model>

